[gd_scene load_steps=4 format=2]

[ext_resource path="res://images/clock.png" type="Texture" id=1]
[ext_resource path="res://images/timelapse-minutehand.png" type="Texture" id=2]

[sub_resource type="Animation" id=1]
resource_name = "day_and_night"
length = 720.0
loop = true
tracks/0/type = "value"
tracks/0/path = NodePath("clockArrow:rotation_degrees")
tracks/0/interp = 1
tracks/0/loop_wrap = false
tracks/0/imported = false
tracks/0/enabled = true
tracks/0/keys = {
"times": PoolRealArray( 0, 720 ),
"transitions": PoolRealArray( 1, 1 ),
"update": 0,
"values": [ 0.0, 360.0 ]
}

[node name="Clock" type="Sprite"]
position = Vector2( 193.915, 213.365 )
scale = Vector2( 0.744629, 0.565993 )
texture = ExtResource( 1 )

[node name="clockArrow" type="Sprite" parent="."]
position = Vector2( -3.43449, 16.0148 )
scale = Vector2( 1.1543, 1.44968 )
texture = ExtResource( 2 )

[node name="AnimationPlayer" type="AnimationPlayer" parent="."]
anims/day_and_night = SubResource( 1 )
