[gd_scene load_steps=3 format=2]

[ext_resource path="res://tiles/IslandEncounterTiles/Barrel.png" type="Texture" id=1]

[sub_resource type="CircleShape2D" id=1]
radius = 45.4514

[node name="Barrel" type="StaticBody2D"]

[node name="Sprite" type="Sprite" parent="."]
scale = Vector2( 0.3, 0.3 )
texture = ExtResource( 1 )

[node name="CollisionShape2D" type="CollisionShape2D" parent="."]
position = Vector2( 0.000121117, -2.15845 )
shape = SubResource( 1 )
