[gd_scene load_steps=2 format=2]

[ext_resource path="res://images/buildingEight.png" type="Texture" id=1]

[node name="BuildingSix" type="StaticBody2D"]

[node name="Sprite" type="Sprite" parent="."]
position = Vector2( 9.53674e-007, 0 )
scale = Vector2( 0.174118, 0.181081 )
texture = ExtResource( 1 )

[node name="CollisionPolygon2D" type="CollisionPolygon2D" parent="."]
polygon = PoolVector2Array( 60, -20, 40, -40, -30, -40, -70, 0, -30, 40, 0, 40, 40, 40, 70, 0 )
