[gd_scene load_steps=2 format=2]

[ext_resource path="res://images/buildingFive.png" type="Texture" id=1]

[node name="BuildingFour" type="StaticBody2D"]

[node name="Sprite" type="Sprite" parent="."]
scale = Vector2( 0.5, 0.5 )
texture = ExtResource( 1 )

[node name="CollisionPolygon2D" type="CollisionPolygon2D" parent="."]
position = Vector2( -8.7923, 4.31696 )
polygon = PoolVector2Array( 135.189, -43.317, 135.189, 44.683, -132.811, 43.683, -132.811, -45.317, 134.189, -45.317 )
