[gd_scene load_steps=2 format=2]

[ext_resource path="res://tiles/IslandEncounterTiles/BushesTwo.png" type="Texture" id=1]

[node name="Bushes" type="StaticBody2D"]

[node name="Sprite" type="Sprite" parent="."]
scale = Vector2( 0.3, 0.3 )
texture = ExtResource( 1 )

[node name="CollisionPolygon2D" type="CollisionPolygon2D" parent="."]
polygon = PoolVector2Array( -20.0267, -41.2538, 28.2695, -35.9205, 56.1214, -17.8464, 64.714, -3.92048, 64.714, 3.78322, 61.1584, 13.2647, 43.0843, 31.3388, 29.4547, 36.6721, 11.6769, 36.6721, 11.0844, 31.9314, -10.249, 31.9314, -10.5453, 36.0795, -14.9897, 40.8202, -23.8786, 40.8202, -42.249, 26.8943, -60.6193, 4.67211, -60.6193, -4.21677, -42.5453, -27.3279, -30.1008, -27.0316 )
