[gd_scene load_steps=3 format=2]

[ext_resource path="res://map_view/island_view/Character/Character.tscn" type="PackedScene" id=1]
[ext_resource path="res://map_view/island_view/Character/npc/NPC.gd" type="Script" id=2]

[node name="NPC" instance=ExtResource( 1 )]
script = ExtResource( 2 )
