[gd_scene load_steps=3 format=2]

[ext_resource path="res://Videos/NoGold.webm" type="VideoStream" id=1]
[ext_resource path="res://VideoPlayer.gd" type="Script" id=2]

[node name="Node2D" type="Node2D"]

[node name="VideoPlayer" type="VideoPlayer" parent="."]
margin_right = 1282.0
margin_bottom = 720.0
stream = ExtResource( 1 )
autoplay = true
script = ExtResource( 2 )

[node name="ColorRect" type="ColorRect" parent="."]
show_behind_parent = true
margin_right = 40.0
margin_bottom = 40.0
color = Color( 0, 0, 0, 1 )
