[gd_scene load_steps=41 format=2]

[ext_resource path="res://IslandsTopDownView/IslandVisualCode.gd" type="Script" id=1]
[ext_resource path="res://tiles/IslandEncounterTiles/GrassTile.png" type="Texture" id=2]
[ext_resource path="res://tiles/IslandEncounterTiles/GrassTiletwo.png" type="Texture" id=3]
[ext_resource path="res://tiles/IslandEncounterTiles/WoodenDockGold128px.png" type="Texture" id=4]
[ext_resource path="res://tiles/IslandEncounterTiles/PlainGrassTile.v3.png" type="Texture" id=5]
[ext_resource path="res://tiles/IslandEncounterTiles/SandTile.png" type="Texture" id=6]
[ext_resource path="res://tiles/IslandEncounterTiles/SeaTile.png" type="Texture" id=7]
[ext_resource path="res://tiles/IslandEncounterTiles/SandTileThree.png" type="Texture" id=8]
[ext_resource path="res://tiles/IslandEncounterTiles/SanDTileTwo.png" type="Texture" id=9]
[ext_resource path="res://tiles/IslandEncounterTiles/NoneShallPass.png" type="Texture" id=10]
[ext_resource path="res://tiles/IslandEncounterTiles/NonShallPassSand.png" type="Texture" id=11]
[ext_resource path="res://tiles/IslandEncounterTiles/WoodenTile128px.png" type="Texture" id=12]
[ext_resource path="res://CharacterTopDownView/Character.tscn" type="PackedScene" id=13]
[ext_resource path="res://CharactersImages/CharacterImages/Merchant_Idle.png" type="Texture" id=14]
[ext_resource path="res://IslandsTopDownView/Assets/Tree.tscn" type="PackedScene" id=15]
[ext_resource path="res://IslandsTopDownView/Assets/BuildingTwo.tscn" type="PackedScene" id=16]
[ext_resource path="res://IslandsTopDownView/Assets/BuildingSix.tscn" type="PackedScene" id=17]
[ext_resource path="res://IslandsTopDownView/Assets/Bushes.tscn" type="PackedScene" id=18]
[ext_resource path="res://IslandsTopDownView/Assets/BuildingFour.tscn" type="PackedScene" id=19]
[ext_resource path="res://IslandsTopDownView/Assets/BuildingFive.tscn" type="PackedScene" id=20]
[ext_resource path="res://IslandsTopDownView/Assets/Exit.tscn" type="PackedScene" id=21]
[ext_resource path="res://IslandsTopDownView/Assets/Item.tscn" type="PackedScene" id=22]
[ext_resource path="res://mapAudio/Seagull.wav" type="AudioStream" id=23]
[ext_resource path="res://mapAudio/Rough_Sea_Waves.wav" type="AudioStream" id=24]
[ext_resource path="res://Temp.tscn" type="PackedScene" id=25]
[ext_resource path="res://images/8 bit pirate SHIP.png" type="Texture" id=26]
[ext_resource path="res://IslandsTopDownView/Assets/PalmTree.tscn" type="PackedScene" id=27]
[ext_resource path="res://IslandsTopDownView/Assets/Rock.tscn" type="PackedScene" id=28]
[ext_resource path="res://map_graphics/DayNightTint.tscn" type="PackedScene" id=29]

[sub_resource type="NavigationPolygon" id=1]
vertices = PoolVector2Array( 0, 0, 64, 0, 64, 64, 0, 64 )
polygons = [ PoolIntArray( 0, 1, 2, 3 ) ]

[sub_resource type="NavigationPolygon" id=2]
vertices = PoolVector2Array( 0, 0, 64, 0, 64, 64, 0, 64 )
polygons = [ PoolIntArray( 0, 1, 2, 3 ) ]

[sub_resource type="NavigationPolygon" id=3]
vertices = PoolVector2Array( 0, 0, 64, 0, 64, 64, 0, 64 )
polygons = [ PoolIntArray( 0, 1, 2, 3 ) ]

[sub_resource type="NavigationPolygon" id=4]
vertices = PoolVector2Array( 0, 0, 64, 0, 64, 64, 0, 64 )
polygons = [ PoolIntArray( 0, 1, 2, 3 ) ]

[sub_resource type="NavigationPolygon" id=5]
vertices = PoolVector2Array( 0, 0, 64, 0, 64, 64, 0, 64 )
polygons = [ PoolIntArray( 0, 1, 2, 3 ) ]

[sub_resource type="ConvexPolygonShape2D" id=6]
points = PoolVector2Array( 0, 0, 64, 0, 64, 64, 0, 64 )

[sub_resource type="NavigationPolygon" id=7]
vertices = PoolVector2Array( 0, 0, 64, 0, 64, 64, 0, 64 )
polygons = [ PoolIntArray( 0, 1, 2, 3 ) ]

[sub_resource type="NavigationPolygon" id=8]
vertices = PoolVector2Array( 0, 0, 64, 0, 64, 64, 0, 64 )
polygons = [ PoolIntArray( 0, 1, 2, 3 ) ]

[sub_resource type="NavigationPolygon" id=9]
vertices = PoolVector2Array( 0, 0, 64, 0, 64, 64, 0, 64 )
polygons = [ PoolIntArray( 0, 1, 2, 3 ) ]

[sub_resource type="TileSet" id=10]
0/name = "GrassTile.png 0"
0/texture = ExtResource( 2 )
0/tex_offset = Vector2( 0, 0 )
0/modulate = Color( 1, 1, 1, 1 )
0/region = Rect2( 0, 0, 64, 64 )
0/tile_mode = 0
0/occluder_offset = Vector2( 0, 0 )
0/navigation_offset = Vector2( 0, 0 )
0/navigation = SubResource( 1 )
0/shapes = [  ]
0/z_index = 0
1/name = "GrassTiletwo.png 1"
1/texture = ExtResource( 3 )
1/tex_offset = Vector2( 0, 0 )
1/modulate = Color( 1, 1, 1, 1 )
1/region = Rect2( 0, 0, 64, 64 )
1/tile_mode = 0
1/occluder_offset = Vector2( 0, 0 )
1/navigation_offset = Vector2( 0, 0 )
1/navigation = SubResource( 2 )
1/shapes = [  ]
1/z_index = 0
2/name = "PlainGrassTile.v3.png 2"
2/texture = ExtResource( 5 )
2/tex_offset = Vector2( 0, 0 )
2/modulate = Color( 1, 1, 1, 1 )
2/region = Rect2( 0, 0, 64, 64 )
2/tile_mode = 0
2/occluder_offset = Vector2( 0, 0 )
2/navigation_offset = Vector2( 0, 0 )
2/navigation = SubResource( 4 )
2/shapes = [  ]
2/z_index = 0
3/name = "SandTile.png 3"
3/texture = ExtResource( 6 )
3/tex_offset = Vector2( 0, 0 )
3/modulate = Color( 1, 1, 1, 1 )
3/region = Rect2( 0, 0, 64, 64 )
3/tile_mode = 0
3/occluder_offset = Vector2( 0, 0 )
3/navigation_offset = Vector2( 0, 0 )
3/navigation = SubResource( 5 )
3/shapes = [  ]
3/z_index = 0
4/name = "SeaTile.png 4"
4/texture = ExtResource( 7 )
4/tex_offset = Vector2( 0, 0 )
4/modulate = Color( 1, 1, 1, 1 )
4/region = Rect2( 0, 0, 64, 64 )
4/tile_mode = 0
4/occluder_offset = Vector2( 0, 0 )
4/navigation_offset = Vector2( 0, 0 )
4/shapes = [ {
"autotile_coord": Vector2( 0, 0 ),
"one_way": false,
"one_way_margin": 1.0,
"shape": SubResource( 6 ),
"shape_transform": Transform2D( 1, 0, 0, 1, 0, 0 )
} ]
4/z_index = 0
5/name = "SandTileThree.png 5"
5/texture = ExtResource( 8 )
5/tex_offset = Vector2( 0, 0 )
5/modulate = Color( 1, 1, 1, 1 )
5/region = Rect2( 0, 0, 64, 64 )
5/tile_mode = 0
5/occluder_offset = Vector2( 0, 0 )
5/navigation_offset = Vector2( 0, 0 )
5/navigation = SubResource( 7 )
5/shapes = [  ]
5/z_index = 0
6/name = "SanDTileTwo.png 6"
6/texture = ExtResource( 9 )
6/tex_offset = Vector2( 0, 0 )
6/modulate = Color( 1, 1, 1, 1 )
6/region = Rect2( 0, 0, 64, 64 )
6/tile_mode = 0
6/occluder_offset = Vector2( 0, 0 )
6/navigation_offset = Vector2( 0, 0 )
6/navigation = SubResource( 8 )
6/shapes = [  ]
6/z_index = 0
7/name = "NoneShallPass.png 7"
7/texture = ExtResource( 10 )
7/tex_offset = Vector2( 0, 0 )
7/modulate = Color( 1, 1, 1, 1 )
7/region = Rect2( 0, 0, 64, 64 )
7/tile_mode = 0
7/occluder_offset = Vector2( 0, 0 )
7/navigation_offset = Vector2( 0, 0 )
7/shapes = [  ]
7/z_index = 0
8/name = "NonShallPassSand.png 8"
8/texture = ExtResource( 11 )
8/tex_offset = Vector2( 0, 0 )
8/modulate = Color( 1, 1, 1, 1 )
8/region = Rect2( 0, 0, 64, 64 )
8/tile_mode = 0
8/occluder_offset = Vector2( 0, 0 )
8/navigation_offset = Vector2( 0, 0 )
8/shapes = [  ]
8/z_index = 0
9/name = "WoodenTile128px.png 9"
9/texture = ExtResource( 12 )
9/tex_offset = Vector2( 0, 0 )
9/modulate = Color( 1, 1, 1, 1 )
9/region = Rect2( 0, 0, 64, 64 )
9/tile_mode = 0
9/occluder_offset = Vector2( 0, 0 )
9/navigation_offset = Vector2( 0, 0 )
9/navigation = SubResource( 9 )
9/shapes = [  ]
9/z_index = 0
10/name = "WoodenDockGold128px.png 10"
10/texture = ExtResource( 4 )
10/tex_offset = Vector2( 0, 0 )
10/modulate = Color( 1, 1, 1, 1 )
10/region = Rect2( 0, 0, 64, 64 )
10/tile_mode = 0
10/occluder_offset = Vector2( 0, 0 )
10/navigation_offset = Vector2( 0, 0 )
10/navigation = SubResource( 3 )
10/shapes = [  ]
10/z_index = 0

[sub_resource type="CircleShape2D" id=11]
radius = 27.5461

[node name="Node2D" type="Node2D"]
script = ExtResource( 1 )

[node name="Navigation2D" type="Navigation2D" parent="."]

[node name="TileMap" type="TileMap" parent="Navigation2D"]
tile_set = SubResource( 10 )
collision_friction = 0.0
format = 1
tile_data = PoolIntArray( -458764, 4, 0, -458763, 4, 0, -458762, 4, 0, -458761, 4, 0, -458760, 4, 0, -458759, 4, 0, -458758, 4, 0, -458757, 4, 0, -458756, 4, 0, -458755, 4, 0, -458754, 4, 0, -458753, 4, 0, -524288, 4, 0, -524287, 4, 0, -524286, 4, 0, -524285, 4, 0, -524284, 4, 0, -524283, 4, 0, -524282, 4, 0, -524281, 4, 0, -524280, 4, 0, -524279, 4, 0, -524278, 4, 0, -524277, 4, 0, -524276, 4, 0, -524275, 4, 0, -524274, 4, 0, -524273, 4, 0, -524272, 4, 0, -524271, 4, 0, -524270, 4, 0, -524269, 4, 0, -524268, 4, 0, -524267, 4, 0, -524266, 4, 0, -524265, 4, 0, -524264, 4, 0, -524263, 4, 0, -524262, 4, 0, -524261, 4, 0, -524260, 4, 0, -524259, 4, 0, -524258, 4, 0, -524257, 4, 0, -524256, 4, 0, -524255, 4, 0, -524254, 4, 0, -524253, 4, 0, -524252, 4, 0, -524251, 4, 0, -524250, 4, 0, -524249, 4, 0, -524248, 4, 0, -524247, 4, 0, -524246, 4, 0, -524245, 4, 0, -524244, 4, 0, -524243, 4, 0, -524242, 4, 0, -524241, 4, 0, -524240, 4, 0, -524239, 4, 0, -524238, 4, 0, -393228, 4, 0, -393227, 4, 0, -393226, 4, 0, -393225, 4, 0, -393224, 4, 0, -393223, 4, 0, -393222, 4, 0, -393221, 4, 0, -393220, 4, 0, -393219, 4, 0, -393218, 4, 0, -393217, 4, 0, -458752, 4, 0, -458751, 4, 0, -458750, 4, 0, -458749, 4, 0, -458748, 4, 0, -458747, 4, 0, -458746, 4, 0, -458745, 4, 0, -458744, 4, 0, -458743, 4, 0, -458742, 4, 0, -458741, 4, 0, -458740, 4, 0, -458739, 4, 0, -458738, 4, 0, -458737, 4, 0, -458736, 4, 0, -458735, 4, 0, -458734, 4, 0, -458733, 4, 0, -458732, 4, 0, -458731, 4, 0, -458730, 4, 0, -458729, 4, 0, -458728, 4, 0, -458727, 4, 0, -458726, 4, 0, -458725, 4, 0, -458724, 4, 0, -458723, 4, 0, -458722, 4, 0, -458721, 4, 0, -458720, 4, 0, -458719, 4, 0, -458718, 4, 0, -458717, 4, 0, -458716, 4, 0, -458715, 4, 0, -458714, 4, 0, -458713, 4, 0, -458712, 4, 0, -458711, 4, 0, -458710, 4, 0, -458709, 4, 0, -458708, 4, 0, -458707, 4, 0, -458706, 4, 0, -458705, 4, 0, -458704, 4, 0, -458703, 4, 0, -458702, 4, 0, -327692, 4, 0, -327691, 4, 0, -327690, 4, 0, -327689, 4, 0, -327688, 4, 0, -327687, 4, 0, -327686, 4, 0, -327685, 4, 0, -327684, 4, 0, -327683, 4, 0, -327682, 4, 0, -327681, 4, 0, -393216, 4, 0, -393215, 4, 0, -393214, 4, 0, -393213, 4, 0, -393212, 4, 0, -393211, 4, 0, -393210, 4, 0, -393209, 4, 0, -393208, 4, 0, -393207, 4, 0, -393206, 4, 0, -393205, 4, 0, -393204, 4, 0, -393203, 4, 0, -393202, 4, 0, -393201, 4, 0, -393200, 4, 0, -393199, 4, 0, -393198, 4, 0, -393197, 4, 0, -393196, 4, 0, -393195, 4, 0, -393194, 4, 0, -393193, 4, 0, -393192, 4, 0, -393191, 4, 0, -393190, 4, 0, -393189, 4, 0, -393188, 4, 0, -393187, 4, 0, -393186, 4, 0, -393185, 4, 0, -393184, 4, 0, -393183, 4, 0, -393182, 4, 0, -393181, 4, 0, -393180, 4, 0, -393179, 4, 0, -393178, 4, 0, -393177, 4, 0, -393176, 4, 0, -393175, 4, 0, -393174, 4, 0, -393173, 4, 0, -393172, 4, 0, -393171, 4, 0, -393170, 4, 0, -393169, 4, 0, -393168, 4, 0, -393167, 4, 0, -393166, 4, 0, -262156, 4, 0, -262155, 4, 0, -262154, 4, 0, -262153, 4, 0, -262152, 4, 0, -262151, 4, 0, -262150, 4, 0, -262149, 4, 0, -262148, 4, 0, -262147, 4, 0, -262146, 4, 0, -262145, 4, 0, -327680, 4, 0, -327679, 4, 0, -327678, 4, 0, -327677, 4, 0, -327676, 4, 0, -327675, 4, 0, -327674, 4, 0, -327673, 4, 0, -327672, 4, 0, -327671, 4, 0, -327670, 4, 0, -327669, 4, 0, -327668, 4, 0, -327667, 4, 0, -327666, 4, 0, -327665, 4, 0, -327664, 4, 0, -327663, 4, 0, -327662, 4, 0, -327661, 4, 0, -327660, 4, 0, -327659, 4, 0, -327658, 4, 0, -327657, 4, 0, -327656, 4, 0, -327655, 4, 0, -327654, 4, 0, -327653, 4, 0, -327652, 4, 0, -327651, 4, 0, -327650, 4, 0, -327649, 4, 0, -327648, 4, 0, -327647, 4, 0, -327646, 4, 0, -327645, 4, 0, -327644, 4, 0, -327643, 4, 0, -327642, 4, 0, -327641, 4, 0, -327640, 4, 0, -327639, 4, 0, -327638, 4, 0, -327637, 4, 0, -327636, 4, 0, -327635, 4, 0, -327634, 4, 0, -327633, 4, 0, -327632, 4, 0, -327631, 4, 0, -327630, 4, 0, -196620, 4, 0, -196619, 4, 0, -196618, 4, 0, -196617, 4, 0, -196616, 4, 0, -196615, 4, 0, -196614, 4, 0, -196613, 4, 0, -196612, 4, 0, -196611, 4, 0, -196610, 4, 0, -196609, 4, 0, -262144, 4, 0, -262143, 4, 0, -262142, 4, 0, -262141, 4, 0, -262140, 4, 0, -262139, 4, 0, -262138, 4, 0, -262137, 4, 0, -262136, 4, 0, -262135, 4, 0, -262134, 4, 0, -262133, 4, 0, -262132, 4, 0, -262131, 4, 0, -262130, 4, 0, -262129, 4, 0, -262128, 4, 0, -262127, 4, 0, -262126, 4, 0, -262125, 4, 0, -262124, 4, 0, -262123, 4, 0, -262122, 4, 0, -262121, 4, 0, -262120, 4, 0, -262119, 4, 0, -262118, 4, 0, -262117, 4, 0, -262116, 4, 0, -262115, 4, 0, -262114, 4, 0, -262113, 4, 0, -262112, 4, 0, -262111, 4, 0, -262110, 4, 0, -262109, 4, 0, -262108, 4, 0, -262107, 4, 0, -262106, 4, 0, -262105, 4, 0, -262104, 4, 0, -262103, 4, 0, -262102, 4, 0, -262101, 4, 0, -262100, 4, 0, -262099, 4, 0, -262098, 4, 0, -262097, 4, 0, -262096, 4, 0, -262095, 4, 0, -262094, 4, 0, -131084, 4, 0, -131083, 4, 0, -131082, 4, 0, -131081, 4, 0, -131080, 4, 0, -131079, 4, 0, -131078, 4, 0, -131077, 4, 0, -131076, 4, 0, -131075, 4, 0, -131074, 4, 0, -131073, 4, 0, -196608, 4, 0, -196607, 4, 0, -196606, 4, 0, -196605, 4, 0, -196604, 4, 0, -196603, 4, 0, -196602, 4, 0, -196601, 4, 0, -196600, 4, 0, -196599, 4, 0, -196598, 4, 0, -196597, 4, 0, -196596, 4, 0, -196595, 4, 0, -196594, 4, 0, -196593, 4, 0, -196592, 4, 0, -196591, 4, 0, -196590, 4, 0, -196589, 4, 0, -196588, 4, 0, -196587, 4, 0, -196586, 4, 0, -196585, 4, 0, -196584, 4, 0, -196583, 4, 0, -196582, 4, 0, -196581, 4, 0, -196580, 4, 0, -196579, 4, 0, -196578, 4, 0, -196577, 4, 0, -196576, 4, 0, -196575, 4, 0, -196574, 4, 0, -196573, 4, 0, -196572, 4, 0, -196571, 4, 0, -196570, 4, 0, -196569, 4, 0, -196568, 4, 0, -196567, 4, 0, -196566, 4, 0, -196565, 4, 0, -196564, 4, 0, -196563, 4, 0, -196562, 4, 0, -196561, 4, 0, -196560, 4, 0, -196559, 4, 0, -196558, 4, 0, -65548, 4, 0, -65547, 4, 0, -65546, 4, 0, -65545, 4, 0, -65544, 4, 0, -65543, 4, 0, -65542, 4, 0, -65541, 4, 0, -65540, 4, 0, -65539, 4, 0, -65538, 4, 0, -65537, 4, 0, -131072, 4, 0, -131071, 4, 0, -131070, 4, 0, -131069, 4, 0, -131068, 4, 0, -131067, 4, 0, -131066, 4, 0, -131065, 4, 0, -131064, 4, 0, -131063, 4, 0, -131062, 4, 0, -131061, 4, 0, -131060, 4, 0, -131059, 4, 0, -131058, 4, 0, -131057, 4, 0, -131056, 4, 0, -131055, 4, 0, -131054, 4, 0, -131053, 4, 0, -131052, 4, 0, -131051, 4, 0, -131050, 4, 0, -131049, 4, 0, -131048, 4, 0, -131047, 4, 0, -131046, 4, 0, -131045, 4, 0, -131044, 4, 0, -131043, 4, 0, -131042, 4, 0, -131041, 4, 0, -131040, 4, 0, -131039, 4, 0, -131038, 4, 0, -131037, 4, 0, -131036, 4, 0, -131035, 4, 0, -131034, 4, 0, -131033, 4, 0, -131032, 4, 0, -131031, 4, 0, -131030, 4, 0, -131029, 4, 0, -131028, 4, 0, -131027, 4, 0, -131026, 4, 0, -131025, 4, 0, -131024, 4, 0, -131023, 4, 0, -131022, 4, 0, -12, 4, 0, -11, 4, 0, -10, 4, 0, -9, 4, 0, -8, 4, 0, -7, 4, 0, -6, 4, 0, -5, 4, 0, -4, 4, 0, -3, 4, 0, -2, 4, 0, -1, 4, 0, -65536, 4, 0, -65535, 4, 0, -65534, 4, 0, -65533, 4, 0, -65532, 4, 0, -65531, 4, 0, -65530, 4, 0, -65529, 4, 0, -65528, 4, 0, -65527, 4, 0, -65526, 4, 0, -65525, 4, 0, -65524, 4, 0, -65523, 4, 0, -65522, 4, 0, -65521, 4, 0, -65520, 4, 0, -65519, 4, 0, -65518, 4, 0, -65517, 4, 0, -65516, 4, 0, -65515, 4, 0, -65514, 4, 0, -65513, 4, 0, -65512, 4, 0, -65511, 4, 0, -65510, 4, 0, -65509, 4, 0, -65508, 4, 0, -65507, 4, 0, -65506, 4, 0, -65505, 4, 0, -65504, 4, 0, -65503, 4, 0, -65502, 4, 0, -65501, 4, 0, -65500, 4, 0, -65499, 4, 0, -65498, 4, 0, -65497, 4, 0, -65496, 4, 0, -65495, 4, 0, -65494, 4, 0, -65493, 4, 0, -65492, 4, 0, -65491, 4, 0, -65490, 4, 0, -65489, 4, 0, -65488, 4, 0, -65487, 4, 0, -65486, 4, 0, 65524, 4, 0, 65525, 4, 0, 65526, 4, 0, 65527, 4, 0, 65528, 4, 0, 65529, 4, 0, 65530, 4, 0, 65531, 4, 0, 65532, 4, 0, 65533, 4, 0, 65534, 4, 0, 65535, 4, 0, 0, 4, 0, 1, 4, 0, 2, 4, 0, 3, 3, 0, 4, 3, 0, 5, 4, 0, 6, 4, 0, 7, 4, 0, 8, 4, 0, 9, 4, 0, 10, 4, 0, 11, 5, 0, 12, 4, 0, 13, 4, 0, 14, 5, 0, 15, 4, 0, 16, 4, 0, 17, 4, 0, 18, 3, 0, 19, 4, 0, 20, 4, 0, 21, 4, 0, 22, 4, 0, 23, 4, 0, 24, 4, 0, 25, 3, 0, 26, 5, 0, 27, 4, 0, 28, 8, 0, 29, 4, 0, 30, 4, 0, 31, 4, 0, 32, 4, 0, 33, 4, 0, 34, 4, 0, 35, 3, 0, 36, 3, 0, 37, 6, 0, 38, 4, 0, 39, 5, 0, 40, 4, 0, 41, 4, 0, 42, 4, 0, 43, 4, 0, 44, 4, 0, 45, 4, 0, 46, 4, 0, 47, 4, 0, 48, 4, 0, 49, 4, 0, 50, 4, 0, 131060, 4, 0, 131061, 4, 0, 131062, 4, 0, 131063, 4, 0, 131064, 4, 0, 131065, 4, 0, 131066, 4, 0, 131067, 4, 0, 131068, 4, 0, 131069, 4, 0, 131070, 4, 0, 131071, 4, 0, 65536, 3, 0, 65537, 5, 0, 65538, 3, 0, 65539, 3, 0, 65540, 5, 0, 65541, 6, 0, 65542, 3, 0, 65543, 4, 0, 65544, 3, 0, 65545, 8, 0, 65546, 8, 0, 65547, 3, 0, 65548, 3, 0, 65549, 4, 0, 65550, 4, 0, 65551, 4, 0, 65552, 8, 0, 65553, 5, 0, 65554, 3, 0, 65555, 4, 0, 65556, 4, 0, 65557, 6, 0, 65558, 3, 0, 65559, 4, 0, 65560, 3, 0, 65561, 8, 0, 65562, 8, 0, 65563, 3, 0, 65564, 5, 0, 65565, 3, 0, 65566, 4, 0, 65567, 4, 0, 65568, 6, 0, 65569, 4, 0, 65570, 3, 0, 65571, 5, 0, 65572, 4, 0, 65573, 4, 0, 65574, 4, 0, 65575, 3, 0, 65576, 4, 0, 65577, 4, 0, 65578, 4, 0, 65579, 4, 0, 65580, 4, 0, 65581, 4, 0, 65582, 4, 0, 65583, 4, 0, 65584, 4, 0, 65585, 4, 0, 65586, 4, 0, 196596, 4, 0, 196597, 4, 0, 196598, 4, 0, 196599, 4, 0, 196600, 4, 0, 196601, 4, 0, 196602, 4, 0, 196603, 4, 0, 196604, 4, 0, 196605, 4, 0, 196606, 4, 0, 196607, 4, 0, 131072, 4, 0, 131073, 4, 0, 131074, 3, 0, 131075, 6, 0, 131076, 3, 0, 131077, 3, 0, 131078, 3, 0, 131079, 4, 0, 131080, 3, 0, 131081, 8, 0, 131082, 8, 0, 131083, 5, 0, 131084, 3, 0, 131085, 3, 0, 131086, 3, 0, 131087, 5, 0, 131088, 3, 0, 131089, 3, 0, 131090, 3, 0, 131091, 4, 0, 131092, 4, 0, 131093, 3, 0, 131094, 5, 0, 131095, 3, 0, 131096, 3, 0, 131097, 8, 0, 131098, 8, 0, 131099, 6, 0, 131100, 3, 0, 131101, 3, 0, 131102, 4, 0, 131103, 4, 0, 131104, 4, 0, 131105, 3, 0, 131106, 8, 0, 131107, 8, 0, 131108, 4, 0, 131109, 4, 0, 131110, 4, 0, 131111, 4, 0, 131112, 4, 0, 131113, 4, 0, 131114, 4, 0, 131115, 4, 0, 131116, 4, 0, 131117, 4, 0, 131118, 4, 0, 131119, 4, 0, 131120, 4, 0, 131121, 4, 0, 131122, 4, 0, 262132, 4, 0, 262133, 4, 0, 262134, 4, 0, 262135, 4, 0, 262136, 4, 0, 262137, 4, 0, 262138, 4, 0, 262139, 4, 0, 262140, 4, 0, 262141, 4, 0, 262142, 10, 0, 262143, 10, 0, 196608, 10, 0, 196609, 3, 0, 196610, 1, 0, 196611, 3, 0, 196612, 1, 0, 196613, 1, 0, 196614, 6, 0, 196615, 4, 0, 196616, 3, 0, 196617, 1, 0, 196618, 1610612738, 0, 196619, 1610612738, 0, 196620, 3, 0, 196621, 3, 0, 196622, 3, 0, 196623, 3, 0, 196624, 6, 0, 196625, 3, 0, 196626, 1, 0, 196627, 1, 0, 196628, 4, 0, 196629, 1, 0, 196630, 3, 0, 196631, 3, 0, 196632, 2, 0, 196633, 3, 0, 196634, 3, 0, 196635, 1, 0, 196636, 2, 0, 196637, 3, 0, 196638, 8, 0, 196639, 4, 0, 196640, 4, 0, 196641, 7, 0, 196642, 8, 0, 196643, 8, 0, 196644, 6, 0, 196645, 3, 0, 196646, 6, 0, 196647, 4, 0, 196648, 4, 0, 196649, 4, 0, 196650, 4, 0, 196651, 4, 0, 196652, 4, 0, 196653, 4, 0, 196654, 4, 0, 196655, 4, 0, 196656, 4, 0, 196657, 4, 0, 196658, 4, 0, 327668, 4, 0, 327669, 4, 0, 327670, 4, 0, 327671, 4, 0, 327672, 4, 0, 327673, 4, 0, 327674, 4, 0, 327675, 4, 0, 327676, 4, 0, 327677, 4, 0, 327678, 1073741833, 0, 327679, 1073741833, 0, 262144, 1073741833, 0, 262145, 3, 0, 262146, 5, 0, 262147, 3, 0, 262148, 7, 0, 262149, 7, 0, 262150, 1610612738, 0, 262151, 4, 0, 262152, 7, 0, 262153, 1610612738, 0, 262154, 5, 0, 262155, 1610612738, 0, 262156, 1, 0, 262157, 1, 0, 262158, 5, 0, 262159, 1, 0, 262160, 1610612738, 0, 262161, 1610612737, 0, 262162, 7, 0, 262163, 7, 0, 262164, 4, 0, 262165, 1, 0, 262166, 1, 0, 262167, 3, 0, 262168, 3, 0, 262169, 1, 0, 262170, 2, 0, 262171, 2, 0, 262172, 3, 0, 262173, 2, 0, 262174, 3, 0, 262175, 4, 0, 262176, 4, 0, 262177, 1, 0, 262178, 1073741826, 0, 262179, 5, 0, 262180, 3, 0, 262181, 1073741827, 0, 262182, 4, 0, 262183, 4, 0, 262184, 4, 0, 262185, 4, 0, 262186, 4, 0, 262187, 4, 0, 262188, 4, 0, 262189, 4, 0, 262190, 4, 0, 262191, 4, 0, 262192, 4, 0, 262193, 4, 0, 262194, 4, 0, 393204, 4, 0, 393205, 4, 0, 393206, 4, 0, 393207, 4, 0, 393208, 4, 0, 393209, 4, 0, 393210, 4, 0, 393211, 4, 0, 393212, 4, 0, 393213, 4, 0, 393214, 1073741833, 0, 393215, 1073741833, 0, 327680, 1073741833, 0, 327681, 3, 0, 327682, 3, 0, 327683, 1610612738, 0, 327684, 1, 0, 327685, 3, 0, 327686, 7, 0, 327687, 4, 0, 327688, 4, 0, 327689, 4, 0, 327690, 3, 0, 327691, 3, 0, 327692, 4, 0, 327693, 4, 0, 327694, 7, 0, 327695, 7, 0, 327696, 1610612738, 0, 327697, 3, 0, 327698, 5, 0, 327699, 4, 0, 327700, 4, 0, 327701, 3, 0, 327702, 5, 0, 327703, 1, 0, 327704, 2, 0, 327705, 2, 0, 327706, 3, 0, 327707, 2, 0, 327708, 2, 0, 327709, 5, 0, 327710, 2, 0, 327711, 4, 0, 327712, 4, 0, 327713, 5, 0, 327714, 1073741826, 0, 327715, 1073741825, 0, 327716, 3, 0, 327717, 1073741827, 0, 327718, 3, 0, 327719, 6, 0, 327720, 4, 0, 327721, 4, 0, 327722, 4, 0, 327723, 4, 0, 327724, 4, 0, 327725, 4, 0, 327726, 4, 0, 327727, 4, 0, 327728, 4, 0, 327729, 4, 0, 327730, 4, 0, 458740, 4, 0, 458741, 4, 0, 458742, 4, 0, 458743, 4, 0, 458744, 4, 0, 458745, 4, 0, 458746, 4, 0, 458747, 4, 0, 458748, 4, 0, 458749, 4, 0, 458750, 1073741833, 0, 458751, 1073741833, 0, 393216, 1073741833, 0, 393217, 5, 0, 393218, 3, 0, 393219, 1, 0, 393220, 1, 0, 393221, 6, 0, 393222, 3, 0, 393223, 1610612738, 0, 393224, 1, 0, 393225, 1610612738, 0, 393226, 1610612738, 0, 393227, 1610612738, 0, 393228, 1610612738, 0, 393229, 4, 0, 393230, 7, 0, 393231, 7, 0, 393232, 1610612738, 0, 393233, 2, 0, 393234, 1610612738, 0, 393235, 4, 0, 393236, 7, 0, 393237, 7, 0, 393238, 7, 0, 393239, 7, 0, 393240, 7, 0, 393241, 7, 0, 393242, 7, 0, 393243, 7, 0, 393244, 7, 0, 393245, 3, 0, 393246, 2, 0, 393247, 4, 0, 393248, 4, 0, 393249, 2, 0, 393250, 1073741826, 0, 393251, 1073741826, 0, 393252, 1073741825, 0, 393253, 1073741827, 0, 393254, 5, 0, 393255, 3, 0, 393256, 4, 0, 393257, 4, 0, 393258, 4, 0, 393259, 4, 0, 393260, 4, 0, 393261, 4, 0, 393262, 4, 0, 393263, 4, 0, 393264, 4, 0, 393265, 4, 0, 393266, 4, 0, 524276, 4, 0, 524277, 4, 0, 524278, 4, 0, 524279, 4, 0, 524280, 4, 0, 524281, 4, 0, 524282, 4, 0, 524283, 4, 0, 524284, 4, 0, 524285, 4, 0, 524286, 1073741834, 0, 524287, 1073741834, 0, 458752, 1073741834, 0, 458753, 2, 0, 458754, 3, 0, 458755, 3, 0, 458756, 1610612738, 0, 458757, 1610612737, 0, 458758, 1610612738, 0, 458759, 7, 0, 458760, 7, 0, 458761, 7, 0, 458762, 7, 0, 458763, 7, 0, 458764, 7, 0, 458765, 4, 0, 458766, 1, 0, 458767, 1, 0, 458768, 1610612738, 0, 458769, 1610612738, 0, 458770, 1, 0, 458771, 4, 0, 458772, 7, 0, 458773, 7, 0, 458774, 7, 0, 458775, 7, 0, 458776, 7, 0, 458777, 7, 0, 458778, 7, 0, 458779, 7, 0, 458780, 7, 0, 458781, 1, 0, 458782, 2, 0, 458783, 4, 0, 458784, 4, 0, 458785, 3, 0, 458786, 8, 0, 458787, 8, 0, 458788, 3, 0, 458789, 3, 0, 458790, 4, 0, 458791, 4, 0, 458792, 4, 0, 458793, 4, 0, 458794, 4, 0, 458795, 4, 0, 458796, 4, 0, 458797, 4, 0, 458798, 4, 0, 458799, 4, 0, 458800, 4, 0, 458801, 4, 0, 458802, 4, 0, 589812, 4, 0, 589813, 4, 0, 589814, 4, 0, 589815, 4, 0, 589816, 4, 0, 589817, 4, 0, 589818, 4, 0, 589819, 4, 0, 589820, 4, 0, 589821, 4, 0, 589822, 5, 0, 589823, 4, 0, 524288, 3, 0, 524289, 3, 0, 524290, 1, 0, 524291, 6, 0, 524292, 3, 0, 524293, 1610612737, 0, 524294, 1610612737, 0, 524295, 7, 0, 524296, 7, 0, 524297, 7, 0, 524298, 7, 0, 524299, 7, 0, 524300, 7, 0, 524301, 4, 0, 524302, 1, 0, 524303, 1, 0, 524304, 7, 0, 524305, 7, 0, 524306, 1610612738, 0, 524307, 4, 0, 524308, 4, 0, 524309, 2, 0, 524310, 1, 0, 524311, 1, 0, 524312, 2, 0, 524313, 2, 0, 524314, 2, 0, 524315, 1, 0, 524316, 1, 0, 524317, 1, 0, 524318, 2, 0, 524319, 4, 0, 524320, 4, 0, 524321, 4, 0, 524322, 8, 0, 524323, 8, 0, 524324, 5, 0, 524325, 3, 0, 524326, 3, 0, 524327, 5, 0, 524328, 4, 0, 524329, 4, 0, 524330, 4, 0, 524331, 4, 0, 524332, 4, 0, 524333, 4, 0, 524334, 4, 0, 524335, 4, 0, 524336, 4, 0, 524337, 4, 0, 524338, 4, 0, 655348, 4, 0, 655349, 4, 0, 655350, 4, 0, 655351, 4, 0, 655352, 4, 0, 655353, 4, 0, 655354, 4, 0, 655355, 4, 0, 655356, 4, 0, 655357, 4, 0, 655358, 4, 0, 655359, 4, 0, 589824, 6, 0, 589825, 3, 0, 589826, 3, 0, 589827, 3, 0, 589828, 1610612738, 0, 589829, 1610612738, 0, 589830, 3, 0, 589831, 1610612738, 0, 589832, 1, 0, 589833, 1610612738, 0, 589834, 1, 0, 589835, 1610612738, 0, 589836, 1, 0, 589837, 1, 0, 589838, 1, 0, 589839, 1, 0, 589840, 7, 0, 589841, 7, 0, 589842, 2, 0, 589843, 3, 0, 589844, 3, 0, 589845, 2, 0, 589846, 1, 0, 589847, 1, 0, 589848, 1, 0, 589849, 2, 0, 589850, 2, 0, 589851, 2, 0, 589852, 2, 0, 589853, 2, 0, 589854, 2, 0, 589855, 4, 0, 589856, 4, 0, 589857, 4, 0, 589858, 5, 0, 589859, 2, 0, 589860, 3, 0, 589861, 6, 0, 589862, 3, 0, 589863, 4, 0, 589864, 4, 0, 589865, 5, 0, 589866, 4, 0, 589867, 4, 0, 589868, 4, 0, 589869, 4, 0, 589870, 4, 0, 589871, 4, 0, 589872, 4, 0, 589873, 4, 0, 589874, 4, 0, 720884, 4, 0, 720885, 4, 0, 720886, 4, 0, 720887, 4, 0, 720888, 4, 0, 720889, 4, 0, 720890, 4, 0, 720891, 4, 0, 720892, 4, 0, 720893, 4, 0, 720894, 4, 0, 720895, 4, 0, 655360, 4, 0, 655361, 3, 0, 655362, 6, 0, 655363, 8, 0, 655364, 1, 0, 655365, 3, 0, 655366, 8, 0, 655367, 1610612738, 0, 655368, 1610612737, 0, 655369, 1610612737, 0, 655370, 1610612738, 0, 655371, 1610612738, 0, 655372, 1, 0, 655373, 1, 0, 655374, 1, 0, 655375, 1, 0, 655376, 1610612738, 0, 655377, 1610612738, 0, 655378, 3, 0, 655379, 5, 0, 655380, 7, 0, 655381, 7, 0, 655382, 7, 0, 655383, 7, 0, 655384, 7, 0, 655385, 5, 0, 655386, 2, 0, 655387, 1, 0, 655388, 7, 0, 655389, 7, 0, 655390, 2, 0, 655391, 3, 0, 655392, 3, 0, 655393, 3, 0, 655394, 1, 0, 655395, 2, 0, 655396, 3, 0, 655397, 3, 0, 655398, 3, 0, 655399, 4, 0, 655400, 3, 0, 655401, 3, 0, 655402, 4, 0, 655403, 4, 0, 655404, 4, 0, 655405, 4, 0, 655406, 4, 0, 655407, 4, 0, 655408, 4, 0, 655409, 4, 0, 655410, 4, 0, 786420, 4, 0, 786421, 4, 0, 786422, 4, 0, 786423, 4, 0, 786424, 4, 0, 786425, 4, 0, 786426, 4, 0, 786427, 4, 0, 786428, 4, 0, 786429, 4, 0, 786430, 4, 0, 786431, 5, 0, 720896, 4, 0, 720897, 3, 0, 720898, 3, 0, 720899, 3, 0, 720900, 1610612738, 0, 720901, 1610612738, 0, 720902, 7, 0, 720903, 7, 0, 720904, 7, 0, 720905, 7, 0, 720906, 7, 0, 720907, 7, 0, 720908, 7, 0, 720909, 7, 0, 720910, 7, 0, 720911, 1, 0, 720912, 1, 0, 720913, 1610612738, 0, 720914, 1610612738, 0, 720915, 3, 0, 720916, 7, 0, 720917, 7, 0, 720918, 7, 0, 720919, 7, 0, 720920, 7, 0, 720921, 2, 0, 720922, 2, 0, 720923, 2, 0, 720924, 7, 0, 720925, 7, 0, 720926, 2, 0, 720927, 3, 0, 720928, 5, 0, 720929, 3, 0, 720930, 2, 0, 720931, 8, 0, 720932, 1, 0, 720933, 5, 0, 720934, 5, 0, 720935, 4, 0, 720936, 4, 0, 720937, 4, 0, 720938, 4, 0, 720939, 4, 0, 720940, 4, 0, 720941, 4, 0, 720942, 4, 0, 720943, 4, 0, 720944, 4, 0, 720945, 4, 0, 720946, 4, 0, 851956, 4, 0, 851957, 4, 0, 851958, 4, 0, 851959, 4, 0, 851960, 4, 0, 851961, 4, 0, 851962, 4, 0, 851963, 4, 0, 851964, 4, 0, 851965, 4, 0, 851966, 6, 0, 851967, 3, 0, 786432, 4, 0, 786433, 3, 0, 786434, 1, 0, 786435, 3, 0, 786436, 8, 0, 786437, 1, 0, 786438, 7, 0, 786439, 7, 0, 786440, 7, 0, 786441, 7, 0, 786442, 7, 0, 786443, 7, 0, 786444, 7, 0, 786445, 7, 0, 786446, 7, 0, 786447, 2, 0, 786448, 1, 0, 786449, 2, 0, 786450, 2, 0, 786451, 2, 0, 786452, 2, 0, 786453, 1, 0, 786454, 2, 0, 786455, 7, 0, 786456, 7, 0, 786457, 2, 0, 786458, 1, 0, 786459, 1, 0, 786460, 2, 0, 786461, 3, 0, 786462, 2, 0, 786463, 1, 0, 786464, 1, 0, 786465, 1, 0, 786466, 1, 0, 786467, 2, 0, 786468, 1, 0, 786469, 3, 0, 786470, 3, 0, 786471, 3, 0, 786472, 4, 0, 786473, 3, 0, 786474, 4, 0, 786475, 4, 0, 786476, 4, 0, 786477, 4, 0, 786478, 4, 0, 786479, 4, 0, 786480, 4, 0, 786481, 4, 0, 786482, 4, 0, 917492, 4, 0, 917493, 4, 0, 917494, 4, 0, 917495, 4, 0, 917496, 4, 0, 917497, 4, 0, 917498, 4, 0, 917499, 4, 0, 917500, 4, 0, 917501, 4, 0, 917502, 5, 0, 917503, 4, 0, 851968, 8, 0, 851969, 3, 0, 851970, 1, 0, 851971, 3, 0, 851972, 2, 0, 851973, 1, 0, 851974, 2, 0, 851975, 3, 0, 851976, 8, 0, 851977, 4, 0, 851978, 4, 0, 851979, 7, 0, 851980, 7, 0, 851981, 7, 0, 851982, 2, 0, 851983, 2, 0, 851984, 1, 0, 851985, 1, 0, 851986, 7, 0, 851987, 3, 0, 851988, 4, 0, 851989, 1, 0, 851990, 1, 0, 851991, 7, 0, 851992, 2, 0, 851993, 1, 0, 851994, 1, 0, 851995, 2, 0, 851996, 2, 0, 851997, 2, 0, 851998, 2, 0, 851999, 1, 0, 852000, 2, 0, 852001, 2, 0, 852002, 5, 0, 852003, 2, 0, 852004, 1, 0, 852005, 3, 0, 852006, 3, 0, 852007, 8, 0, 852008, 4, 0, 852009, 3, 0, 852010, 4, 0, 852011, 4, 0, 852012, 4, 0, 852013, 4, 0, 852014, 4, 0, 852015, 4, 0, 852016, 4, 0, 852017, 4, 0, 852018, 4, 0, 983028, 4, 0, 983029, 4, 0, 983030, 4, 0, 983031, 4, 0, 983032, 4, 0, 983033, 4, 0, 983034, 4, 0, 983035, 4, 0, 983036, 4, 0, 983037, 4, 0, 983038, 3, 0, 983039, 3, 0, 917504, 4, 0, 917505, 3, 0, 917506, 3, 0, 917507, 1, 0, 917508, 7, 0, 917509, 7, 0, 917510, 2, 0, 917511, 2, 0, 917512, 2, 0, 917513, 4, 0, 917514, 4, 0, 917515, 2, 0, 917516, 7, 0, 917517, 7, 0, 917518, 2, 0, 917519, 2, 0, 917520, 1, 0, 917521, 1, 0, 917522, 2, 0, 917523, 3, 0, 917524, 4, 0, 917525, 2, 0, 917526, 2, 0, 917527, 2, 0, 917528, 2, 0, 917529, 1, 0, 917530, 2, 0, 917531, 3, 0, 917532, 2, 0, 917533, 2, 0, 917534, 3, 0, 917535, 5, 0, 917536, 3, 0, 917537, 2, 0, 917538, 2, 0, 917539, 5, 0, 917540, 3, 0, 917541, 5, 0, 917542, 3, 0, 917543, 4, 0, 917544, 4, 0, 917545, 5, 0, 917546, 4, 0, 917547, 4, 0, 917548, 4, 0, 917549, 4, 0, 917550, 4, 0, 917551, 4, 0, 917552, 4, 0, 917553, 4, 0, 917554, 4, 0, 1048564, 4, 0, 1048565, 4, 0, 1048566, 4, 0, 1048567, 4, 0, 1048568, 4, 0, 1048569, 4, 0, 1048570, 4, 0, 1048571, 4, 0, 1048572, 4, 0, 1048573, 4, 0, 1048574, 4, 0, 1048575, 4, 0, 983040, 4, 0, 983041, 3, 0, 983042, 5, 0, 983043, 1, 0, 983044, 7, 0, 983045, 7, 0, 983046, 1, 0, 983047, 2, 0, 983048, 1, 0, 983049, 4, 0, 983050, 4, 0, 983051, 2, 0, 983052, 2, 0, 983053, 2, 0, 983054, 2, 0, 983055, 2, 0, 983056, 7, 0, 983057, 7, 0, 983058, 7, 0, 983059, 5, 0, 983060, 4, 0, 983061, 7, 0, 983062, 7, 0, 983063, 7, 0, 983064, 7, 0, 983065, 7, 0, 983066, 3, 0, 983067, 5, 0, 983068, 1, 0, 983069, 1, 0, 983070, 5, 0, 983071, 3, 0, 983072, 1, 0, 983073, 3, 0, 983074, 2, 0, 983075, 2, 0, 983076, 3, 0, 983077, 3, 0, 983078, 4, 0, 983079, 4, 0, 983080, 4, 0, 983081, 4, 0, 983082, 4, 0, 983083, 4, 0, 983084, 4, 0, 983085, 4, 0, 983086, 4, 0, 983087, 4, 0, 983088, 4, 0, 983089, 4, 0, 983090, 4, 0, 1114100, 4, 0, 1114101, 4, 0, 1114102, 4, 0, 1114103, 4, 0, 1114104, 4, 0, 1114105, 4, 0, 1114106, 4, 0, 1114107, 4, 0, 1114108, 4, 0, 1114109, 4, 0, 1114110, 4, 0, 1114111, 4, 0, 1048576, 6, 0, 1048577, 3, 0, 1048578, 3, 0, 1048579, 3, 0, 1048580, 1, 0, 1048581, 2, 0, 1048582, 2, 0, 1048583, 2, 0, 1048584, 5, 0, 1048585, 4, 0, 1048586, 4, 0, 1048587, 2, 0, 1048588, 5, 0, 1048589, 1, 0, 1048590, 2, 0, 1048591, 2, 0, 1048592, 7, 0, 1048593, 7, 0, 1048594, 7, 0, 1048595, 3, 0, 1048596, 4, 0, 1048597, 7, 0, 1048598, 7, 0, 1048599, 7, 0, 1048600, 7, 0, 1048601, 7, 0, 1048602, 2, 0, 1048603, 1, 0, 1048604, 7, 0, 1048605, 7, 0, 1048606, 2, 0, 1048607, 3, 0, 1048608, 7, 0, 1048609, 5, 0, 1048610, 3, 0, 1048611, 2, 0, 1048612, 3, 0, 1048613, 6, 0, 1048614, 4, 0, 1048615, 4, 0, 1048616, 4, 0, 1048617, 4, 0, 1048618, 4, 0, 1048619, 4, 0, 1048620, 4, 0, 1048621, 4, 0, 1048622, 4, 0, 1048623, 4, 0, 1048624, 4, 0, 1048625, 4, 0, 1048626, 4, 0, 1179636, 4, 0, 1179637, 4, 0, 1179638, 4, 0, 1179639, 4, 0, 1179640, 4, 0, 1179641, 4, 0, 1179642, 4, 0, 1179643, 4, 0, 1179644, 4, 0, 1179645, 4, 0, 1179646, 5, 0, 1179647, 4, 0, 1114112, 4, 0, 1114113, 5, 0, 1114114, 3, 0, 1114115, 8, 0, 1114116, 1, 0, 1114117, 2, 0, 1114118, 5, 0, 1114119, 1, 0, 1114120, 1, 0, 1114121, 4, 0, 1114122, 4, 0, 1114123, 3, 0, 1114124, 5, 0, 1114125, 1, 0, 1114126, 2, 0, 1114127, 2, 0, 1114128, 2, 0, 1114129, 1, 0, 1114130, 1, 0, 1114131, 5, 0, 1114132, 4, 0, 1114133, 2, 0, 1114134, 2, 0, 1114135, 5, 0, 1114136, 3, 0, 1114137, 1, 0, 1114138, 3, 0, 1114139, 3, 0, 1114140, 7, 0, 1114141, 7, 0, 1114142, 7, 0, 1114143, 7, 0, 1114144, 7, 0, 1114145, 3, 0, 1114146, 3, 0, 1114147, 3, 0, 1114148, 8, 0, 1114149, 8, 0, 1114150, 3, 0, 1114151, 3, 0, 1114152, 4, 0, 1114153, 4, 0, 1114154, 4, 0, 1114155, 4, 0, 1114156, 4, 0, 1114157, 4, 0, 1114158, 4, 0, 1114159, 4, 0, 1114160, 4, 0, 1114161, 4, 0, 1114162, 4, 0, 1245172, 4, 0, 1245173, 4, 0, 1245174, 4, 0, 1245175, 4, 0, 1245176, 4, 0, 1245177, 4, 0, 1245178, 4, 0, 1245179, 4, 0, 1245180, 4, 0, 1245181, 3, 0, 1245182, 3, 0, 1245183, 4, 0, 1179648, 6, 0, 1179649, 4, 0, 1179650, 3, 0, 1179651, 3, 0, 1179652, 2, 0, 1179653, 3, 0, 1179654, 3, 0, 1179655, 8, 0, 1179656, 8, 0, 1179657, 4, 0, 1179658, 4, 0, 1179659, 3, 0, 1179660, 5, 0, 1179661, 3, 0, 1179662, 1, 0, 1179663, 3, 0, 1179664, 3, 0, 1179665, 6, 0, 1179666, 3, 0, 1179667, 3, 0, 1179668, 4, 0, 1179669, 3, 0, 1179670, 3, 0, 1179671, 1, 0, 1179672, 3, 0, 1179673, 1, 0, 1179674, 3, 0, 1179675, 5, 0, 1179676, 3, 0, 1179677, 3, 0, 1179678, 7, 0, 1179679, 7, 0, 1179680, 7, 0, 1179681, 1, 0, 1179682, 2, 0, 1179683, 3, 0, 1179684, 8, 0, 1179685, 8, 0, 1179686, 3, 0, 1179687, 4, 0, 1179688, 4, 0, 1179689, 3, 0, 1179690, 4, 0, 1179691, 4, 0, 1179692, 4, 0, 1179693, 4, 0, 1179694, 4, 0, 1179695, 4, 0, 1179696, 4, 0, 1179697, 4, 0, 1179698, 4, 0, 1310708, 4, 0, 1310709, 4, 0, 1310710, 4, 0, 1310711, 4, 0, 1310712, 4, 0, 1310713, 4, 0, 1310714, 4, 0, 1310715, 4, 0, 1310716, 4, 0, 1310717, 4, 0, 1310718, 4, 0, 1310719, 3, 0, 1245184, 4, 0, 1245185, 3, 0, 1245186, 3, 0, 1245187, 1, 0, 1245188, 3, 0, 1245189, 3, 0, 1245190, 5, 0, 1245191, 8, 0, 1245192, 8, 0, 1245193, 4, 0, 1245194, 4, 0, 1245195, 1, 0, 1245196, 3, 0, 1245197, 3, 0, 1245198, 3, 0, 1245199, 5, 0, 1245200, 3, 0, 1245201, 3, 0, 1245202, 8, 0, 1245203, 4, 0, 1245204, 4, 0, 1245205, 3, 0, 1245206, 3, 0, 1245207, 8, 0, 1245208, 8, 0, 1245209, 6, 0, 1245210, 3, 0, 1245211, 3, 0, 1245212, 3, 0, 1245213, 3, 0, 1245214, 3, 0, 1245215, 5, 0, 1245216, 3, 0, 1245217, 3, 0, 1245218, 3, 0, 1245219, 3, 0, 1245220, 5, 0, 1245221, 4, 0, 1245222, 4, 0, 1245223, 4, 0, 1245224, 5, 0, 1245225, 3, 0, 1245226, 4, 0, 1245227, 4, 0, 1245228, 4, 0, 1245229, 4, 0, 1245230, 4, 0, 1245231, 4, 0, 1245232, 4, 0, 1245233, 4, 0, 1245234, 4, 0, 1376244, 4, 0, 1376245, 4, 0, 1376246, 4, 0, 1376247, 4, 0, 1376248, 4, 0, 1376249, 4, 0, 1376250, 4, 0, 1376251, 4, 0, 1376252, 4, 0, 1376253, 4, 0, 1376254, 4, 0, 1376255, 5, 0, 1310720, 4, 0, 1310721, 3, 0, 1310722, 4, 0, 1310723, 5, 0, 1310724, 3, 0, 1310725, 3, 0, 1310726, 4, 0, 1310727, 4, 0, 1310728, 4, 0, 1310729, 4, 0, 1310730, 4, 0, 1310731, 5, 0, 1310732, 3, 0, 1310733, 4, 0, 1310734, 8, 0, 1310735, 3, 0, 1310736, 6, 0, 1310737, 4, 0, 1310738, 4, 0, 1310739, 4, 0, 1310740, 4, 0, 1310741, 4, 0, 1310742, 6, 0, 1310743, 8, 0, 1310744, 8, 0, 1310745, 3, 0, 1310746, 3, 0, 1310747, 4, 0, 1310748, 3, 0, 1310749, 5, 0, 1310750, 3, 0, 1310751, 3, 0, 1310752, 3, 0, 1310753, 4, 0, 1310754, 4, 0, 1310755, 3, 0, 1310756, 5, 0, 1310757, 4, 0, 1310758, 4, 0, 1310759, 4, 0, 1310760, 3, 0, 1310761, 4, 0, 1310762, 4, 0, 1310763, 4, 0, 1310764, 4, 0, 1310765, 4, 0, 1310766, 4, 0, 1310767, 4, 0, 1310768, 4, 0, 1310769, 4, 0, 1310770, 4, 0, 1441780, 4, 0, 1441781, 4, 0, 1441782, 4, 0, 1441783, 4, 0, 1441784, 4, 0, 1441785, 4, 0, 1441786, 4, 0, 1441787, 4, 0, 1441788, 4, 0, 1441789, 4, 0, 1441790, 4, 0, 1441791, 4, 0, 1376256, 4, 0, 1376257, 4, 0, 1376258, 4, 0, 1376259, 4, 0, 1376260, 3, 0, 1376261, 5, 0, 1376262, 4, 0, 1376263, 8, 0, 1376264, 4, 0, 1376265, 4, 0, 1376266, 4, 0, 1376267, 3, 0, 1376268, 4, 0, 1376269, 4, 0, 1376270, 4, 0, 1376271, 4, 0, 1376272, 4, 0, 1376273, 4, 0, 1376274, 3, 0, 1376275, 5, 0, 1376276, 3, 0, 1376277, 4, 0, 1376278, 4, 0, 1376279, 3, 0, 1376280, 5, 0, 1376281, 4, 0, 1376282, 4, 0, 1376283, 4, 0, 1376284, 4, 0, 1376285, 8, 0, 1376286, 3, 0, 1376287, 4, 0, 1376288, 4, 0, 1376289, 4, 0, 1376290, 5, 0, 1376291, 4, 0, 1376292, 4, 0, 1376293, 4, 0, 1376294, 6, 0, 1376295, 4, 0, 1376296, 4, 0, 1376297, 4, 0, 1376298, 4, 0, 1376299, 4, 0, 1376300, 4, 0, 1376301, 4, 0, 1376302, 4, 0, 1376303, 4, 0, 1376304, 4, 0, 1376305, 4, 0, 1376306, 4, 0, 1507316, 4, 0, 1507317, 4, 0, 1507318, 4, 0, 1507319, 4, 0, 1507320, 4, 0, 1507321, 4, 0, 1507322, 4, 0, 1507323, 4, 0, 1507324, 4, 0, 1507325, 4, 0, 1507326, 4, 0, 1507327, 4, 0, 1441792, 4, 0, 1441793, 3, 0, 1441794, 5, 0, 1441795, 4, 0, 1441796, 4, 0, 1441797, 4, 0, 1441798, 4, 0, 1441799, 4, 0, 1441800, 3, 0, 1441801, 4, 0, 1441802, 4, 0, 1441803, 4, 0, 1441804, 4, 0, 1441805, 4, 0, 1441806, 4, 0, 1441807, 4, 0, 1441808, 3, 0, 1441809, 4, 0, 1441810, 4, 0, 1441811, 4, 0, 1441812, 4, 0, 1441813, 4, 0, 1441814, 4, 0, 1441815, 4, 0, 1441816, 4, 0, 1441817, 4, 0, 1441818, 5, 0, 1441819, 4, 0, 1441820, 4, 0, 1441821, 4, 0, 1441822, 4, 0, 1441823, 3, 0, 1441824, 3, 0, 1441825, 4, 0, 1441826, 4, 0, 1441827, 3, 0, 1441828, 3, 0, 1441829, 3, 0, 1441830, 4, 0, 1441831, 4, 0, 1441832, 4, 0, 1441833, 4, 0, 1441834, 4, 0, 1441835, 4, 0, 1441836, 4, 0, 1441837, 4, 0, 1441838, 4, 0, 1441839, 4, 0, 1441840, 4, 0, 1441841, 4, 0, 1441842, 4, 0, 1572852, 4, 0, 1572853, 4, 0, 1572854, 4, 0, 1572855, 4, 0, 1572856, 4, 0, 1572857, 4, 0, 1572858, 4, 0, 1572859, 4, 0, 1572860, 4, 0, 1572861, 4, 0, 1572862, 4, 0, 1572863, 4, 0, 1507328, 4, 0, 1507329, 4, 0, 1507330, 4, 0, 1507331, 3, 0, 1507332, 4, 0, 1507333, 4, 0, 1507334, 4, 0, 1507335, 4, 0, 1507336, 3, 0, 1507337, 4, 0, 1507338, 3, 0, 1507339, 4, 0, 1507340, 5, 0, 1507341, 4, 0, 1507342, 4, 0, 1507343, 4, 0, 1507344, 5, 0, 1507345, 5, 0, 1507346, 3, 0, 1507347, 4, 0, 1507348, 4, 0, 1507349, 3, 0, 1507350, 4, 0, 1507351, 4, 0, 1507352, 3, 0, 1507353, 3, 0, 1507354, 3, 0, 1507355, 4, 0, 1507356, 4, 0, 1507357, 4, 0, 1507358, 4, 0, 1507359, 5, 0, 1507360, 4, 0, 1507361, 4, 0, 1507362, 4, 0, 1507363, 4, 0, 1507364, 6, 0, 1507365, 3, 0, 1507366, 4, 0, 1507367, 4, 0, 1507368, 4, 0, 1507369, 4, 0, 1507370, 4, 0, 1507371, 4, 0, 1507372, 4, 0, 1507373, 4, 0, 1507374, 4, 0, 1507375, 4, 0, 1507376, 4, 0, 1507377, 4, 0, 1507378, 4, 0, 1638388, 4, 0, 1638389, 4, 0, 1638390, 4, 0, 1638391, 4, 0, 1638392, 4, 0, 1638393, 4, 0, 1638394, 4, 0, 1638395, 4, 0, 1638396, 4, 0, 1638397, 4, 0, 1638398, 4, 0, 1638399, 4, 0, 1572864, 4, 0, 1572865, 4, 0, 1572866, 4, 0, 1572867, 4, 0, 1572868, 4, 0, 1572869, 4, 0, 1572870, 4, 0, 1572871, 4, 0, 1572872, 4, 0, 1572873, 4, 0, 1572874, 4, 0, 1572875, 4, 0, 1572876, 4, 0, 1572877, 4, 0, 1572878, 4, 0, 1572879, 4, 0, 1572880, 4, 0, 1572881, 4, 0, 1572882, 4, 0, 1572883, 4, 0, 1572884, 4, 0, 1572885, 4, 0, 1572886, 4, 0, 1572887, 4, 0, 1572888, 4, 0, 1572889, 4, 0, 1572890, 4, 0, 1572891, 4, 0, 1572892, 4, 0, 1572893, 4, 0, 1572894, 4, 0, 1572895, 4, 0, 1572896, 4, 0, 1572897, 4, 0, 1572898, 4, 0, 1572899, 4, 0, 1572900, 4, 0, 1572901, 4, 0, 1572902, 4, 0, 1572903, 4, 0, 1572904, 4, 0, 1572905, 4, 0, 1572906, 4, 0, 1572907, 4, 0, 1572908, 4, 0, 1572909, 4, 0, 1572910, 4, 0, 1572911, 4, 0, 1572912, 4, 0, 1572913, 4, 0, 1572914, 4, 0, 1703924, 4, 0, 1703925, 4, 0, 1703926, 4, 0, 1703927, 4, 0, 1703928, 4, 0, 1703929, 4, 0, 1703930, 4, 0, 1703931, 4, 0, 1703932, 4, 0, 1703933, 4, 0, 1703934, 4, 0, 1703935, 4, 0, 1638400, 4, 0, 1638401, 4, 0, 1638402, 4, 0, 1638403, 4, 0, 1638404, 4, 0, 1638405, 4, 0, 1638406, 4, 0, 1638407, 4, 0, 1638408, 4, 0, 1638409, 4, 0, 1638410, 4, 0, 1638411, 4, 0, 1638412, 4, 0, 1638413, 4, 0, 1638414, 4, 0, 1638415, 4, 0, 1638416, 4, 0, 1638417, 4, 0, 1638418, 4, 0, 1638419, 4, 0, 1638420, 4, 0, 1638421, 4, 0, 1638422, 4, 0, 1638423, 4, 0, 1638424, 4, 0, 1638425, 4, 0, 1638426, 4, 0, 1638427, 4, 0, 1638428, 4, 0, 1638429, 4, 0, 1638430, 4, 0, 1638431, 4, 0, 1638432, 4, 0, 1638433, 4, 0, 1638434, 4, 0, 1638435, 4, 0, 1638436, 4, 0, 1638437, 4, 0, 1638438, 4, 0, 1638439, 4, 0, 1638440, 4, 0, 1638441, 4, 0, 1638442, 4, 0, 1638443, 4, 0, 1638444, 4, 0, 1638445, 4, 0, 1638446, 4, 0, 1638447, 4, 0, 1638448, 4, 0, 1638449, 4, 0, 1638450, 4, 0, 1769460, 4, 0, 1769461, 4, 0, 1769462, 4, 0, 1769463, 4, 0, 1769464, 4, 0, 1769465, 4, 0, 1769466, 4, 0, 1769467, 4, 0, 1769468, 4, 0, 1769469, 4, 0, 1769470, 4, 0, 1769471, 4, 0, 1703936, 4, 0, 1703937, 4, 0, 1703938, 4, 0, 1703939, 4, 0, 1703940, 4, 0, 1703941, 4, 0, 1703942, 4, 0, 1703943, 4, 0, 1703944, 4, 0, 1703945, 4, 0, 1703946, 4, 0, 1703947, 4, 0, 1703948, 4, 0, 1703949, 4, 0, 1703950, 4, 0, 1703951, 4, 0, 1703952, 4, 0, 1703953, 4, 0, 1703954, 4, 0, 1703955, 4, 0, 1703956, 4, 0, 1703957, 4, 0, 1703958, 4, 0, 1703959, 4, 0, 1703960, 4, 0, 1703961, 4, 0, 1703962, 4, 0, 1703963, 4, 0, 1703964, 4, 0, 1703965, 4, 0, 1703966, 4, 0, 1703967, 4, 0, 1703968, 4, 0, 1703969, 4, 0, 1703970, 4, 0, 1703971, 4, 0, 1703972, 4, 0, 1703973, 4, 0, 1703974, 4, 0, 1703975, 4, 0, 1703976, 4, 0, 1703977, 4, 0, 1703978, 4, 0, 1703979, 4, 0, 1703980, 4, 0, 1703981, 4, 0, 1703982, 4, 0, 1703983, 4, 0, 1703984, 4, 0, 1703985, 4, 0, 1703986, 4, 0, 1834996, 4, 0, 1834997, 4, 0, 1834998, 4, 0, 1834999, 4, 0, 1835000, 4, 0, 1835001, 4, 0, 1835002, 4, 0, 1835003, 4, 0, 1835004, 4, 0, 1835005, 4, 0, 1835006, 4, 0, 1835007, 4, 0, 1769472, 4, 0, 1769473, 4, 0, 1769474, 4, 0, 1769475, 4, 0, 1769476, 4, 0, 1769477, 4, 0, 1769478, 4, 0, 1769479, 4, 0, 1769480, 4, 0, 1769481, 4, 0, 1769482, 4, 0, 1769483, 4, 0, 1769484, 4, 0, 1769485, 4, 0, 1769486, 4, 0, 1769487, 4, 0, 1769488, 4, 0, 1769489, 4, 0, 1769490, 4, 0, 1769491, 4, 0, 1769492, 4, 0, 1769493, 4, 0, 1769494, 4, 0, 1769495, 4, 0, 1769496, 4, 0, 1769497, 4, 0, 1769498, 4, 0, 1769499, 4, 0, 1769500, 4, 0, 1769501, 4, 0, 1769502, 4, 0, 1769503, 4, 0, 1769504, 4, 0, 1769505, 4, 0, 1769506, 4, 0, 1769507, 4, 0, 1769508, 4, 0, 1769509, 4, 0, 1769510, 4, 0, 1769511, 4, 0, 1769512, 4, 0, 1769513, 4, 0, 1769514, 4, 0, 1769515, 4, 0, 1769516, 4, 0, 1769517, 4, 0, 1769518, 4, 0, 1769519, 4, 0, 1769520, 4, 0, 1769521, 4, 0, 1769522, 4, 0, 1900532, 4, 0, 1900533, 4, 0, 1900534, 4, 0, 1900535, 4, 0, 1900536, 4, 0, 1900537, 4, 0, 1900538, 4, 0, 1900539, 4, 0, 1900540, 4, 0, 1900541, 4, 0, 1900542, 4, 0, 1900543, 4, 0, 1835008, 4, 0, 1835009, 4, 0, 1835010, 4, 0, 1835011, 4, 0, 1835012, 4, 0, 1835013, 4, 0, 1835014, 4, 0, 1835015, 4, 0, 1835016, 4, 0, 1835017, 4, 0, 1835018, 4, 0, 1835019, 4, 0, 1835020, 4, 0, 1835021, 4, 0, 1835022, 4, 0, 1835023, 4, 0, 1835024, 4, 0, 1835025, 4, 0, 1835026, 4, 0, 1835027, 4, 0, 1835028, 4, 0, 1835029, 4, 0, 1835030, 4, 0, 1835031, 4, 0, 1835032, 4, 0, 1835033, 4, 0, 1835034, 4, 0, 1835035, 4, 0, 1835036, 4, 0, 1835037, 4, 0, 1835038, 4, 0, 1835039, 4, 0, 1835040, 4, 0, 1835041, 4, 0, 1835042, 4, 0, 1835043, 4, 0, 1835044, 4, 0, 1835045, 4, 0, 1835046, 4, 0, 1835047, 4, 0, 1835048, 4, 0, 1835049, 4, 0, 1835050, 4, 0, 1835051, 4, 0, 1835052, 4, 0, 1835053, 4, 0, 1835054, 4, 0, 1835055, 4, 0, 1835056, 4, 0, 1835057, 4, 0, 1835058, 4, 0, 1966068, 4, 0, 1966069, 4, 0, 1966070, 4, 0, 1966071, 4, 0, 1966072, 4, 0, 1966073, 4, 0, 1966074, 4, 0, 1966075, 4, 0, 1966076, 4, 0, 1966077, 4, 0, 1966078, 4, 0, 1966079, 4, 0, 1900544, 4, 0, 1900545, 4, 0, 1900546, 4, 0, 1900547, 4, 0, 1900548, 4, 0, 1900549, 4, 0, 1900550, 4, 0, 1900551, 4, 0, 1900552, 4, 0, 1900553, 4, 0, 1900554, 4, 0, 1900555, 4, 0, 1900556, 4, 0, 1900557, 4, 0, 1900558, 4, 0, 1900559, 4, 0, 1900560, 4, 0, 1900561, 4, 0, 1900562, 4, 0, 1900563, 4, 0, 1900564, 4, 0, 1900565, 4, 0, 1900566, 4, 0, 1900567, 4, 0, 1900568, 4, 0, 1900569, 4, 0, 1900570, 4, 0, 1900571, 4, 0, 1900572, 4, 0, 1900573, 4, 0, 1900574, 4, 0, 1900575, 4, 0, 1900576, 4, 0, 1900577, 4, 0, 1900578, 4, 0, 1900579, 4, 0, 1900580, 4, 0, 1900581, 4, 0, 1900582, 4, 0, 1900583, 4, 0, 1900584, 4, 0, 1900585, 4, 0, 1900586, 4, 0, 1900587, 4, 0, 1900588, 4, 0, 1900589, 4, 0, 1900590, 4, 0, 1900591, 4, 0, 1900592, 4, 0, 1900593, 4, 0, 1900594, 4, 0 )

[node name="Player" parent="Navigation2D/TileMap" instance=ExtResource( 13 )]

[node name="StaticNPC" type="Area2D" parent="."]
position = Vector2( 828.084, 228.629 )
rotation = 4.71239
scale = Vector2( 2, 2 )
__meta__ = {
"_edit_group_": true
}

[node name="Sprite" type="Sprite" parent="StaticNPC"]
texture = ExtResource( 14 )

[node name="CollisionShape2D" type="CollisionShape2D" parent="StaticNPC"]
shape = SubResource( 11 )

[node name="Tree" parent="." instance=ExtResource( 15 )]
position = Vector2( 839.27, 876.9 )

[node name="Tree2" parent="." instance=ExtResource( 15 )]
position = Vector2( 1224.53, 249.41 )

[node name="Tree3" parent="." instance=ExtResource( 15 )]
position = Vector2( 1617.48, 1020.89 )

[node name="Tree4" parent="." instance=ExtResource( 15 )]
position = Vector2( 329.927, 250.061 )

[node name="Tree6" parent="." instance=ExtResource( 15 )]
position = Vector2( 964.458, 339.817 )

[node name="BuildingTwo" parent="." instance=ExtResource( 16 )]
position = Vector2( 324.146, 957.539 )

[node name="BuildingTwo2" parent="." instance=ExtResource( 16 )]
position = Vector2( 1520.9, 702.289 )

[node name="BuildingTwo3" parent="." instance=ExtResource( 16 )]
position = Vector2( 1521.15, 802.289 )

[node name="BuildingTwo4" parent="." instance=ExtResource( 16 )]
position = Vector2( 1858.65, 1067.79 )

[node name="BuildingTwo5" parent="." instance=ExtResource( 16 )]
position = Vector2( 1080.28, 554.789 )

[node name="BuildingSix" parent="." instance=ExtResource( 17 )]
position = Vector2( 758.661, 501.648 )

[node name="BuildingSix3" parent="." instance=ExtResource( 17 )]
position = Vector2( 1674.41, 121.398 )

[node name="BuildingSix4" parent="." instance=ExtResource( 17 )]
position = Vector2( 2236.91, 179.898 )

[node name="BuildingSix5" parent="." instance=ExtResource( 17 )]
position = Vector2( 2083.91, 697.398 )

[node name="BuildingSix6" parent="." instance=ExtResource( 17 )]
position = Vector2( 511.161, 1208.15 )

[node name="BuildingSix7" parent="." instance=ExtResource( 17 )]
position = Vector2( 1543.91, 1277.9 )

[node name="BuildingSix8" parent="." instance=ExtResource( 17 )]
position = Vector2( 2380.91, 1133.9 )

[node name="BuildingSix9" parent="." instance=ExtResource( 17 )]
position = Vector2( 2248.16, 503.898 )

[node name="BuildingSix10" parent="." instance=ExtResource( 17 )]
position = Vector2( 643.911, 130.398 )

[node name="Bushes" parent="." instance=ExtResource( 18 )]
position = Vector2( 517.254, 501.388 )

[node name="Bushes2" parent="." instance=ExtResource( 18 )]
position = Vector2( 2020.25, 1144.89 )

[node name="Bushes3" parent="." instance=ExtResource( 18 )]
position = Vector2( 1865.79, 681.41 )

[node name="Bushes4" parent="." instance=ExtResource( 18 )]
position = Vector2( 1379, 708.388 )

[node name="BuildingSix2" parent="." instance=ExtResource( 17 )]
position = Vector2( 650.534, 502.974 )

[node name="BuildingFive2" parent="." instance=ExtResource( 19 )]
position = Vector2( 512.168, 761.692 )

[node name="BuildingFive4" parent="." instance=ExtResource( 19 )]
position = Vector2( 800.278, 758.398 )

[node name="BuildingFive5" parent="." instance=ExtResource( 19 )]
position = Vector2( 1719.05, 445.714 )

[node name="BuildingFive6" parent="." instance=ExtResource( 19 )]
position = Vector2( 1444.55, 445.964 )

[node name="BuildingFive" parent="." instance=ExtResource( 20 )]
position = Vector2( 1107.36, 1025.86 )

[node name="BuildingFive3" parent="." instance=ExtResource( 20 )]
position = Vector2( 1458.47, 1024.34 )

[node name="Exit" parent="." instance=ExtResource( 21 )]
position = Vector2( 33.75, 352 )

[node name="Spawn" type="Position2D" parent="."]
position = Vector2( 174, 400.5 )

[node name="PickUpItem" parent="." instance=ExtResource( 22 )]
visible = false
position = Vector2( 855, 225 )

[node name="SeagullSounds" type="Node2D" parent="."]

[node name="Seagull" type="AudioStreamPlayer2D" parent="SeagullSounds"]
position = Vector2( 945, 335.125 )
stream = ExtResource( 23 )
volume_db = -5.0
max_distance = 1000.0

[node name="Seagull2" type="AudioStreamPlayer2D" parent="SeagullSounds"]
position = Vector2( 933.75, 1069.87 )
stream = ExtResource( 23 )
volume_db = -5.0
max_distance = 1000.0

[node name="Seagull3" type="AudioStreamPlayer2D" parent="SeagullSounds"]
position = Vector2( 1617.75, 1022.62 )
stream = ExtResource( 23 )
volume_db = -5.0
max_distance = 1000.0

[node name="BackgroundSounds" type="Node2D" parent="."]

[node name="BackgroundSea" type="AudioStreamPlayer2D" parent="BackgroundSounds"]
position = Vector2( -189, 50.6249 )
stream = ExtResource( 24 )
bus = "Background"

[node name="BackgroundSea2" type="AudioStreamPlayer2D" parent="BackgroundSounds"]
position = Vector2( 2385, 122.625 )
stream = ExtResource( 24 )
bus = "Background"

[node name="BackgroundSea3" type="AudioStreamPlayer2D" parent="BackgroundSounds"]
position = Vector2( 2427.75, 1276.87 )
stream = ExtResource( 24 )
bus = "Background"

[node name="BackgroundSea4" type="AudioStreamPlayer2D" parent="BackgroundSounds"]
position = Vector2( -40.5, 1427.62 )
stream = ExtResource( 24 )
bus = "Background"

[node name="Temp" parent="." instance=ExtResource( 25 )]
visible = false

[node name="Ship" type="Sprite" parent="."]
position = Vector2( -204.75, 357.75 )
rotation = 1.5708
scale = Vector2( 0.1, 0.1 )
texture = ExtResource( 26 )

[node name="PathPoints" type="Node2D" parent="."]

[node name="PathOne" type="Node2D" parent="PathPoints"]

[node name="NPCPosA" type="Position2D" parent="PathPoints/PathOne"]
position = Vector2( 1214.34, 706.01 )

[node name="NPCPosB" type="Position2D" parent="PathPoints/PathOne"]
position = Vector2( 1671.5, 1204.16 )

[node name="PathTwo" type="Node2D" parent="PathPoints"]

[node name="NPCPosA" type="Position2D" parent="PathPoints/PathTwo"]
position = Vector2( 2423.3, 707.49 )

[node name="NPCPosB" type="Position2D" parent="PathPoints/PathTwo"]
position = Vector2( 1724, 247.765 )

[node name="PathThree" type="Node2D" parent="PathPoints"]

[node name="NPCPosA" type="Position2D" parent="PathPoints/PathThree"]
position = Vector2( 782.341, 1237.01 )

[node name="NPCPosB" type="Position2D" parent="PathPoints/PathThree"]
position = Vector2( 220.254, 841.911 )

[node name="PalmTree" parent="." instance=ExtResource( 27 )]
position = Vector2( 920.498, 1295.69 )

[node name="PalmTree2" parent="." instance=ExtResource( 27 )]
position = Vector2( 1049.68, 79.7136 )

[node name="PalmTree3" parent="." instance=ExtResource( 27 )]
position = Vector2( 532.945, 850.719 )

[node name="PalmTree4" parent="." instance=ExtResource( 27 )]
position = Vector2( 1822.74, 36.6521 )

[node name="PalmTree5" parent="." instance=ExtResource( 27 )]
position = Vector2( 2271.81, 721.534 )

[node name="PalmTree6" parent="." instance=ExtResource( 27 )]
position = Vector2( 225.363, 1123.44 )

[node name="PalmTree7" parent="." instance=ExtResource( 27 )]
position = Vector2( 1162.46, 865.073 )

[node name="PalmTree8" parent="." instance=ExtResource( 27 )]
position = Vector2( 543.198, 274.515 )

[node name="PalmTree9" parent="." instance=ExtResource( 27 )]
position = Vector2( 411.963, 344.234 )

[node name="PalmTree10" parent="." instance=ExtResource( 27 )]
position = Vector2( 217.161, 655.917 )

[node name="Rock" parent="." instance=ExtResource( 28 )]
position = Vector2( 278.678, 795.354 )

[node name="Rock2" parent="." instance=ExtResource( 28 )]
position = Vector2( 407.862, 666.17 )

[node name="Rock3" parent="." instance=ExtResource( 28 )]
position = Vector2( 44.9154, 852.769 )

[node name="Rock4" parent="." instance=ExtResource( 28 )]
position = Vector2( 479.631, 1371.56 )

[node name="Rock5" parent="." instance=ExtResource( 28 )]
position = Vector2( 1178.87, 1248.52 )

[node name="Rock6" parent="." instance=ExtResource( 28 )]
position = Vector2( 1892.46, 1379.76 )

[node name="Rock7" parent="." instance=ExtResource( 28 )]
position = Vector2( 1945.77, 235.555 )

[node name="Rock8" parent="." instance=ExtResource( 28 )]
position = Vector2( 2526.08, 858.921 )

[node name="DayNightTint" parent="." instance=ExtResource( 29 )]
[connection signal="body_entered" from="StaticNPC" to="." method="_on_StaticNPC_body_entered"]
