[gd_scene load_steps=30 format=2]

[ext_resource path="res://IslandsTopDownView/IslandVisualCode.gd" type="Script" id=1]
[ext_resource path="res://tiles/IslandEncounterTiles/GrassTiletwo.png" type="Texture" id=2]
[ext_resource path="res://tiles/IslandEncounterTiles/GrassTile.png" type="Texture" id=3]
[ext_resource path="res://tiles/IslandEncounterTiles/PlainGrassTile.v3.png" type="Texture" id=4]
[ext_resource path="res://tiles/IslandEncounterTiles/SandTileThree.png" type="Texture" id=5]
[ext_resource path="res://tiles/IslandEncounterTiles/SanDTileTwo.png" type="Texture" id=6]
[ext_resource path="res://tiles/IslandEncounterTiles/SandTile.png" type="Texture" id=7]
[ext_resource path="res://tiles/IslandEncounterTiles/SeaTile.png" type="Texture" id=8]
[ext_resource path="res://tiles/IslandEncounterTiles/NoneShallPass.png" type="Texture" id=9]
[ext_resource path="res://CharacterTopDownView/Character.tscn" type="PackedScene" id=10]
[ext_resource path="res://tiles/IslandEncounterTiles/TreasureChest.png" type="Texture" id=11]
[ext_resource path="res://IslandsTopDownView/Assets/Tree.tscn" type="PackedScene" id=12]
[ext_resource path="res://IslandsTopDownView/Assets/Bushes.tscn" type="PackedScene" id=13]
[ext_resource path="res://IslandsTopDownView/Assets/Exit.tscn" type="PackedScene" id=14]
[ext_resource path="res://IslandsTopDownView/Assets/Item.tscn" type="PackedScene" id=15]
[ext_resource path="res://Temp.tscn" type="PackedScene" id=16]
[ext_resource path="res://images/8 bit pirate SHIP.png" type="Texture" id=17]
[ext_resource path="res://mapAudio/Rough_Sea_Waves.wav" type="AudioStream" id=18]
[ext_resource path="res://mapAudio/Seagull.wav" type="AudioStream" id=19]
[ext_resource path="res://map_graphics/DayNightTint.tscn" type="PackedScene" id=20]

[sub_resource type="NavigationPolygon" id=1]
vertices = PoolVector2Array( 0, 0, 64, 0, 64, 64, 0, 64 )
polygons = [ PoolIntArray( 0, 1, 2, 3 ) ]

[sub_resource type="NavigationPolygon" id=2]
vertices = PoolVector2Array( 0, 0, 64, 0, 64, 64, 0, 64 )
polygons = [ PoolIntArray( 0, 1, 2, 3 ) ]

[sub_resource type="NavigationPolygon" id=3]
vertices = PoolVector2Array( 0, 0, 64, 0, 64, 64, 0, 64 )
polygons = [ PoolIntArray( 0, 1, 2, 3 ) ]

[sub_resource type="NavigationPolygon" id=4]
vertices = PoolVector2Array( 0, 0, 64, 0, 64, 64, 0, 64 )
polygons = [ PoolIntArray( 0, 1, 2, 3 ) ]

[sub_resource type="NavigationPolygon" id=5]
vertices = PoolVector2Array( 0, 0, 64, 0, 64, 64, 0, 64 )
polygons = [ PoolIntArray( 0, 1, 2, 3 ) ]

[sub_resource type="NavigationPolygon" id=6]
vertices = PoolVector2Array( 0, 0, 64, 0, 64, 64, 0, 64 )
polygons = [ PoolIntArray( 0, 1, 2, 3 ) ]

[sub_resource type="ConvexPolygonShape2D" id=7]
points = PoolVector2Array( 0, 0, 64, 0, 64, 64, 0, 64 )

[sub_resource type="TileSet" id=8]
0/name = "GrassTiletwo.png 0"
0/texture = ExtResource( 2 )
0/tex_offset = Vector2( 0, 0 )
0/modulate = Color( 1, 1, 1, 1 )
0/region = Rect2( 0, 0, 64, 64 )
0/tile_mode = 0
0/occluder_offset = Vector2( 0, 0 )
0/navigation_offset = Vector2( 0, 0 )
0/navigation = SubResource( 1 )
0/shapes = [  ]
0/z_index = 0
1/name = "GrassTile.png 1"
1/texture = ExtResource( 3 )
1/tex_offset = Vector2( 0, 0 )
1/modulate = Color( 1, 1, 1, 1 )
1/region = Rect2( 0, 0, 64, 64 )
1/tile_mode = 0
1/occluder_offset = Vector2( 0, 0 )
1/navigation_offset = Vector2( 0, 0 )
1/navigation = SubResource( 2 )
1/shapes = [  ]
1/z_index = 0
2/name = "PlainGrassTile.v3.png 2"
2/texture = ExtResource( 4 )
2/tex_offset = Vector2( 0, 0 )
2/modulate = Color( 1, 1, 1, 1 )
2/region = Rect2( 0, 0, 64, 64 )
2/tile_mode = 0
2/occluder_offset = Vector2( 0, 0 )
2/navigation_offset = Vector2( 0, 0 )
2/navigation = SubResource( 3 )
2/shapes = [  ]
2/z_index = 0
3/name = "SandTileThree.png 3"
3/texture = ExtResource( 5 )
3/tex_offset = Vector2( 0, 0 )
3/modulate = Color( 1, 1, 1, 1 )
3/region = Rect2( 0, 0, 64, 64 )
3/tile_mode = 0
3/occluder_offset = Vector2( 0, 0 )
3/navigation_offset = Vector2( 0, 0 )
3/navigation = SubResource( 4 )
3/shapes = [  ]
3/z_index = 0
4/name = "SanDTileTwo.png 4"
4/texture = ExtResource( 6 )
4/tex_offset = Vector2( 0, 0 )
4/modulate = Color( 1, 1, 1, 1 )
4/region = Rect2( 0, 0, 64, 64 )
4/tile_mode = 0
4/occluder_offset = Vector2( 0, 0 )
4/navigation_offset = Vector2( 0, 0 )
4/navigation = SubResource( 5 )
4/shapes = [  ]
4/z_index = 0
5/name = "SandTile.png 5"
5/texture = ExtResource( 7 )
5/tex_offset = Vector2( 0, 0 )
5/modulate = Color( 1, 1, 1, 1 )
5/region = Rect2( 0, 0, 64, 64 )
5/tile_mode = 0
5/occluder_offset = Vector2( 0, 0 )
5/navigation_offset = Vector2( 0, 0 )
5/navigation = SubResource( 6 )
5/shapes = [  ]
5/z_index = 0
6/name = "SeaTile.png 6"
6/texture = ExtResource( 8 )
6/tex_offset = Vector2( 0, 0 )
6/modulate = Color( 1, 1, 1, 1 )
6/region = Rect2( 0, 0, 64, 64 )
6/tile_mode = 0
6/occluder_offset = Vector2( 0, 0 )
6/navigation_offset = Vector2( 0, 0 )
6/shapes = [ {
"autotile_coord": Vector2( 0, 0 ),
"one_way": false,
"one_way_margin": 1.0,
"shape": SubResource( 7 ),
"shape_transform": Transform2D( 1, 0, 0, 1, 0, 0 )
} ]
6/z_index = 0
7/name = "NoneShallPass.png 7"
7/texture = ExtResource( 9 )
7/tex_offset = Vector2( 0, 0 )
7/modulate = Color( 1, 1, 1, 1 )
7/region = Rect2( 0, 0, 64, 64 )
7/tile_mode = 0
7/occluder_offset = Vector2( 0, 0 )
7/navigation_offset = Vector2( 0, 0 )
7/shapes = [  ]
7/z_index = 0

[sub_resource type="RectangleShape2D" id=9]
extents = Vector2( 59.2487, 41.8007 )

[node name="Node2D" type="Node2D"]
script = ExtResource( 1 )

[node name="Navigation2D" type="Navigation2D" parent="."]

[node name="TileMap" type="TileMap" parent="Navigation2D"]
tile_set = SubResource( 8 )
format = 1
tile_data = PoolIntArray( -196616, 6, 0, -196615, 6, 0, -196614, 6, 0, -196613, 6, 0, -196612, 6, 0, -196611, 6, 0, -196610, 6, 0, -196609, 6, 0, -262144, 6, 0, -262143, 6, 0, -262142, 6, 0, -262141, 6, 0, -262140, 6, 0, -262139, 6, 0, -262138, 6, 0, -262137, 6, 0, -262136, 6, 0, -262135, 6, 0, -262134, 6, 0, -262133, 6, 0, -262132, 6, 0, -262131, 6, 0, -262130, 6, 0, -262129, 6, 0, -262128, 6, 0, -262127, 6, 0, -262126, 6, 0, -262125, 6, 0, -262124, 6, 0, -262123, 6, 0, -262122, 6, 0, -262121, 6, 0, -262120, 6, 0, -262119, 6, 0, -262118, 6, 0, -262117, 6, 0, -262116, 6, 0, -262115, 6, 0, -262114, 6, 0, -262113, 6, 0, -262112, 6, 0, -262111, 6, 0, -262110, 6, 0, -262109, 6, 0, -262108, 6, 0, -262107, 6, 0, -262106, 6, 0, -262105, 6, 0, -262104, 6, 0, -262103, 6, 0, -262102, 6, 0, -262101, 6, 0, -262100, 6, 0, -262099, 6, 0, -262098, 6, 0, -262097, 6, 0, -262096, 6, 0, -131080, 6, 0, -131079, 6, 0, -131078, 6, 0, -131077, 6, 0, -131076, 6, 0, -131075, 6, 0, -131074, 6, 0, -131073, 6, 0, -196608, 6, 0, -196607, 6, 0, -196606, 6, 0, -196605, 6, 0, -196604, 6, 0, -196603, 6, 0, -196602, 6, 0, -196601, 6, 0, -196600, 6, 0, -196599, 6, 0, -196598, 6, 0, -196597, 6, 0, -196596, 6, 0, -196595, 6, 0, -196594, 6, 0, -196593, 6, 0, -196592, 6, 0, -196591, 6, 0, -196590, 6, 0, -196589, 6, 0, -196588, 6, 0, -196587, 6, 0, -196586, 6, 0, -196585, 6, 0, -196584, 6, 0, -196583, 6, 0, -196582, 6, 0, -196581, 6, 0, -196580, 6, 0, -196579, 6, 0, -196578, 6, 0, -196577, 6, 0, -196576, 6, 0, -196575, 6, 0, -196574, 6, 0, -196573, 6, 0, -196572, 6, 0, -196571, 6, 0, -196570, 6, 0, -196569, 6, 0, -196568, 6, 0, -196567, 6, 0, -196566, 6, 0, -196565, 6, 0, -196564, 6, 0, -196563, 6, 0, -196562, 6, 0, -196561, 6, 0, -196560, 6, 0, -65544, 6, 0, -65543, 6, 0, -65542, 6, 0, -65541, 6, 0, -65540, 6, 0, -65539, 6, 0, -65538, 6, 0, -65537, 5, 0, -131072, 5, 0, -131071, 6, 0, -131070, 6, 0, -131069, 6, 0, -131068, 5, 0, -131067, 5, 0, -131066, 5, 0, -131065, 6, 0, -131064, 6, 0, -131063, 6, 0, -131062, 6, 0, -131061, 6, 0, -131060, 6, 0, -131059, 6, 0, -131058, 6, 0, -131057, 6, 0, -131056, 5, 0, -131055, 5, 0, -131054, 5, 0, -131053, 6, 0, -131052, 5, 0, -131051, 5, 0, -131050, 6, 0, -131049, 6, 0, -131048, 5, 0, -131047, 6, 0, -131046, 6, 0, -131045, 6, 0, -131044, 3, 0, -131043, 5, 0, -131042, 6, 0, -131041, 6, 0, -131040, 6, 0, -131039, 6, 0, -131038, 4, 0, -131037, 6, 0, -131036, 6, 0, -131035, 6, 0, -131034, 6, 0, -131033, 6, 0, -131032, 6, 0, -131031, 6, 0, -131030, 6, 0, -131029, 6, 0, -131028, 6, 0, -131027, 6, 0, -131026, 6, 0, -131025, 6, 0, -131024, 6, 0, -8, 6, 0, -7, 6, 0, -6, 6, 0, -5, 6, 0, -4, 6, 0, -3, 6, 0, -2, 6, 0, -1, 6, 0, -65536, 6, 0, -65535, 6, 0, -65534, 5, 0, -65533, 6, 0, -65532, 6, 0, -65531, 6, 0, -65530, 6, 0, -65529, 6, 0, -65528, 6, 0, -65527, 5, 0, -65526, 6, 0, -65525, 6, 0, -65524, 6, 0, -65523, 6, 0, -65522, 6, 0, -65521, 5, 0, -65520, 6, 0, -65519, 6, 0, -65518, 6, 0, -65517, 6, 0, -65516, 6, 0, -65515, 6, 0, -65514, 6, 0, -65513, 5, 0, -65512, 6, 0, -65511, 6, 0, -65510, 6, 0, -65509, 6, 0, -65508, 5, 0, -65507, 6, 0, -65506, 6, 0, -65505, 6, 0, -65504, 5, 0, -65503, 5, 0, -65502, 5, 0, -65501, 6, 0, -65500, 6, 0, -65499, 6, 0, -65498, 6, 0, -65497, 6, 0, -65496, 6, 0, -65495, 6, 0, -65494, 6, 0, -65493, 6, 0, -65492, 6, 0, -65491, 6, 0, -65490, 6, 0, -65489, 6, 0, -65488, 6, 0, 65528, 6, 0, 65529, 6, 0, 65530, 6, 0, 65531, 6, 0, 65532, 6, 0, 65533, 6, 0, 65534, 5, 0, 65535, 6, 0, 0, 5, 0, 1, 5, 0, 2, 6, 0, 3, 5, 0, 4, 5, 0, 5, 6, 0, 6, 5, 0, 7, 4, 0, 8, 6, 0, 9, 6, 0, 10, 6, 0, 11, 5, 0, 12, 5, 0, 13, 5, 0, 14, 5, 0, 15, 6, 0, 16, 6, 0, 17, 5, 0, 18, 5, 0, 19, 5, 0, 20, 5, 0, 21, 6, 0, 22, 6, 0, 23, 6, 0, 24, 6, 0, 25, 6, 0, 26, 5, 0, 27, 5, 0, 28, 6, 0, 29, 4, 0, 30, 5, 0, 31, 6, 0, 32, 6, 0, 33, 6, 0, 34, 6, 0, 35, 5, 0, 36, 6, 0, 37, 5, 0, 38, 6, 0, 39, 5, 0, 40, 6, 0, 41, 6, 0, 42, 6, 0, 43, 6, 0, 44, 6, 0, 45, 6, 0, 46, 6, 0, 47, 6, 0, 48, 6, 0, 131064, 6, 0, 131065, 6, 0, 131066, 6, 0, 131067, 6, 0, 131068, 6, 0, 131069, 6, 0, 131070, 6, 0, 131071, 6, 0, 65536, 5, 0, 65537, 6, 0, 65538, 6, 0, 65539, 5, 0, 65540, 5, 0, 65541, 3, 0, 65542, 5, 0, 65543, 5, 0, 65544, 5, 0, 65545, 5, 0, 65546, 5, 0, 65547, 5, 0, 65548, 3, 0, 65549, 5, 0, 65550, 4, 0, 65551, 5, 0, 65552, 6, 0, 65553, 5, 0, 65554, 3, 0, 65555, 5, 0, 65556, 5, 0, 65557, 4, 0, 65558, 5, 0, 65559, 6, 0, 65560, 4, 0, 65561, 5, 0, 65562, 3, 0, 65563, 5, 0, 65564, 5, 0, 65565, 5, 0, 65566, 5, 0, 65567, 5, 0, 65568, 5, 0, 65569, 5, 0, 65570, 5, 0, 65571, 5, 0, 65572, 5, 0, 65573, 6, 0, 65574, 6, 0, 65575, 5, 0, 65576, 6, 0, 65577, 6, 0, 65578, 6, 0, 65579, 6, 0, 65580, 6, 0, 65581, 6, 0, 65582, 6, 0, 65583, 6, 0, 65584, 6, 0, 196600, 6, 0, 196601, 6, 0, 196602, 6, 0, 196603, 6, 0, 196604, 6, 0, 196605, 6, 0, 196606, 6, 0, 196607, 5, 0, 131072, 4, 0, 131073, 5, 0, 131074, 5, 0, 131075, 3, 0, 131076, 5, 0, 131077, 5, 0, 131078, 5, 0, 131079, 5, 0, 131080, 3, 0, 131081, 1610612738, 0, 131082, 0, 0, 131083, 5, 0, 131084, 5, 0, 131085, 0, 0, 131086, 5, 0, 131087, 5, 0, 131088, 5, 0, 131089, 5, 0, 131090, 1610612736, 0, 131091, 1610612738, 0, 131092, 5, 0, 131093, 5, 0, 131094, 5, 0, 131095, 5, 0, 131096, 5, 0, 131097, 5, 0, 131098, 5, 0, 131099, 2, 0, 131100, 5, 0, 131101, 5, 0, 131102, 3, 0, 131103, 5, 0, 131104, 0, 0, 131105, 0, 0, 131106, 2, 0, 131107, 3, 0, 131108, 5, 0, 131109, 6, 0, 131110, 6, 0, 131111, 3, 0, 131112, 6, 0, 131113, 6, 0, 131114, 6, 0, 131115, 6, 0, 131116, 6, 0, 131117, 6, 0, 131118, 6, 0, 131119, 6, 0, 131120, 6, 0, 262136, 6, 0, 262137, 6, 0, 262138, 6, 0, 262139, 6, 0, 262140, 6, 0, 262141, 6, 0, 262142, 5, 0, 262143, 5, 0, 196608, 5, 0, 196609, 0, 0, 196610, 5, 0, 196611, 5, 0, 196612, 1610612736, 0, 196613, 1610612736, 0, 196614, 1610612736, 0, 196615, 1610612736, 0, 196616, 1610612736, 0, 196617, 1610612736, 0, 196618, 1610612736, 0, 196619, 1610612736, 0, 196620, 5, 0, 196621, 5, 0, 196622, 3, 0, 196623, 5, 0, 196624, 0, 0, 196625, 1610612738, 0, 196626, 7, 0, 196627, 7, 0, 196628, 2, 0, 196629, 5, 0, 196630, 3, 0, 196631, 5, 0, 196632, 0, 0, 196633, 4, 0, 196634, 2, 0, 196635, 2, 0, 196636, 2, 0, 196637, 2, 0, 196638, 2, 0, 196639, 0, 0, 196640, 7, 0, 196641, 7, 0, 196642, 7, 0, 196643, 3, 0, 196644, 5, 0, 196645, 4, 0, 196646, 6, 0, 196647, 6, 0, 196648, 6, 0, 196649, 6, 0, 196650, 6, 0, 196651, 6, 0, 196652, 6, 0, 196653, 6, 0, 196654, 6, 0, 196655, 6, 0, 196656, 6, 0, 327672, 6, 0, 327673, 6, 0, 327674, 6, 0, 327675, 6, 0, 327676, 6, 0, 327677, 5, 0, 327678, 3, 0, 327679, 5, 0, 262144, 3, 0, 262145, 5, 0, 262146, 5, 0, 262147, 1610612738, 0, 262148, 1610612736, 0, 262149, 1610612736, 0, 262150, 1610612736, 0, 262151, 1610612736, 0, 262152, 7, 0, 262153, 7, 0, 262154, 7, 0, 262155, 1610612736, 0, 262156, 1610612736, 0, 262157, 1610612738, 0, 262158, 1610612738, 0, 262159, 1610612738, 0, 262160, 1610612738, 0, 262161, 1610612738, 0, 262162, 7, 0, 262163, 7, 0, 262164, 2, 0, 262165, 2, 0, 262166, 0, 0, 262167, 5, 0, 262168, 5, 0, 262169, 7, 0, 262170, 7, 0, 262171, 2, 0, 262172, 2, 0, 262173, 0, 0, 262174, 0, 0, 262175, 0, 0, 262176, 2, 0, 262177, 3, 0, 262178, 5, 0, 262179, 5, 0, 262180, 5, 0, 262181, 5, 0, 262182, 5, 0, 262183, 6, 0, 262184, 6, 0, 262185, 5, 0, 262186, 6, 0, 262187, 6, 0, 262188, 6, 0, 262189, 6, 0, 262190, 6, 0, 262191, 6, 0, 262192, 6, 0, 393208, 6, 0, 393209, 6, 0, 393210, 6, 0, 393211, 6, 0, 393212, 6, 0, 393213, 5, 0, 393214, 5, 0, 393215, 4, 0, 327680, 0, 0, 327681, 4, 0, 327682, 1610612736, 0, 327683, 1610612738, 0, 327684, 1610612736, 0, 327685, 1610612736, 0, 327686, 1610612736, 0, 327687, 7, 0, 327688, 7, 0, 327689, 7, 0, 327690, 7, 0, 327691, 1610612736, 0, 327692, 1610612738, 0, 327693, 1610612738, 0, 327694, 7, 0, 327695, 7, 0, 327696, 0, 0, 327697, 5, 0, 327698, 3, 0, 327699, 5, 0, 327700, 5, 0, 327701, 2, 0, 327702, 2, 0, 327703, 2, 0, 327704, 2, 0, 327705, 7, 0, 327706, 7, 0, 327707, 0, 0, 327708, 2, 0, 327709, 0, 0, 327710, 2, 0, 327711, 3, 0, 327712, 5, 0, 327713, 5, 0, 327714, 2, 0, 327715, 5, 0, 327716, 5, 0, 327717, 3, 0, 327718, 5, 0, 327719, 4, 0, 327720, 6, 0, 327721, 5, 0, 327722, 6, 0, 327723, 6, 0, 327724, 6, 0, 327725, 6, 0, 327726, 6, 0, 327727, 6, 0, 327728, 6, 0, 458744, 6, 0, 458745, 6, 0, 458746, 6, 0, 458747, 6, 0, 458748, 6, 0, 458749, 6, 0, 458750, 5, 0, 458751, 5, 0, 393216, 5, 0, 393217, 5, 0, 393218, 1610612738, 0, 393219, 1610612738, 0, 393220, 1610612736, 0, 393221, 1610612736, 0, 393222, 7, 0, 393223, 7, 0, 393224, 7, 0, 393225, 7, 0, 393226, 1610612736, 0, 393227, 7, 0, 393228, 7, 0, 393229, 7, 0, 393230, 7, 0, 393231, 1610612738, 0, 393232, 1610612738, 0, 393233, 4, 0, 393234, 1610612738, 0, 393235, 1610612738, 0, 393236, 2, 0, 393237, 0, 0, 393238, 2, 0, 393239, 2, 0, 393240, 0, 0, 393241, 0, 0, 393242, 2, 0, 393243, 0, 0, 393244, 7, 0, 393245, 7, 0, 393246, 0, 0, 393247, 2, 0, 393248, 2, 0, 393249, 2, 0, 393250, 0, 0, 393251, 5, 0, 393252, 5, 0, 393253, 5, 0, 393254, 6, 0, 393255, 6, 0, 393256, 6, 0, 393257, 6, 0, 393258, 6, 0, 393259, 6, 0, 393260, 6, 0, 393261, 6, 0, 393262, 6, 0, 393263, 6, 0, 393264, 6, 0, 524280, 6, 0, 524281, 6, 0, 524282, 6, 0, 524283, 6, 0, 524284, 6, 0, 524285, 6, 0, 524286, 6, 0, 524287, 3, 0, 458752, 5, 0, 458753, 1610612738, 0, 458754, 0, 0, 458755, 1610612738, 0, 458756, 1610612736, 0, 458757, 1610612736, 0, 458758, 7, 0, 458759, 7, 0, 458760, 1610612736, 0, 458761, 1610612736, 0, 458762, 1610612736, 0, 458763, 7, 0, 458764, 7, 0, 458765, 7, 0, 458766, 7, 0, 458767, 1610612736, 0, 458768, 1610612738, 0, 458769, 1610612738, 0, 458770, 1610612736, 0, 458771, 7, 0, 458772, 7, 0, 458773, 7, 0, 458774, 7, 0, 458775, 7, 0, 458776, 0, 0, 458777, 0, 0, 458778, 2, 0, 458779, 2, 0, 458780, 2, 0, 458781, 2, 0, 458782, 2, 0, 458783, 2, 0, 458784, 5, 0, 458785, 4, 0, 458786, 0, 0, 458787, 3, 0, 458788, 5, 0, 458789, 6, 0, 458790, 6, 0, 458791, 5, 0, 458792, 6, 0, 458793, 6, 0, 458794, 6, 0, 458795, 6, 0, 458796, 6, 0, 458797, 6, 0, 458798, 6, 0, 458799, 6, 0, 458800, 6, 0, 589816, 6, 0, 589817, 6, 0, 589818, 6, 0, 589819, 6, 0, 589820, 6, 0, 589821, 5, 0, 589822, 6, 0, 589823, 5, 0, 524288, 5, 0, 524289, 4, 0, 524290, 1610612738, 0, 524291, 1610612738, 0, 524292, 1610612736, 0, 524293, 1610612736, 0, 524294, 1610612736, 0, 524295, 7, 0, 524296, 7, 0, 524297, 7, 0, 524298, 7, 0, 524299, 1610612738, 0, 524300, 1610612738, 0, 524301, 1610612738, 0, 524302, 1610612738, 0, 524303, 1610612738, 0, 524304, 1610612738, 0, 524305, 1610612738, 0, 524306, 1610612738, 0, 524307, 1610612738, 0, 524308, 2, 0, 524309, 7, 0, 524310, 7, 0, 524311, 7, 0, 524312, 2, 0, 524313, 0, 0, 524314, 2, 0, 524315, 0, 0, 524316, 2, 0, 524317, 5, 0, 524318, 3, 0, 524319, 2, 0, 524320, 5, 0, 524321, 5, 0, 524322, 2, 0, 524323, 2, 0, 524324, 5, 0, 524325, 5, 0, 524326, 6, 0, 524327, 6, 0, 524328, 6, 0, 524329, 6, 0, 524330, 6, 0, 524331, 6, 0, 524332, 6, 0, 524333, 6, 0, 524334, 6, 0, 524335, 6, 0, 524336, 6, 0, 655352, 6, 0, 655353, 6, 0, 655354, 6, 0, 655355, 6, 0, 655356, 6, 0, 655357, 6, 0, 655358, 6, 0, 655359, 6, 0, 589824, 4, 0, 589825, 5, 0, 589826, 5, 0, 589827, 1610612738, 0, 589828, 1610612736, 0, 589829, 7, 0, 589830, 7, 0, 589831, 7, 0, 589832, 7, 0, 589833, 1610612738, 0, 589834, 7, 0, 589835, 7, 0, 589836, 7, 0, 589837, 0, 0, 589838, 1610612738, 0, 589839, 1610612738, 0, 589840, 4, 0, 589841, 1610612738, 0, 589842, 1610612736, 0, 589843, 5, 0, 589844, 5, 0, 589845, 5, 0, 589846, 0, 0, 589847, 2, 0, 589848, 2, 0, 589849, 4, 0, 589850, 2, 0, 589851, 0, 0, 589852, 2, 0, 589853, 2, 0, 589854, 5, 0, 589855, 0, 0, 589856, 2, 0, 589857, 5, 0, 589858, 5, 0, 589859, 2, 0, 589860, 2, 0, 589861, 3, 0, 589862, 4, 0, 589863, 6, 0, 589864, 6, 0, 589865, 6, 0, 589866, 6, 0, 589867, 6, 0, 589868, 6, 0, 589869, 6, 0, 589870, 6, 0, 589871, 6, 0, 589872, 6, 0, 720888, 6, 0, 720889, 6, 0, 720890, 6, 0, 720891, 6, 0, 720892, 6, 0, 720893, 6, 0, 720894, 3, 0, 720895, 6, 0, 655360, 5, 0, 655361, 5, 0, 655362, 5, 0, 655363, 1610612738, 0, 655364, 1610612736, 0, 655365, 7, 0, 655366, 7, 0, 655367, 1610612736, 0, 655368, 1610612736, 0, 655369, 1610612738, 0, 655370, 7, 0, 655371, 7, 0, 655372, 1610612738, 0, 655373, 1610612738, 0, 655374, 1610612738, 0, 655375, 1610612736, 0, 655376, 5, 0, 655377, 5, 0, 655378, 1610612738, 0, 655379, 5, 0, 655380, 7, 0, 655381, 7, 0, 655382, 0, 0, 655383, 2, 0, 655384, 5, 0, 655385, 5, 0, 655386, 0, 0, 655387, 0, 0, 655388, 2, 0, 655389, 0, 0, 655390, 2, 0, 655391, 2, 0, 655392, 2, 0, 655393, 2, 0, 655394, 2, 0, 655395, 2, 0, 655396, 2, 0, 655397, 5, 0, 655398, 5, 0, 655399, 5, 0, 655400, 6, 0, 655401, 6, 0, 655402, 6, 0, 655403, 6, 0, 655404, 6, 0, 655405, 6, 0, 655406, 6, 0, 655407, 6, 0, 655408, 6, 0, 786424, 6, 0, 786425, 6, 0, 786426, 6, 0, 786427, 6, 0, 786428, 6, 0, 786429, 6, 0, 786430, 5, 0, 786431, 6, 0, 720896, 5, 0, 720897, 3, 0, 720898, 1610612738, 0, 720899, 1610612738, 0, 720900, 1610612738, 0, 720901, 0, 0, 720902, 1610612738, 0, 720903, 1610612738, 0, 720904, 1610612738, 0, 720905, 0, 0, 720906, 1610612738, 0, 720907, 1610612738, 0, 720908, 0, 0, 720909, 1610612738, 0, 720910, 1610612738, 0, 720911, 5, 0, 720912, 5, 0, 720913, 1610612738, 0, 720914, 1610612738, 0, 720915, 3, 0, 720916, 7, 0, 720917, 7, 0, 720918, 0, 0, 720919, 2, 0, 720920, 3, 0, 720921, 5, 0, 720922, 0, 0, 720923, 2, 0, 720924, 5, 0, 720925, 5, 0, 720926, 2, 0, 720927, 7, 0, 720928, 7, 0, 720929, 7, 0, 720930, 0, 0, 720931, 0, 0, 720932, 3, 0, 720933, 5, 0, 720934, 4, 0, 720935, 5, 0, 720936, 6, 0, 720937, 6, 0, 720938, 6, 0, 720939, 6, 0, 720940, 6, 0, 720941, 6, 0, 720942, 6, 0, 720943, 6, 0, 720944, 6, 0, 851960, 6, 0, 851961, 6, 0, 851962, 6, 0, 851963, 6, 0, 851964, 6, 0, 851965, 6, 0, 851966, 6, 0, 851967, 3, 0, 786432, 4, 0, 786433, 5, 0, 786434, 2, 0, 786435, 0, 0, 786436, 2, 0, 786437, 0, 0, 786438, 2, 0, 786439, 2, 0, 786440, 3, 0, 786441, 3, 0, 786442, 2, 0, 786443, 2, 0, 786444, 7, 0, 786445, 7, 0, 786446, 2, 0, 786447, 0, 0, 786448, 5, 0, 786449, 5, 0, 786450, 4, 0, 786451, 5, 0, 786452, 5, 0, 786453, 5, 0, 786454, 0, 0, 786455, 2, 0, 786456, 2, 0, 786457, 2, 0, 786458, 2, 0, 786459, 2, 0, 786460, 5, 0, 786461, 3, 0, 786462, 5, 0, 786463, 2, 0, 786464, 7, 0, 786465, 7, 0, 786466, 0, 0, 786467, 0, 0, 786468, 2, 0, 786469, 5, 0, 786470, 5, 0, 786471, 3, 0, 786472, 6, 0, 786473, 6, 0, 786474, 6, 0, 786475, 6, 0, 786476, 6, 0, 786477, 6, 0, 786478, 6, 0, 786479, 6, 0, 786480, 6, 0, 917496, 6, 0, 917497, 6, 0, 917498, 6, 0, 917499, 6, 0, 917500, 6, 0, 917501, 6, 0, 917502, 4, 0, 917503, 5, 0, 851968, 5, 0, 851969, 5, 0, 851970, 5, 0, 851971, 2, 0, 851972, 2, 0, 851973, 0, 0, 851974, 0, 0, 851975, 0, 0, 851976, 2, 0, 851977, 5, 0, 851978, 0, 0, 851979, 2, 0, 851980, 7, 0, 851981, 7, 0, 851982, 7, 0, 851983, 2, 0, 851984, 3, 0, 851985, 3, 0, 851986, 5, 0, 851987, 5, 0, 851988, 0, 0, 851989, 5, 0, 851990, 7, 0, 851991, 7, 0, 851992, 7, 0, 851993, 0, 0, 851994, 0, 0, 851995, 0, 0, 851996, 2, 0, 851997, 0, 0, 851998, 5, 0, 851999, 5, 0, 852000, 7, 0, 852001, 7, 0, 852002, 0, 0, 852003, 2, 0, 852004, 2, 0, 852005, 5, 0, 852006, 5, 0, 852007, 6, 0, 852008, 6, 0, 852009, 6, 0, 852010, 6, 0, 852011, 6, 0, 852012, 6, 0, 852013, 6, 0, 852014, 6, 0, 852015, 6, 0, 852016, 6, 0, 983032, 6, 0, 983033, 6, 0, 983034, 6, 0, 983035, 6, 0, 983036, 6, 0, 983037, 6, 0, 983038, 6, 0, 983039, 6, 0, 917504, 5, 0, 917505, 3, 0, 917506, 0, 0, 917507, 5, 0, 917508, 2, 0, 917509, 7, 0, 917510, 7, 0, 917511, 7, 0, 917512, 7, 0, 917513, 2, 0, 917514, 2, 0, 917515, 2, 0, 917516, 7, 0, 917517, 7, 0, 917518, 7, 0, 917519, 2, 0, 917520, 3, 0, 917521, 3, 0, 917522, 2, 0, 917523, 5, 0, 917524, 2, 0, 917525, 0, 0, 917526, 2, 0, 917527, 7, 0, 917528, 7, 0, 917529, 2, 0, 917530, 2, 0, 917531, 2, 0, 917532, 2, 0, 917533, 2, 0, 917534, 2, 0, 917535, 5, 0, 917536, 7, 0, 917537, 7, 0, 917538, 0, 0, 917539, 5, 0, 917540, 5, 0, 917541, 5, 0, 917542, 6, 0, 917543, 6, 0, 917544, 6, 0, 917545, 6, 0, 917546, 6, 0, 917547, 6, 0, 917548, 6, 0, 917549, 6, 0, 917550, 6, 0, 917551, 6, 0, 917552, 6, 0, 1048568, 6, 0, 1048569, 6, 0, 1048570, 6, 0, 1048571, 6, 0, 1048572, 5, 0, 1048573, 6, 0, 1048574, 3, 0, 1048575, 5, 0, 983040, 5, 0, 983041, 5, 0, 983042, 3, 0, 983043, 5, 0, 983044, 2, 0, 983045, 7, 0, 983046, 7, 0, 983047, 7, 0, 983048, 7, 0, 983049, 7, 0, 983050, 2, 0, 983051, 2, 0, 983052, 7, 0, 983053, 7, 0, 983054, 7, 0, 983055, 0, 0, 983056, 0, 0, 983057, 5, 0, 983058, 5, 0, 983059, 4, 0, 983060, 5, 0, 983061, 2, 0, 983062, 7, 0, 983063, 7, 0, 983064, 7, 0, 983065, 0, 0, 983066, 0, 0, 983067, 2, 0, 983068, 3, 0, 983069, 0, 0, 983070, 5, 0, 983071, 5, 0, 983072, 7, 0, 983073, 7, 0, 983074, 7, 0, 983075, 5, 0, 983076, 3, 0, 983077, 4, 0, 983078, 5, 0, 983079, 6, 0, 983080, 6, 0, 983081, 6, 0, 983082, 6, 0, 983083, 6, 0, 983084, 6, 0, 983085, 6, 0, 983086, 6, 0, 983087, 6, 0, 983088, 6, 0, 1114104, 6, 0, 1114105, 6, 0, 1114106, 6, 0, 1114107, 6, 0, 1114108, 6, 0, 1114109, 6, 0, 1114110, 5, 0, 1114111, 6, 0, 1048576, 5, 0, 1048577, 5, 0, 1048578, 5, 0, 1048579, 0, 0, 1048580, 2, 0, 1048581, 2, 0, 1048582, 2, 0, 1048583, 7, 0, 1048584, 7, 0, 1048585, 7, 0, 1048586, 7, 0, 1048587, 2, 0, 1048588, 2, 0, 1048589, 0, 0, 1048590, 2, 0, 1048591, 2, 0, 1048592, 0, 0, 1048593, 2, 0, 1048594, 2, 0, 1048595, 2, 0, 1048596, 5, 0, 1048597, 5, 0, 1048598, 2, 0, 1048599, 2, 0, 1048600, 2, 0, 1048601, 2, 0, 1048602, 2, 0, 1048603, 2, 0, 1048604, 5, 0, 1048605, 5, 0, 1048606, 2, 0, 1048607, 2, 0, 1048608, 7, 0, 1048609, 7, 0, 1048610, 7, 0, 1048611, 4, 0, 1048612, 5, 0, 1048613, 5, 0, 1048614, 5, 0, 1048615, 5, 0, 1048616, 6, 0, 1048617, 6, 0, 1048618, 6, 0, 1048619, 6, 0, 1048620, 6, 0, 1048621, 6, 0, 1048622, 6, 0, 1048623, 6, 0, 1048624, 6, 0, 1179640, 6, 0, 1179641, 6, 0, 1179642, 6, 0, 1179643, 6, 0, 1179644, 6, 0, 1179645, 6, 0, 1179646, 6, 0, 1179647, 5, 0, 1114112, 5, 0, 1114113, 3, 0, 1114114, 5, 0, 1114115, 5, 0, 1114116, 2, 0, 1114117, 2, 0, 1114118, 2, 0, 1114119, 2, 0, 1114120, 2, 0, 1114121, 2, 0, 1114122, 2, 0, 1114123, 2, 0, 1114124, 2, 0, 1114125, 2, 0, 1114126, 4, 0, 1114127, 5, 0, 1114128, 5, 0, 1114129, 2, 0, 1114130, 7, 0, 1114131, 7, 0, 1114132, 0, 0, 1114133, 5, 0, 1114134, 2, 0, 1114135, 0, 0, 1114136, 7, 0, 1114137, 7, 0, 1114138, 7, 0, 1114139, 0, 0, 1114140, 2, 0, 1114141, 5, 0, 1114142, 4, 0, 1114143, 5, 0, 1114144, 5, 0, 1114145, 0, 0, 1114146, 2, 0, 1114147, 2, 0, 1114148, 2, 0, 1114149, 5, 0, 1114150, 3, 0, 1114151, 5, 0, 1114152, 6, 0, 1114153, 6, 0, 1114154, 6, 0, 1114155, 6, 0, 1114156, 6, 0, 1114157, 6, 0, 1114158, 6, 0, 1114159, 6, 0, 1114160, 6, 0, 1245176, 6, 0, 1245177, 6, 0, 1245178, 6, 0, 1245179, 6, 0, 1245180, 6, 0, 1245181, 6, 0, 1245182, 6, 0, 1245183, 6, 0, 1179648, 6, 0, 1179649, 5, 0, 1179650, 3, 0, 1179651, 0, 0, 1179652, 5, 0, 1179653, 0, 0, 1179654, 2, 0, 1179655, 5, 0, 1179656, 5, 0, 1179657, 5, 0, 1179658, 2, 0, 1179659, 0, 0, 1179660, 2, 0, 1179661, 5, 0, 1179662, 5, 0, 1179663, 5, 0, 1179664, 3, 0, 1179665, 5, 0, 1179666, 7, 0, 1179667, 7, 0, 1179668, 0, 0, 1179669, 0, 0, 1179670, 2, 0, 1179671, 2, 0, 1179672, 2, 0, 1179673, 5, 0, 1179674, 5, 0, 1179675, 2, 0, 1179676, 2, 0, 1179677, 5, 0, 1179678, 5, 0, 1179679, 5, 0, 1179680, 5, 0, 1179681, 5, 0, 1179682, 2, 0, 1179683, 2, 0, 1179684, 3, 0, 1179685, 2, 0, 1179686, 5, 0, 1179687, 5, 0, 1179688, 6, 0, 1179689, 6, 0, 1179690, 6, 0, 1179691, 6, 0, 1179692, 6, 0, 1179693, 6, 0, 1179694, 6, 0, 1179695, 6, 0, 1179696, 6, 0, 1310712, 6, 0, 1310713, 6, 0, 1310714, 6, 0, 1310715, 6, 0, 1310716, 6, 0, 1310717, 6, 0, 1310718, 3, 0, 1310719, 6, 0, 1245184, 5, 0, 1245185, 5, 0, 1245186, 5, 0, 1245187, 3, 0, 1245188, 3, 0, 1245189, 2, 0, 1245190, 5, 0, 1245191, 5, 0, 1245192, 3, 0, 1245193, 0, 0, 1245194, 5, 0, 1245195, 5, 0, 1245196, 5, 0, 1245197, 3, 0, 1245198, 5, 0, 1245199, 5, 0, 1245200, 5, 0, 1245201, 5, 0, 1245202, 5, 0, 1245203, 4, 0, 1245204, 2, 0, 1245205, 2, 0, 1245206, 0, 0, 1245207, 5, 0, 1245208, 5, 0, 1245209, 5, 0, 1245210, 5, 0, 1245211, 3, 0, 1245212, 5, 0, 1245213, 5, 0, 1245214, 4, 0, 1245215, 5, 0, 1245216, 3, 0, 1245217, 5, 0, 1245218, 5, 0, 1245219, 5, 0, 1245220, 0, 0, 1245221, 5, 0, 1245222, 6, 0, 1245223, 6, 0, 1245224, 6, 0, 1245225, 6, 0, 1245226, 6, 0, 1245227, 6, 0, 1245228, 6, 0, 1245229, 6, 0, 1245230, 6, 0, 1245231, 6, 0, 1245232, 6, 0, 1376248, 6, 0, 1376249, 6, 0, 1376250, 6, 0, 1376251, 6, 0, 1376252, 6, 0, 1376253, 6, 0, 1376254, 6, 0, 1376255, 6, 0, 1310720, 6, 0, 1310721, 6, 0, 1310722, 6, 0, 1310723, 5, 0, 1310724, 5, 0, 1310725, 3, 0, 1310726, 5, 0, 1310727, 4, 0, 1310728, 5, 0, 1310729, 5, 0, 1310730, 5, 0, 1310731, 5, 0, 1310732, 5, 0, 1310733, 5, 0, 1310734, 5, 0, 1310735, 4, 0, 1310736, 5, 0, 1310737, 5, 0, 1310738, 5, 0, 1310739, 5, 0, 1310740, 5, 0, 1310741, 5, 0, 1310742, 5, 0, 1310743, 5, 0, 1310744, 5, 0, 1310745, 6, 0, 1310746, 5, 0, 1310747, 5, 0, 1310748, 5, 0, 1310749, 4, 0, 1310750, 5, 0, 1310751, 5, 0, 1310752, 5, 0, 1310753, 5, 0, 1310754, 6, 0, 1310755, 3, 0, 1310756, 5, 0, 1310757, 6, 0, 1310758, 6, 0, 1310759, 3, 0, 1310760, 6, 0, 1310761, 6, 0, 1310762, 6, 0, 1310763, 6, 0, 1310764, 6, 0, 1310765, 6, 0, 1310766, 6, 0, 1310767, 6, 0, 1310768, 6, 0, 1441784, 6, 0, 1441785, 6, 0, 1441786, 6, 0, 1441787, 6, 0, 1441788, 6, 0, 1441789, 6, 0, 1441790, 6, 0, 1441791, 6, 0, 1376256, 3, 0, 1376257, 6, 0, 1376258, 5, 0, 1376259, 6, 0, 1376260, 5, 0, 1376261, 5, 0, 1376262, 5, 0, 1376263, 6, 0, 1376264, 6, 0, 1376265, 5, 0, 1376266, 3, 0, 1376267, 6, 0, 1376268, 5, 0, 1376269, 5, 0, 1376270, 6, 0, 1376271, 6, 0, 1376272, 6, 0, 1376273, 5, 0, 1376274, 5, 0, 1376275, 3, 0, 1376276, 5, 0, 1376277, 6, 0, 1376278, 6, 0, 1376279, 5, 0, 1376280, 3, 0, 1376281, 6, 0, 1376282, 5, 0, 1376283, 5, 0, 1376284, 6, 0, 1376285, 5, 0, 1376286, 6, 0, 1376287, 6, 0, 1376288, 5, 0, 1376289, 5, 0, 1376290, 6, 0, 1376291, 5, 0, 1376292, 5, 0, 1376293, 6, 0, 1376294, 5, 0, 1376295, 5, 0, 1376296, 6, 0, 1376297, 6, 0, 1376298, 6, 0, 1376299, 6, 0, 1376300, 6, 0, 1376301, 6, 0, 1376302, 6, 0, 1376303, 6, 0, 1376304, 6, 0, 1507320, 6, 0, 1507321, 6, 0, 1507322, 6, 0, 1507323, 6, 0, 1507324, 6, 0, 1507325, 6, 0, 1507326, 6, 0, 1507327, 6, 0, 1441792, 6, 0, 1441793, 5, 0, 1441794, 6, 0, 1441795, 5, 0, 1441796, 6, 0, 1441797, 6, 0, 1441798, 6, 0, 1441799, 4, 0, 1441800, 6, 0, 1441801, 6, 0, 1441802, 6, 0, 1441803, 5, 0, 1441804, 6, 0, 1441805, 6, 0, 1441806, 6, 0, 1441807, 5, 0, 1441808, 6, 0, 1441809, 6, 0, 1441810, 6, 0, 1441811, 6, 0, 1441812, 6, 0, 1441813, 5, 0, 1441814, 5, 0, 1441815, 6, 0, 1441816, 6, 0, 1441817, 5, 0, 1441818, 6, 0, 1441819, 6, 0, 1441820, 5, 0, 1441821, 6, 0, 1441822, 6, 0, 1441823, 6, 0, 1441824, 6, 0, 1441825, 6, 0, 1441826, 5, 0, 1441827, 6, 0, 1441828, 6, 0, 1441829, 6, 0, 1441830, 6, 0, 1441831, 6, 0, 1441832, 6, 0, 1441833, 6, 0, 1441834, 6, 0, 1441835, 6, 0, 1441836, 6, 0, 1441837, 6, 0, 1441838, 6, 0, 1441839, 6, 0, 1441840, 6, 0, 1572856, 6, 0, 1572857, 6, 0, 1572858, 6, 0, 1572859, 6, 0, 1572860, 6, 0, 1572861, 6, 0, 1572862, 6, 0, 1572863, 6, 0, 1507328, 6, 0, 1507329, 6, 0, 1507330, 6, 0, 1507331, 5, 0, 1507332, 6, 0, 1507333, 6, 0, 1507334, 6, 0, 1507335, 6, 0, 1507336, 6, 0, 1507337, 5, 0, 1507338, 6, 0, 1507339, 3, 0, 1507340, 5, 0, 1507341, 6, 0, 1507342, 6, 0, 1507343, 6, 0, 1507344, 6, 0, 1507345, 5, 0, 1507346, 6, 0, 1507347, 6, 0, 1507348, 6, 0, 1507349, 6, 0, 1507350, 5, 0, 1507351, 6, 0, 1507352, 6, 0, 1507353, 6, 0, 1507354, 6, 0, 1507355, 3, 0, 1507356, 6, 0, 1507357, 5, 0, 1507358, 6, 0, 1507359, 5, 0, 1507360, 5, 0, 1507361, 6, 0, 1507362, 6, 0, 1507363, 6, 0, 1507364, 6, 0, 1507365, 6, 0, 1507366, 6, 0, 1507367, 6, 0, 1507368, 6, 0, 1507369, 6, 0, 1507370, 6, 0, 1507371, 6, 0, 1507372, 6, 0, 1507373, 6, 0, 1507374, 6, 0, 1507375, 6, 0, 1507376, 6, 0, 1638392, 6, 0, 1638393, 6, 0, 1638394, 6, 0, 1638395, 6, 0, 1638396, 6, 0, 1638397, 6, 0, 1638398, 6, 0, 1638399, 6, 0, 1572864, 6, 0, 1572865, 6, 0, 1572866, 6, 0, 1572867, 6, 0, 1572868, 6, 0, 1572869, 6, 0, 1572870, 6, 0, 1572871, 6, 0, 1572872, 6, 0, 1572873, 6, 0, 1572874, 6, 0, 1572875, 6, 0, 1572876, 6, 0, 1572877, 6, 0, 1572878, 6, 0, 1572879, 6, 0, 1572880, 6, 0, 1572881, 6, 0, 1572882, 6, 0, 1572883, 6, 0, 1572884, 6, 0, 1572885, 6, 0, 1572886, 6, 0, 1572887, 6, 0, 1572888, 6, 0, 1572889, 6, 0, 1572890, 6, 0, 1572891, 6, 0, 1572892, 6, 0, 1572893, 6, 0, 1572894, 6, 0, 1572895, 6, 0, 1572896, 6, 0, 1572897, 6, 0, 1572898, 6, 0, 1572899, 6, 0, 1572900, 6, 0, 1572901, 6, 0, 1572902, 6, 0, 1572903, 6, 0, 1572904, 6, 0, 1572905, 6, 0, 1572906, 6, 0, 1572907, 6, 0, 1572908, 6, 0, 1572909, 6, 0, 1572910, 6, 0, 1572911, 6, 0, 1572912, 6, 0, 1703928, 6, 0, 1703929, 6, 0, 1703930, 6, 0, 1703931, 6, 0, 1703932, 6, 0, 1703933, 6, 0, 1703934, 6, 0, 1703935, 6, 0, 1638400, 6, 0, 1638401, 6, 0, 1638402, 6, 0, 1638403, 6, 0, 1638404, 6, 0, 1638405, 6, 0, 1638406, 6, 0, 1638407, 6, 0, 1638408, 6, 0, 1638409, 6, 0, 1638410, 6, 0, 1638411, 6, 0, 1638412, 6, 0, 1638413, 6, 0, 1638414, 6, 0, 1638415, 6, 0, 1638416, 6, 0, 1638417, 6, 0, 1638418, 6, 0, 1638419, 6, 0, 1638420, 6, 0, 1638421, 6, 0, 1638422, 6, 0, 1638423, 6, 0, 1638424, 6, 0, 1638425, 6, 0, 1638426, 6, 0, 1638427, 6, 0, 1638428, 6, 0, 1638429, 6, 0, 1638430, 6, 0, 1638431, 6, 0, 1638432, 6, 0, 1638433, 6, 0, 1638434, 6, 0, 1638435, 6, 0, 1638436, 6, 0, 1638437, 6, 0, 1638438, 6, 0, 1638439, 6, 0, 1638440, 6, 0, 1638441, 6, 0, 1638442, 6, 0, 1638443, 6, 0, 1638444, 6, 0, 1638445, 6, 0, 1638446, 6, 0, 1638447, 6, 0, 1638448, 6, 0 )

[node name="Player" parent="Navigation2D/TileMap" instance=ExtResource( 10 )]

[node name="StaticNPC" type="Area2D" parent="."]
position = Vector2( 1582.95, 430.57 )
__meta__ = {
"_edit_group_": true
}

[node name="TreasureChest" type="Sprite" parent="StaticNPC"]
position = Vector2( 3.52979, -5.72711 )
scale = Vector2( 0.3, 0.3 )
texture = ExtResource( 11 )

[node name="CollisionShape2D" type="CollisionShape2D" parent="StaticNPC"]
position = Vector2( 3.31543, 2.47266 )
shape = SubResource( 9 )

[node name="Tree" parent="." instance=ExtResource( 12 )]
position = Vector2( 976.174, 315.724 )

[node name="Tree2" parent="." instance=ExtResource( 12 )]
position = Vector2( 620.659, 235.941 )

[node name="Tree6" parent="." instance=ExtResource( 12 )]
position = Vector2( 768.967, 441.557 )

[node name="Tree3" parent="." instance=ExtResource( 12 )]
position = Vector2( 558.453, 341.508 )

[node name="Tree4" parent="." instance=ExtResource( 12 )]
position = Vector2( 530.313, 545.189 )

[node name="Tree5" parent="." instance=ExtResource( 12 )]
position = Vector2( 461.871, 440.599 )

[node name="Tree7" parent="." instance=ExtResource( 12 )]
position = Vector2( 370.746, 889.474 )

[node name="Tree8" parent="." instance=ExtResource( 12 )]
position = Vector2( 1876, 400.099 )

[node name="Tree9" parent="." instance=ExtResource( 12 )]
position = Vector2( 1646.5, 1064.97 )

[node name="Tree10" parent="." instance=ExtResource( 12 )]
position = Vector2( 1508.12, 838.849 )

[node name="Tree11" parent="." instance=ExtResource( 12 )]
position = Vector2( 2068.37, 713.974 )

[node name="Tree12" parent="." instance=ExtResource( 12 )]
position = Vector2( 1312.37, 457.474 )

[node name="Tree13" parent="." instance=ExtResource( 12 )]
position = Vector2( 593.496, 1034.6 )

[node name="Tree14" parent="." instance=ExtResource( 12 )]
position = Vector2( 2149.37, 177.349 )

[node name="Tree15" parent="." instance=ExtResource( 12 )]
position = Vector2( 2152.74, 983.974 )

[node name="Bushes" parent="." instance=ExtResource( 13 )]
position = Vector2( 888.612, 449.98 )

[node name="Bushes2" parent="." instance=ExtResource( 13 )]
position = Vector2( 830.963, 848.859 )

[node name="Bushes3" parent="." instance=ExtResource( 13 )]
position = Vector2( 1351.5, 695.883 )

[node name="Bushes4" parent="." instance=ExtResource( 13 )]
position = Vector2( 884.021, 951.211 )

[node name="Bushes5" parent="." instance=ExtResource( 13 )]
position = Vector2( 653.304, 541.974 )

[node name="Bushes6" parent="." instance=ExtResource( 13 )]
position = Vector2( 734.304, 616.224 )

[node name="Bushes7" parent="." instance=ExtResource( 13 )]
position = Vector2( 363.054, 629.724 )

[node name="Bushes8" parent="." instance=ExtResource( 13 )]
position = Vector2( 1530.8, 950.349 )

[node name="Bushes9" parent="." instance=ExtResource( 13 )]
position = Vector2( 1446.43, 511.599 )

[node name="Bushes10" parent="." instance=ExtResource( 13 )]
position = Vector2( 1223.68, 234.849 )

[node name="Bushes11" parent="." instance=ExtResource( 13 )]
position = Vector2( 1770.43, 595.974 )

[node name="Bushes12" parent="." instance=ExtResource( 13 )]
position = Vector2( 440.679, 997.599 )

[node name="Bushes13" parent="." instance=ExtResource( 13 )]
position = Vector2( 1220.3, 1152.85 )

[node name="Bushes14" parent="." instance=ExtResource( 13 )]
position = Vector2( 2131.55, 842.349 )

[node name="Bushes15" parent="." instance=ExtResource( 13 )]
position = Vector2( 1672.55, 312.474 )

[node name="Exit" parent="." instance=ExtResource( 14 )]
position = Vector2( 31.5, 351 )

[node name="Spawn" type="Position2D" parent="."]
position = Vector2( 172.5, 226.5 )
rotation = 1.5708
scale = Vector2( 4, 1 )

[node name="PickUpItem" parent="." instance=ExtResource( 15 )]
visible = false
position = Vector2( 630, 357 )

[node name="Temp" parent="." instance=ExtResource( 16 )]
visible = false

[node name="Sprite" type="Sprite" parent="."]
position = Vector2( -283.5, 324 )
rotation = 1.5708
scale = Vector2( 0.1, 0.1 )
texture = ExtResource( 17 )

[node name="BackgroundSounds" type="Node2D" parent="."]

[node name="BackgroundSea" type="AudioStreamPlayer2D" parent="BackgroundSounds"]
position = Vector2( 148.5, -131.625 )
stream = ExtResource( 18 )
bus = "Background"

[node name="BackgroundSea2" type="AudioStreamPlayer2D" parent="BackgroundSounds"]
position = Vector2( 2484, -43.875 )
stream = ExtResource( 18 )
bus = "Background"

[node name="BackgroundSea3" type="AudioStreamPlayer2D" parent="BackgroundSounds"]
position = Vector2( 2598.75, 1481.63 )
stream = ExtResource( 18 )
bus = "Background"

[node name="BackgroundSea4" type="AudioStreamPlayer2D" parent="BackgroundSounds"]
position = Vector2( -40.5002, 1461.38 )
stream = ExtResource( 18 )
bus = "Background"

[node name="SeagullSounds" type="Node2D" parent="."]

[node name="Seagull" type="AudioStreamPlayer2D" parent="SeagullSounds"]
position = Vector2( 1866.38, 398.25 )
stream = ExtResource( 19 )
volume_db = -5.0
max_distance = 1000.0

[node name="Seagull2" type="AudioStreamPlayer2D" parent="SeagullSounds"]
position = Vector2( 1498.5, 840.376 )
stream = ExtResource( 19 )
volume_db = -5.0
max_distance = 1000.0

[node name="Seagull3" type="AudioStreamPlayer2D" parent="SeagullSounds"]
position = Vector2( 543.375, 354.375 )
stream = ExtResource( 19 )
volume_db = -5.0
max_distance = 1000.0

[node name="DayNightTint" parent="." instance=ExtResource( 20 )]
[connection signal="body_entered" from="StaticNPC" to="." method="_on_StaticNPC_body_entered"]
