[gd_scene load_steps=48 format=2]

[ext_resource path="res://IslandsTopDownView/IslandVisualCode.gd" type="Script" id=1]
[ext_resource path="res://tiles/IslandEncounterTiles/GrassTile.png" type="Texture" id=2]
[ext_resource path="res://tiles/IslandEncounterTiles/GrassTiletwo.png" type="Texture" id=3]
[ext_resource path="res://tiles/IslandEncounterTiles/PlainGrassTile.v3.png" type="Texture" id=4]
[ext_resource path="res://tiles/IslandEncounterTiles/NoneShallPass.png" type="Texture" id=5]
[ext_resource path="res://tiles/IslandEncounterTiles/NonShallPassSand.png" type="Texture" id=6]
[ext_resource path="res://tiles/IslandEncounterTiles/WoodenTile128px.png" type="Texture" id=7]
[ext_resource path="res://tiles/IslandEncounterTiles/WoodenDockGold128px.png" type="Texture" id=8]
[ext_resource path="res://tiles/IslandEncounterTiles/SandTile.png" type="Texture" id=9]
[ext_resource path="res://tiles/IslandEncounterTiles/SeaTile.png" type="Texture" id=10]
[ext_resource path="res://tiles/IslandEncounterTiles/SandTileThree.png" type="Texture" id=11]
[ext_resource path="res://tiles/IslandEncounterTiles/SanDTileTwo.png" type="Texture" id=12]
[ext_resource path="res://CharacterTopDownView/Character.tscn" type="PackedScene" id=13]
[ext_resource path="res://icon.png" type="Texture" id=14]
[ext_resource path="res://CharactersImages/TopDownPlayerStanding.png" type="Texture" id=15]
[ext_resource path="res://IslandsTopDownView/Assets/Tree.tscn" type="PackedScene" id=16]
[ext_resource path="res://IslandsTopDownView/Assets/Bushes.tscn" type="PackedScene" id=17]
[ext_resource path="res://IslandsTopDownView/Assets/BuildingOne.tscn" type="PackedScene" id=18]
[ext_resource path="res://IslandsTopDownView/Assets/BuildingTwo.tscn" type="PackedScene" id=19]
[ext_resource path="res://IslandsTopDownView/Assets/BuildingFive.tscn" type="PackedScene" id=20]
[ext_resource path="res://IslandsTopDownView/Assets/BuildingThree.tscn" type="PackedScene" id=21]
[ext_resource path="res://IslandsTopDownView/Assets/Exit.tscn" type="PackedScene" id=22]
[ext_resource path="res://IslandsTopDownView/Assets/Item.tscn" type="PackedScene" id=23]
[ext_resource path="res://Temp.tscn" type="PackedScene" id=24]
[ext_resource path="res://mapAudio/Rough_Sea_Waves.wav" type="AudioStream" id=25]
[ext_resource path="res://mapAudio/Seagull.wav" type="AudioStream" id=26]
[ext_resource path="res://images/8 bit pirate SHIP.png" type="Texture" id=27]
[ext_resource path="res://IslandsTopDownView/Assets/Rock.tscn" type="PackedScene" id=28]
[ext_resource path="res://IslandsTopDownView/Assets/BuildingEight.tscn" type="PackedScene" id=29]
[ext_resource path="res://IslandsTopDownView/Assets/PalmTree.tscn" type="PackedScene" id=30]
[ext_resource path="res://map_graphics/DayNightTint.tscn" type="PackedScene" id=31]

[sub_resource type="NavigationPolygon" id=1]
vertices = PoolVector2Array( 0, 0, 64, 0, 64, 64, 0, 64 )
polygons = [ PoolIntArray( 0, 1, 2, 3 ) ]

[sub_resource type="NavigationPolygon" id=2]
vertices = PoolVector2Array( 0, 0, 64, 0, 64, 64, 0, 64 )
polygons = [ PoolIntArray( 0, 1, 2, 3 ) ]

[sub_resource type="NavigationPolygon" id=3]
vertices = PoolVector2Array( 0, 0, 64, 0, 64, 64, 0, 64 )
polygons = [ PoolIntArray( 0, 1, 2, 3 ) ]

[sub_resource type="NavigationPolygon" id=4]
vertices = PoolVector2Array( 0, 0, 64, 0, 64, 64, 0, 64 )
polygons = [ PoolIntArray( 0, 1, 2, 3 ) ]

[sub_resource type="NavigationPolygon" id=15]
vertices = PoolVector2Array( 0, 0, 64, 0, 64, 64, 0, 64 )
polygons = [ PoolIntArray( 0, 1, 2, 3 ) ]

[sub_resource type="NavigationPolygon" id=16]
vertices = PoolVector2Array( 0, 0, 64, 0, 64, 64, 0, 64 )
polygons = [ PoolIntArray( 0, 1, 2, 3 ) ]

[sub_resource type="NavigationPolygon" id=5]
vertices = PoolVector2Array( 0, 0, 64, 0, 64, 64, 0, 64 )
polygons = [ PoolIntArray( 0, 1, 2, 3 ) ]

[sub_resource type="NavigationPolygon" id=6]
vertices = PoolVector2Array( 0, 0, 64, 0, 64, 64, 0, 64 )
polygons = [ PoolIntArray( 0, 1, 2, 3 ) ]

[sub_resource type="ConvexPolygonShape2D" id=7]
points = PoolVector2Array( 0, 0, 64, 0, 64, 64, 0, 64 )

[sub_resource type="NavigationPolygon" id=8]
vertices = PoolVector2Array( 0, 0, 64, 0, 64, 64, 0, 64 )
polygons = [ PoolIntArray( 0, 1, 2, 3 ) ]

[sub_resource type="NavigationPolygon" id=9]
vertices = PoolVector2Array( 0, 0, 64, 0, 64, 64, 0, 64 )
polygons = [ PoolIntArray( 0, 1, 2, 3 ) ]

[sub_resource type="ConvexPolygonShape2D" id=10]
points = PoolVector2Array( 0, 0, 64, 0, 64, 64, 0, 64 )

[sub_resource type="NavigationPolygon" id=11]
vertices = PoolVector2Array( 0, 0, 64, 0, 64, 64, 0, 64 )
polygons = [ PoolIntArray( 0, 1, 2, 3 ) ]

[sub_resource type="NavigationPolygon" id=12]
vertices = PoolVector2Array( 0, 0, 64, 0, 64, 64, 0, 64 )
polygons = [ PoolIntArray( 0, 1, 2, 3 ) ]

[sub_resource type="TileSet" id=13]
0/name = "GrassTile.png 0"
0/texture = ExtResource( 2 )
0/tex_offset = Vector2( 0, 0 )
0/modulate = Color( 1, 1, 1, 1 )
0/region = Rect2( 0, 0, 64, 64 )
0/tile_mode = 0
0/occluder_offset = Vector2( 0, 0 )
0/navigation_offset = Vector2( 0, 0 )
0/navigation = SubResource( 1 )
0/shapes = [  ]
0/z_index = 0
1/name = "GrassTiletwo.png 1"
1/texture = ExtResource( 3 )
1/tex_offset = Vector2( 0, 0 )
1/modulate = Color( 1, 1, 1, 1 )
1/region = Rect2( 0, 0, 64, 64 )
1/tile_mode = 0
1/occluder_offset = Vector2( 0, 0 )
1/navigation_offset = Vector2( 0, 0 )
1/navigation = SubResource( 2 )
1/shapes = [  ]
1/z_index = 0
2/name = "PlainGrassTile.v3.png 2"
2/texture = ExtResource( 4 )
2/tex_offset = Vector2( 0, 0 )
2/modulate = Color( 1, 1, 1, 1 )
2/region = Rect2( 0, 0, 64, 64 )
2/tile_mode = 0
2/occluder_offset = Vector2( 0, 0 )
2/navigation_offset = Vector2( 0, 0 )
2/navigation = SubResource( 5 )
2/shapes = [  ]
2/z_index = 0
3/name = "SandTile.png 3"
3/texture = ExtResource( 9 )
3/tex_offset = Vector2( 0, 0 )
3/modulate = Color( 1, 1, 1, 1 )
3/region = Rect2( 0, 0, 64, 64 )
3/tile_mode = 0
3/occluder_offset = Vector2( 0, 0 )
3/navigation_offset = Vector2( 0, 0 )
3/navigation = SubResource( 6 )
3/shapes = [  ]
3/z_index = 0
4/name = "SeaTile.png 4"
4/texture = ExtResource( 10 )
4/tex_offset = Vector2( 0, 0 )
4/modulate = Color( 1, 1, 1, 1 )
4/region = Rect2( 0, 0, 64, 64 )
4/tile_mode = 0
4/occluder_offset = Vector2( 0, 0 )
4/navigation_offset = Vector2( 0, 0 )
4/shapes = [ {
"autotile_coord": Vector2( 0, 0 ),
"one_way": false,
"one_way_margin": 1.0,
"shape": SubResource( 7 ),
"shape_transform": Transform2D( 1, 0, 0, 1, 0, 0 )
} ]
4/z_index = 0
5/name = "SandTileThree.png 5"
5/texture = ExtResource( 11 )
5/tex_offset = Vector2( 0, 0 )
5/modulate = Color( 1, 1, 1, 1 )
5/region = Rect2( 0, 0, 64, 64 )
5/tile_mode = 0
5/occluder_offset = Vector2( 0, 0 )
5/navigation_offset = Vector2( 0, 0 )
5/navigation = SubResource( 8 )
5/shapes = [  ]
5/z_index = 0
6/name = "SanDTileTwo.png 6"
6/texture = ExtResource( 12 )
6/tex_offset = Vector2( 0, 0 )
6/modulate = Color( 1, 1, 1, 1 )
6/region = Rect2( 0, 0, 64, 64 )
6/tile_mode = 0
6/occluder_offset = Vector2( 0, 0 )
6/navigation_offset = Vector2( 0, 0 )
6/navigation = SubResource( 9 )
6/shapes = [  ]
6/z_index = 0
7/name = "GrassTile.png 7"
7/texture = ExtResource( 2 )
7/tex_offset = Vector2( 0, 0 )
7/modulate = Color( 1, 1, 1, 1 )
7/region = Rect2( 0, 0, 64, 64 )
7/tile_mode = 0
7/occluder_offset = Vector2( 0, 0 )
7/navigation_offset = Vector2( 0, 0 )
7/shapes = [ {
"autotile_coord": Vector2( 0, 0 ),
"one_way": false,
"one_way_margin": 1.0,
"shape": SubResource( 10 ),
"shape_transform": Transform2D( 1, 0, 0, 1, 0, 0 )
} ]
7/z_index = 0
8/name = "SandTileThree.png 8"
8/texture = ExtResource( 11 )
8/tex_offset = Vector2( 0, 0 )
8/modulate = Color( 1, 1, 1, 1 )
8/region = Rect2( 0, 0, 64, 64 )
8/tile_mode = 0
8/occluder_offset = Vector2( 0, 0 )
8/navigation_offset = Vector2( 0, 0 )
8/navigation = SubResource( 11 )
8/shapes = [  ]
8/z_index = 0
9/name = "SanDTileTwo.png 9"
9/texture = ExtResource( 12 )
9/tex_offset = Vector2( 0, 0 )
9/modulate = Color( 1, 1, 1, 1 )
9/region = Rect2( 0, 0, 64, 64 )
9/tile_mode = 0
9/occluder_offset = Vector2( 0, 0 )
9/navigation_offset = Vector2( 0, 0 )
9/navigation = SubResource( 12 )
9/shapes = [  ]
9/z_index = 0
10/name = "GrassTiletwo.png 10"
10/texture = ExtResource( 3 )
10/tex_offset = Vector2( 0, 0 )
10/modulate = Color( 1, 1, 1, 1 )
10/region = Rect2( 0, 0, 64, 64 )
10/tile_mode = 0
10/occluder_offset = Vector2( 0, 0 )
10/navigation_offset = Vector2( 0, 0 )
10/navigation = SubResource( 3 )
10/shapes = [  ]
10/z_index = 0
11/name = "PlainGrassTile.v3.png 11"
11/texture = ExtResource( 4 )
11/tex_offset = Vector2( 0, 0 )
11/modulate = Color( 1, 1, 1, 1 )
11/region = Rect2( 0, 0, 64, 64 )
11/tile_mode = 0
11/occluder_offset = Vector2( 0, 0 )
11/navigation_offset = Vector2( 0, 0 )
11/navigation = SubResource( 4 )
11/shapes = [  ]
11/z_index = 0
12/name = "NoneShallPass.png 12"
12/texture = ExtResource( 5 )
12/tex_offset = Vector2( 0, 0 )
12/modulate = Color( 1, 1, 1, 1 )
12/region = Rect2( 0, 0, 64, 64 )
12/tile_mode = 0
12/occluder_offset = Vector2( 0, 0 )
12/navigation_offset = Vector2( 0, 0 )
12/shapes = [  ]
12/z_index = 0
13/name = "NonShallPassSand.png 13"
13/texture = ExtResource( 6 )
13/tex_offset = Vector2( 0, 0 )
13/modulate = Color( 1, 1, 1, 1 )
13/region = Rect2( 0, 0, 64, 64 )
13/tile_mode = 0
13/occluder_offset = Vector2( 0, 0 )
13/navigation_offset = Vector2( 0, 0 )
13/shapes = [  ]
13/z_index = 0
14/name = "WoodenTile128px.png 14"
14/texture = ExtResource( 7 )
14/tex_offset = Vector2( 0, 0 )
14/modulate = Color( 1, 1, 1, 1 )
14/region = Rect2( 0, 0, 64, 64 )
14/tile_mode = 0
14/occluder_offset = Vector2( 0, 0 )
14/navigation_offset = Vector2( 0, 0 )
14/navigation = SubResource( 15 )
14/shapes = [  ]
14/z_index = 0
15/name = "WoodenDockGold128px.png 15"
15/texture = ExtResource( 8 )
15/tex_offset = Vector2( 0, 0 )
15/modulate = Color( 1, 1, 1, 1 )
15/region = Rect2( 0, 0, 64, 64 )
15/tile_mode = 0
15/occluder_offset = Vector2( 0, 0 )
15/navigation_offset = Vector2( 0, 0 )
15/navigation = SubResource( 16 )
15/shapes = [  ]
15/z_index = 0

[sub_resource type="CircleShape2D" id=14]
radius = 56.8936

[node name="Node2D" type="Node2D"]
script = ExtResource( 1 )

[node name="Navigation2D" type="Navigation2D" parent="."]

[node name="TileMap" type="TileMap" parent="Navigation2D"]
tile_set = SubResource( 13 )
format = 1
tile_data = PoolIntArray( -196617, 4, 0, -196616, 4, 0, -196615, 4, 0, -196614, 4, 0, -196613, 4, 0, -196612, 4, 0, -196611, 4, 0, -196610, 4, 0, -196609, 4, 0, -262144, 4, 0, -262143, 4, 0, -262142, 4, 0, -262141, 4, 0, -262140, 4, 0, -262139, 4, 0, -262138, 4, 0, -262137, 4, 0, -262136, 4, 0, -262135, 4, 0, -262134, 4, 0, -262133, 4, 0, -262132, 4, 0, -262131, 4, 0, -262130, 4, 0, -262129, 4, 0, -262128, 4, 0, -262127, 4, 0, -262126, 4, 0, -262125, 4, 0, -262124, 4, 0, -262123, 4, 0, -262122, 4, 0, -262121, 4, 0, -262120, 4, 0, -262119, 4, 0, -262118, 4, 0, -262117, 4, 0, -262116, 4, 0, -262115, 4, 0, -262114, 4, 0, -262113, 4, 0, -262112, 4, 0, -262111, 4, 0, -262110, 4, 0, -262109, 4, 0, -262108, 4, 0, -262107, 4, 0, -262106, 4, 0, -262105, 4, 0, -262104, 4, 0, -262103, 4, 0, -262102, 4, 0, -262101, 4, 0, -262100, 4, 0, -262099, 4, 0, -131081, 4, 0, -131080, 4, 0, -131079, 4, 0, -131078, 4, 0, -131077, 4, 0, -131076, 4, 0, -131075, 4, 0, -131074, 4, 0, -131073, 4, 0, -196608, 3, 0, -196607, 5, 0, -196606, 4, 0, -196605, 4, 0, -196604, 5, 0, -196603, 4, 0, -196602, 4, 0, -196601, 4, 0, -196600, 4, 0, -196599, 4, 0, -196598, 4, 0, -196597, 4, 0, -196596, 4, 0, -196595, 4, 0, -196594, 4, 0, -196593, 4, 0, -196592, 4, 0, -196591, 4, 0, -196590, 4, 0, -196589, 4, 0, -196588, 4, 0, -196587, 4, 0, -196586, 4, 0, -196585, 4, 0, -196584, 4, 0, -196583, 4, 0, -196582, 4, 0, -196581, 4, 0, -196580, 3, 0, -196579, 4, 0, -196578, 4, 0, -196577, 4, 0, -196576, 4, 0, -196575, 4, 0, -196574, 4, 0, -196573, 4, 0, -196572, 4, 0, -196571, 4, 0, -196570, 4, 0, -196569, 4, 0, -196568, 4, 0, -196567, 4, 0, -196566, 4, 0, -196565, 4, 0, -196564, 4, 0, -196563, 4, 0, -65545, 4, 0, -65544, 4, 0, -65543, 4, 0, -65542, 4, 0, -65541, 4, 0, -65540, 4, 0, -65539, 4, 0, -65538, 6, 0, -65537, 4, 0, -131072, 3, 0, -131071, 3, 0, -131070, 3, 0, -131069, 4, 0, -131068, 3, 0, -131067, 3, 0, -131066, 4, 0, -131065, 4, 0, -131064, 3, 0, -131063, 4, 0, -131062, 4, 0, -131061, 3, 0, -131060, 5, 0, -131059, 4, 0, -131058, 3, 0, -131057, 3, 0, -131056, 4, 0, -131055, 4, 0, -131054, 3, 0, -131053, 4, 0, -131052, 4, 0, -131051, 3, 0, -131050, 3, 0, -131049, 5, 0, -131048, 4, 0, -131047, 3, 0, -131046, 4, 0, -131045, 4, 0, -131044, 5, 0, -131043, 3, 0, -131042, 4, 0, -131041, 3, 0, -131040, 4, 0, -131039, 5, 0, -131038, 4, 0, -131037, 3, 0, -131036, 4, 0, -131035, 4, 0, -131034, 4, 0, -131033, 4, 0, -131032, 4, 0, -131031, 4, 0, -131030, 4, 0, -131029, 4, 0, -131028, 4, 0, -131027, 4, 0, -9, 4, 0, -8, 4, 0, -7, 4, 0, -6, 4, 0, -5, 4, 0, -4, 4, 0, -3, 4, 0, -2, 4, 0, -1, 4, 0, -65536, 4, 0, -65535, 4, 0, -65534, 4, 0, -65533, 4, 0, -65532, 4, 0, -65531, 4, 0, -65530, 4, 0, -65529, 4, 0, -65528, 4, 0, -65527, 4, 0, -65526, 4, 0, -65525, 4, 0, -65524, 3, 0, -65523, 4, 0, -65522, 4, 0, -65521, 4, 0, -65520, 4, 0, -65519, 5, 0, -65518, 3, 0, -65517, 4, 0, -65516, 4, 0, -65515, 4, 0, -65514, 4, 0, -65513, 4, 0, -65512, 4, 0, -65511, 4, 0, -65510, 4, 0, -65509, 4, 0, -65508, 3, 0, -65507, 4, 0, -65506, 4, 0, -65505, 4, 0, -65504, 4, 0, -65503, 4, 0, -65502, 4, 0, -65501, 4, 0, -65500, 4, 0, -65499, 4, 0, -65498, 4, 0, -65497, 4, 0, -65496, 4, 0, -65495, 4, 0, -65494, 4, 0, -65493, 4, 0, -65492, 4, 0, -65491, 4, 0, 65527, 4, 0, 65528, 4, 0, 65529, 4, 0, 65530, 4, 0, 65531, 4, 0, 65532, 4, 0, 65533, 4, 0, 65534, 5, 0, 65535, 4, 0, 0, 4, 0, 1, 6, 0, 2, 4, 0, 3, 4, 0, 4, 3, 0, 5, 3, 0, 6, 13, 0, 7, 4, 0, 8, 5, 0, 9, 4, 0, 10, 6, 0, 11, 13, 0, 12, 4, 0, 13, 3, 0, 14, 13, 0, 15, 3, 0, 16, 4, 0, 17, 4, 0, 18, 4, 0, 19, 4, 0, 20, 3, 0, 21, 13, 0, 22, 5, 0, 23, 4, 0, 24, 3, 0, 25, 6, 0, 26, 3, 0, 27, 13, 0, 28, 4, 0, 29, 4, 0, 30, 3, 0, 31, 13, 0, 32, 3, 0, 33, 4, 0, 34, 3, 0, 35, 13, 0, 36, 4, 0, 37, 3, 0, 38, 5, 0, 39, 3, 0, 40, 4, 0, 41, 4, 0, 42, 4, 0, 43, 4, 0, 44, 4, 0, 45, 4, 0, 131063, 4, 0, 131064, 4, 0, 131065, 4, 0, 131066, 4, 0, 131067, 4, 0, 131068, 4, 0, 131069, 4, 0, 131070, 4, 0, 131071, 4, 0, 65536, 3, 0, 65537, 3, 0, 65538, 6, 0, 65539, 3, 0, 65540, 5, 0, 65541, 3, 0, 65542, 3, 0, 65543, 3, 0, 65544, 5, 0, 65545, 4, 0, 65546, 4, 0, 65547, 3, 0, 65548, 4, 0, 65549, 13, 0, 65550, 13, 0, 65551, 13, 0, 65552, 4, 0, 65553, 13, 0, 65554, 3, 0, 65555, 3, 0, 65556, 13, 0, 65557, 13, 0, 65558, 13, 0, 65559, 4, 0, 65560, 4, 0, 65561, 4, 0, 65562, 5, 0, 65563, 3, 0, 65564, 4, 0, 65565, 5, 0, 65566, 13, 0, 65567, 13, 0, 65568, 13, 0, 65569, 4, 0, 65570, 3, 0, 65571, 3, 0, 65572, 4, 0, 65573, 4, 0, 65574, 3, 0, 65575, 3, 0, 65576, 4, 0, 65577, 3, 0, 65578, 4, 0, 65579, 4, 0, 65580, 4, 0, 65581, 4, 0, 196599, 4, 0, 196600, 4, 0, 196601, 4, 0, 196602, 4, 0, 196603, 4, 0, 196604, 4, 0, 196605, 4, 0, 196606, 15, 0, 196607, 15, 0, 131072, 15, 0, 131073, 3, 0, 131074, 3, 0, 131075, 1, 0, 131076, 3, 0, 131077, 3, 0, 131078, 1610612738, 0, 131079, 1, 0, 131080, 3, 0, 131081, 3, 0, 131082, 4, 0, 131083, 4, 0, 131084, 4, 0, 131085, 3, 0, 131086, 1610612737, 0, 131087, 3, 0, 131088, 3, 0, 131089, 5, 0, 131090, 3, 0, 131091, 3, 0, 131092, 3, 0, 131093, 1, 0, 131094, 3, 0, 131095, 4, 0, 131096, 4, 0, 131097, 4, 0, 131098, 4, 0, 131099, 3, 0, 131100, 3, 0, 131101, 3, 0, 131102, 3, 0, 131103, 3, 0, 131104, 4, 0, 131105, 4, 0, 131106, 3, 0, 131107, 5, 0, 131108, 3, 0, 131109, 13, 0, 131110, 4, 0, 131111, 4, 0, 131112, 4, 0, 131113, 3, 0, 131114, 4, 0, 131115, 4, 0, 131116, 4, 0, 131117, 4, 0, 262135, 4, 0, 262136, 4, 0, 262137, 4, 0, 262138, 4, 0, 262139, 4, 0, 262140, 4, 0, 262141, 4, 0, 262142, 1073741838, 0, 262143, 1073741838, 0, 196608, 1073741838, 0, 196609, 6, 0, 196610, 3, 0, 196611, 3, 0, 196612, 3, 0, 196613, 1610612738, 0, 196614, 3, 0, 196615, 1610612738, 0, 196616, 1, 0, 196617, 6, 0, 196618, 4, 0, 196619, 1610612738, 0, 196620, 4, 0, 196621, 3, 0, 196622, 1610612738, 0, 196623, 3, 0, 196624, 3, 0, 196625, 5, 0, 196626, 3, 0, 196627, 1610612738, 0, 196628, 3, 0, 196629, 3, 0, 196630, 5, 0, 196631, 3, 0, 196632, 3, 0, 196633, 3, 0, 196634, 4, 0, 196635, 3, 0, 196636, 2, 0, 196637, 6, 0, 196638, 3, 0, 196639, 4, 0, 196640, 4, 0, 196641, 11, 0, 196642, 3, 0, 196643, 1, 0, 196644, 3, 0, 196645, 6, 0, 196646, 3, 0, 196647, 4, 0, 196648, 5, 0, 196649, 4, 0, 196650, 4, 0, 196651, 4, 0, 196652, 4, 0, 196653, 4, 0, 327671, 4, 0, 327672, 4, 0, 327673, 4, 0, 327674, 4, 0, 327675, 4, 0, 327676, 4, 0, 327677, 4, 0, 327678, 1073741838, 0, 327679, 1073741838, 0, 262144, 1073741838, 0, 262145, 3, 0, 262146, 5, 0, 262147, 1610612738, 0, 262148, 1610612737, 0, 262149, 1610612738, 0, 262150, 5, 0, 262151, 3, 0, 262152, 11, 0, 262153, 4, 0, 262154, 3, 0, 262155, 1610612738, 0, 262156, 4, 0, 262157, 1610612738, 0, 262158, 1610612738, 0, 262159, 1610612738, 0, 262160, 5, 0, 262161, 1610612737, 0, 262162, 1610612738, 0, 262163, 1610612738, 0, 262164, 12, 0, 262165, 2, 0, 262166, 2, 0, 262167, 11, 0, 262168, 11, 0, 262169, 5, 0, 262170, 4, 0, 262171, 4, 0, 262172, 3, 0, 262173, 2, 0, 262174, 3, 0, 262175, 4, 0, 262176, 11, 0, 262177, 11, 0, 262178, 1, 0, 262179, 6, 0, 262180, 5, 0, 262181, 3, 0, 262182, 4, 0, 262183, 4, 0, 262184, 4, 0, 262185, 4, 0, 262186, 4, 0, 262187, 4, 0, 262188, 4, 0, 262189, 4, 0, 393207, 4, 0, 393208, 4, 0, 393209, 4, 0, 393210, 4, 0, 393211, 4, 0, 393212, 4, 0, 393213, 4, 0, 393214, 1073741839, 0, 393215, 1073741839, 0, 327680, 1073741838, 0, 327681, 3, 0, 327682, 3, 0, 327683, 1610612738, 0, 327684, 3, 0, 327685, 1610612738, 0, 327686, 3, 0, 327687, 11, 0, 327688, 4, 0, 327689, 4, 0, 327690, 1610612738, 0, 327691, 1610612738, 0, 327692, 4, 0, 327693, 4, 0, 327694, 11, 0, 327695, 11, 0, 327696, 1610612738, 0, 327697, 1, 0, 327698, 11, 0, 327699, 4, 0, 327700, 11, 0, 327701, 2, 0, 327702, 1, 0, 327703, 12, 0, 327704, 11, 0, 327705, 3, 0, 327706, 3, 0, 327707, 2, 0, 327708, 5, 0, 327709, 2, 0, 327710, 3, 0, 327711, 4, 0, 327712, 1, 0, 327713, 3, 0, 327714, 2, 0, 327715, 3, 0, 327716, 3, 0, 327717, 3, 0, 327718, 3, 0, 327719, 4, 0, 327720, 4, 0, 327721, 4, 0, 327722, 4, 0, 327723, 4, 0, 327724, 4, 0, 327725, 4, 0, 458743, 4, 0, 458744, 4, 0, 458745, 4, 0, 458746, 4, 0, 458747, 4, 0, 458748, 4, 0, 458749, 4, 0, 458750, 4, 0, 458751, 1073741839, 0, 393216, 1073741839, 0, 393217, 3, 0, 393218, 1, 0, 393219, 3, 0, 393220, 5, 0, 393221, 1610612737, 0, 393222, 1610612738, 0, 393223, 11, 0, 393224, 4, 0, 393225, 11, 0, 393226, 12, 0, 393227, 12, 0, 393228, 1, 0, 393229, 4, 0, 393230, 11, 0, 393231, 11, 0, 393232, 1, 0, 393233, 1, 0, 393234, 11, 0, 393235, 4, 0, 393236, 11, 0, 393237, 2, 0, 393238, 11, 0, 393239, 12, 0, 393240, 11, 0, 393241, 1, 0, 393242, 2, 0, 393243, 2, 0, 393244, 2, 0, 393245, 2, 0, 393246, 2, 0, 393247, 1, 0, 393248, 2, 0, 393249, 5, 0, 393250, 3, 0, 393251, 4, 0, 393252, 4, 0, 393253, 4, 0, 393254, 4, 0, 393255, 4, 0, 393256, 4, 0, 393257, 3, 0, 393258, 4, 0, 393259, 4, 0, 393260, 4, 0, 393261, 4, 0, 524279, 4, 0, 524280, 4, 0, 524281, 4, 0, 524282, 4, 0, 524283, 4, 0, 524284, 4, 0, 524285, 4, 0, 524286, 4, 0, 524287, 4, 0, 458752, 3, 0, 458753, 3, 0, 458754, 5, 0, 458755, 1, 0, 458756, 3, 0, 458757, 3, 0, 458758, 1610612738, 0, 458759, 1610612738, 0, 458760, 4, 0, 458761, 1610612738, 0, 458762, 12, 0, 458763, 12, 0, 458764, 1, 0, 458765, 11, 0, 458766, 11, 0, 458767, 11, 0, 458768, 1, 0, 458769, 1610612738, 0, 458770, 11, 0, 458771, 4, 0, 458772, 11, 0, 458773, 2, 0, 458774, 11, 0, 458775, 12, 0, 458776, 11, 0, 458777, 4, 0, 458778, 2, 0, 458779, 1, 0, 458780, 1, 0, 458781, 2, 0, 458782, 2, 0, 458783, 1, 0, 458784, 11, 0, 458785, 11, 0, 458786, 3, 0, 458787, 4, 0, 458788, 4, 0, 458789, 4, 0, 458790, 4, 0, 458791, 4, 0, 458792, 4, 0, 458793, 3, 0, 458794, 4, 0, 458795, 4, 0, 458796, 4, 0, 458797, 4, 0, 458798, 4, 0, 589815, 4, 0, 589816, 4, 0, 589817, 4, 0, 589818, 4, 0, 589819, 4, 0, 589820, 4, 0, 589821, 13, 0, 589822, 4, 0, 589823, 4, 0, 524288, 3, 0, 524289, 3, 0, 524290, 3, 0, 524291, 1610612738, 0, 524292, 3, 0, 524293, 11, 0, 524294, 11, 0, 524295, 11, 0, 524296, 4, 0, 524297, 1610612737, 0, 524298, 1610612738, 0, 524299, 1, 0, 524300, 1610612738, 0, 524301, 11, 0, 524302, 11, 0, 524303, 11, 0, 524304, 12, 0, 524305, 1610612737, 0, 524306, 1610612738, 0, 524307, 4, 0, 524308, 4, 0, 524309, 4, 0, 524310, 4, 0, 524311, 4, 0, 524312, 4, 0, 524313, 4, 0, 524314, 2, 0, 524315, 2, 0, 524316, 1, 0, 524317, 1, 0, 524318, 2, 0, 524319, 11, 0, 524320, 11, 0, 524321, 4, 0, 524322, 4, 0, 524323, 4, 0, 524324, 3, 0, 524325, 4, 0, 524326, 4, 0, 524327, 4, 0, 524328, 4, 0, 524329, 4, 0, 524330, 4, 0, 524331, 4, 0, 524332, 4, 0, 524333, 4, 0, 524334, 4, 0, 655351, 4, 0, 655352, 4, 0, 655353, 4, 0, 655354, 4, 0, 655355, 4, 0, 655356, 4, 0, 655357, 4, 0, 655358, 4, 0, 655359, 5, 0, 589824, 3, 0, 589825, 13, 0, 589826, 3, 0, 589827, 3, 0, 589828, 1, 0, 589829, 11, 0, 589830, 11, 0, 589831, 11, 0, 589832, 11, 0, 589833, 1610612738, 0, 589834, 1610612738, 0, 589835, 1610612738, 0, 589836, 1610612738, 0, 589837, 11, 0, 589838, 11, 0, 589839, 11, 0, 589840, 11, 0, 589841, 11, 0, 589842, 1, 0, 589843, 1, 0, 589844, 1, 0, 589845, 12, 0, 589846, 11, 0, 589847, 11, 0, 589848, 11, 0, 589849, 2, 0, 589850, 2, 0, 589851, 12, 0, 589852, 12, 0, 589853, 1, 0, 589854, 1, 0, 589855, 2, 0, 589856, 4, 0, 589857, 4, 0, 589858, 1, 0, 589859, 5, 0, 589860, 4, 0, 589861, 4, 0, 589862, 4, 0, 589863, 5, 0, 589864, 3, 0, 589865, 4, 0, 589866, 4, 0, 589867, 4, 0, 589868, 4, 0, 589869, 4, 0, 720887, 4, 0, 720888, 4, 0, 720889, 4, 0, 720890, 4, 0, 720891, 4, 0, 720892, 4, 0, 720893, 4, 0, 720894, 3, 0, 720895, 3, 0, 655360, 4, 0, 655361, 4, 0, 655362, 4, 0, 655363, 4, 0, 655364, 3, 0, 655365, 11, 0, 655366, 11, 0, 655367, 1, 0, 655368, 1610612738, 0, 655369, 11, 0, 655370, 11, 0, 655371, 11, 0, 655372, 11, 0, 655373, 11, 0, 655374, 11, 0, 655375, 11, 0, 655376, 11, 0, 655377, 11, 0, 655378, 1, 0, 655379, 1, 0, 655380, 2, 0, 655381, 2, 0, 655382, 12, 0, 655383, 1, 0, 655384, 2, 0, 655385, 1, 0, 655386, 2, 0, 655387, 12, 0, 655388, 12, 0, 655389, 2, 0, 655390, 12, 0, 655391, 4, 0, 655392, 11, 0, 655393, 5, 0, 655394, 3, 0, 655395, 1, 0, 655396, 4, 0, 655397, 3, 0, 655398, 3, 0, 655399, 4, 0, 655400, 4, 0, 655401, 3, 0, 655402, 3, 0, 655403, 4, 0, 655404, 4, 0, 655405, 4, 0, 786423, 4, 0, 786424, 4, 0, 786425, 4, 0, 786426, 4, 0, 786427, 4, 0, 786428, 4, 0, 786429, 4, 0, 786430, 4, 0, 786431, 4, 0, 720896, 4, 0, 720897, 4, 0, 720898, 4, 0, 720899, 4, 0, 720900, 3, 0, 720901, 1610612738, 0, 720902, 1, 0, 720903, 1610612738, 0, 720904, 1610612738, 0, 720905, 11, 0, 720906, 12, 0, 720907, 12, 0, 720908, 11, 0, 720909, 12, 0, 720910, 11, 0, 720911, 11, 0, 720912, 1, 0, 720913, 1, 0, 720914, 12, 0, 720915, 11, 0, 720916, 11, 0, 720917, 1, 0, 720918, 12, 0, 720919, 1, 0, 720920, 2, 0, 720921, 2, 0, 720922, 1, 0, 720923, 11, 0, 720924, 11, 0, 720925, 2, 0, 720926, 4, 0, 720927, 4, 0, 720928, 11, 0, 720929, 5, 0, 720930, 3, 0, 720931, 11, 0, 720932, 4, 0, 720933, 6, 0, 720934, 3, 0, 720935, 3, 0, 720936, 4, 0, 720937, 4, 0, 720938, 4, 0, 720939, 4, 0, 720940, 4, 0, 720941, 4, 0, 851959, 4, 0, 851960, 4, 0, 851961, 4, 0, 851962, 4, 0, 851963, 4, 0, 851964, 4, 0, 851965, 5, 0, 851966, 4, 0, 851967, 4, 0, 786432, 6, 0, 786433, 3, 0, 786434, 5, 0, 786435, 3, 0, 786436, 1, 0, 786437, 2, 0, 786438, 12, 0, 786439, 12, 0, 786440, 12, 0, 786441, 11, 0, 786442, 11, 0, 786443, 11, 0, 786444, 1, 0, 786445, 2, 0, 786446, 1, 0, 786447, 2, 0, 786448, 12, 0, 786449, 12, 0, 786450, 1, 0, 786451, 11, 0, 786452, 11, 0, 786453, 1, 0, 786454, 1, 0, 786455, 1, 0, 786456, 2, 0, 786457, 2, 0, 786458, 1, 0, 786459, 11, 0, 786460, 11, 0, 786461, 4, 0, 786462, 4, 0, 786463, 11, 0, 786464, 2, 0, 786465, 2, 0, 786466, 1, 0, 786467, 11, 0, 786468, 11, 0, 786469, 1, 0, 786470, 3, 0, 786471, 3, 0, 786472, 4, 0, 786473, 5, 0, 786474, 4, 0, 786475, 4, 0, 786476, 4, 0, 786477, 4, 0, 917495, 4, 0, 917496, 4, 0, 917497, 4, 0, 917498, 4, 0, 917499, 4, 0, 917500, 4, 0, 917501, 3, 0, 917502, 3, 0, 917503, 4, 0, 851968, 4, 0, 851969, 3, 0, 851970, 3, 0, 851971, 2, 0, 851972, 2, 0, 851973, 5, 0, 851974, 2, 0, 851975, 2, 0, 851976, 2, 0, 851977, 1, 0, 851978, 2, 0, 851979, 2, 0, 851980, 2, 0, 851981, 1, 0, 851982, 2, 0, 851983, 2, 0, 851984, 12, 0, 851985, 12, 0, 851986, 2, 0, 851987, 2, 0, 851988, 1, 0, 851989, 2, 0, 851990, 2, 0, 851991, 2, 0, 851992, 12, 0, 851993, 12, 0, 851994, 12, 0, 851995, 11, 0, 851996, 11, 0, 851997, 1, 0, 851998, 2, 0, 851999, 2, 0, 852000, 2, 0, 852001, 2, 0, 852002, 2, 0, 852003, 2, 0, 852004, 13, 0, 852005, 3, 0, 852006, 3, 0, 852007, 4, 0, 852008, 4, 0, 852009, 4, 0, 852010, 4, 0, 852011, 4, 0, 852012, 4, 0, 852013, 4, 0, 983031, 4, 0, 983032, 4, 0, 983033, 4, 0, 983034, 4, 0, 983035, 4, 0, 983036, 4, 0, 983037, 4, 0, 983038, 4, 0, 983039, 4, 0, 917504, 3, 0, 917505, 5, 0, 917506, 2, 0, 917507, 3, 0, 917508, 3, 0, 917509, 2, 0, 917510, 1, 0, 917511, 11, 0, 917512, 11, 0, 917513, 12, 0, 917514, 12, 0, 917515, 11, 0, 917516, 11, 0, 917517, 12, 0, 917518, 1, 0, 917519, 1, 0, 917520, 12, 0, 917521, 12, 0, 917522, 2, 0, 917523, 2, 0, 917524, 2, 0, 917525, 12, 0, 917526, 12, 0, 917527, 12, 0, 917528, 12, 0, 917529, 12, 0, 917530, 12, 0, 917531, 3, 0, 917532, 6, 0, 917533, 3, 0, 917534, 1, 0, 917535, 2, 0, 917536, 11, 0, 917537, 11, 0, 917538, 5, 0, 917539, 3, 0, 917540, 2, 0, 917541, 3, 0, 917542, 6, 0, 917543, 4, 0, 917544, 3, 0, 917545, 6, 0, 917546, 4, 0, 917547, 4, 0, 917548, 4, 0, 917549, 4, 0, 1048567, 4, 0, 1048568, 4, 0, 1048569, 4, 0, 1048570, 4, 0, 1048571, 4, 0, 1048572, 4, 0, 1048573, 4, 0, 1048574, 3, 0, 1048575, 4, 0, 983040, 4, 0, 983041, 3, 0, 983042, 3, 0, 983043, 2, 0, 983044, 1, 0, 983045, 3, 0, 983046, 13, 0, 983047, 11, 0, 983048, 11, 0, 983049, 12, 0, 983050, 12, 0, 983051, 11, 0, 983052, 11, 0, 983053, 11, 0, 983054, 2, 0, 983055, 1, 0, 983056, 12, 0, 983057, 11, 0, 983058, 4, 0, 983059, 4, 0, 983060, 2, 0, 983061, 12, 0, 983062, 12, 0, 983063, 12, 0, 983064, 12, 0, 983065, 12, 0, 983066, 12, 0, 983067, 2, 0, 983068, 2, 0, 983069, 3, 0, 983070, 2, 0, 983071, 2, 0, 983072, 11, 0, 983073, 11, 0, 983074, 3, 0, 983075, 2, 0, 983076, 3, 0, 983077, 3, 0, 983078, 4, 0, 983079, 3, 0, 983080, 4, 0, 983081, 3, 0, 983082, 4, 0, 983083, 4, 0, 983084, 4, 0, 983085, 4, 0, 1114103, 4, 0, 1114104, 4, 0, 1114105, 4, 0, 1114106, 4, 0, 1114107, 4, 0, 1114108, 4, 0, 1114109, 3, 0, 1114110, 4, 0, 1114111, 4, 0, 1048576, 13, 0, 1048577, 3, 0, 1048578, 3, 0, 1048579, 3, 0, 1048580, 1, 0, 1048581, 6, 0, 1048582, 3, 0, 1048583, 2, 0, 1048584, 12, 0, 1048585, 3, 0, 1048586, 6, 0, 1048587, 1, 0, 1048588, 12, 0, 1048589, 2, 0, 1048590, 2, 0, 1048591, 2, 0, 1048592, 2, 0, 1048593, 4, 0, 1048594, 4, 0, 1048595, 11, 0, 1048596, 2, 0, 1048597, 1, 0, 1048598, 1, 0, 1048599, 2, 0, 1048600, 6, 0, 1048601, 1, 0, 1048602, 1, 0, 1048603, 2, 0, 1048604, 1, 0, 1048605, 4, 0, 1048606, 2, 0, 1048607, 6, 0, 1048608, 3, 0, 1048609, 1, 0, 1048610, 4, 0, 1048611, 11, 0, 1048612, 11, 0, 1048613, 3, 0, 1048614, 4, 0, 1048615, 4, 0, 1048616, 4, 0, 1048617, 4, 0, 1048618, 4, 0, 1048619, 4, 0, 1048620, 4, 0, 1048621, 4, 0, 1179639, 4, 0, 1179640, 4, 0, 1179641, 4, 0, 1179642, 4, 0, 1179643, 4, 0, 1179644, 4, 0, 1179645, 3, 0, 1179646, 4, 0, 1179647, 3, 0, 1114112, 6, 0, 1114113, 3, 0, 1114114, 13, 0, 1114115, 1, 0, 1114116, 6, 0, 1114117, 6, 0, 1114118, 4, 0, 1114119, 12, 0, 1114120, 12, 0, 1114121, 1, 0, 1114122, 2, 0, 1114123, 12, 0, 1114124, 12, 0, 1114125, 12, 0, 1114126, 13, 0, 1114127, 2, 0, 1114128, 2, 0, 1114129, 4, 0, 1114130, 4, 0, 1114131, 5, 0, 1114132, 13, 0, 1114133, 1, 0, 1114134, 1, 0, 1114135, 3, 0, 1114136, 3, 0, 1114137, 1, 0, 1114138, 2, 0, 1114139, 3, 0, 1114140, 3, 0, 1114141, 4, 0, 1114142, 3, 0, 1114143, 3, 0, 1114144, 3, 0, 1114145, 2, 0, 1114146, 4, 0, 1114147, 4, 0, 1114148, 11, 0, 1114149, 3, 0, 1114150, 4, 0, 1114151, 4, 0, 1114152, 4, 0, 1114153, 3, 0, 1114154, 3, 0, 1114155, 4, 0, 1114156, 4, 0, 1114157, 4, 0, 1245175, 4, 0, 1245176, 4, 0, 1245177, 4, 0, 1245178, 4, 0, 1245179, 4, 0, 1245180, 4, 0, 1245181, 5, 0, 1245182, 4, 0, 1245183, 4, 0, 1179648, 4, 0, 1179649, 13, 0, 1179650, 13, 0, 1179651, 13, 0, 1179652, 3, 0, 1179653, 4, 0, 1179654, 4, 0, 1179655, 11, 0, 1179656, 1, 0, 1179657, 1, 0, 1179658, 3, 0, 1179659, 2, 0, 1179660, 2, 0, 1179661, 5, 0, 1179662, 3, 0, 1179663, 1, 0, 1179664, 2, 0, 1179665, 4, 0, 1179666, 4, 0, 1179667, 4, 0, 1179668, 4, 0, 1179669, 2, 0, 1179670, 1, 0, 1179671, 1, 0, 1179672, 1, 0, 1179673, 1, 0, 1179674, 3, 0, 1179675, 5, 0, 1179676, 2, 0, 1179677, 4, 0, 1179678, 3, 0, 1179679, 13, 0, 1179680, 3, 0, 1179681, 5, 0, 1179682, 3, 0, 1179683, 4, 0, 1179684, 4, 0, 1179685, 3, 0, 1179686, 3, 0, 1179687, 4, 0, 1179688, 4, 0, 1179689, 6, 0, 1179690, 4, 0, 1179691, 4, 0, 1179692, 4, 0, 1179693, 4, 0, 1310711, 4, 0, 1310712, 4, 0, 1310713, 4, 0, 1310714, 4, 0, 1310715, 4, 0, 1310716, 4, 0, 1310717, 4, 0, 1310718, 4, 0, 1310719, 3, 0, 1245184, 4, 0, 1245185, 4, 0, 1245186, 4, 0, 1245187, 4, 0, 1245188, 4, 0, 1245189, 4, 0, 1245190, 4, 0, 1245191, 3, 0, 1245192, 6, 0, 1245193, 13, 0, 1245194, 3, 0, 1245195, 3, 0, 1245196, 3, 0, 1245197, 3, 0, 1245198, 3, 0, 1245199, 3, 0, 1245200, 5, 0, 1245201, 4, 0, 1245202, 4, 0, 1245203, 4, 0, 1245204, 4, 0, 1245205, 5, 0, 1245206, 2, 0, 1245207, 3, 0, 1245208, 5, 0, 1245209, 3, 0, 1245210, 3, 0, 1245211, 3, 0, 1245212, 3, 0, 1245213, 4, 0, 1245214, 6, 0, 1245215, 13, 0, 1245216, 3, 0, 1245217, 3, 0, 1245218, 3, 0, 1245219, 6, 0, 1245220, 4, 0, 1245221, 4, 0, 1245222, 4, 0, 1245223, 3, 0, 1245224, 4, 0, 1245225, 6, 0, 1245226, 4, 0, 1245227, 4, 0, 1245228, 4, 0, 1245229, 4, 0, 1376247, 4, 0, 1376248, 4, 0, 1376249, 4, 0, 1376250, 4, 0, 1376251, 4, 0, 1376252, 4, 0, 1376253, 4, 0, 1376254, 3, 0, 1376255, 4, 0, 1310720, 5, 0, 1310721, 4, 0, 1310722, 4, 0, 1310723, 4, 0, 1310724, 4, 0, 1310725, 4, 0, 1310726, 4, 0, 1310727, 4, 0, 1310728, 3, 0, 1310729, 4, 0, 1310730, 4, 0, 1310731, 4, 0, 1310732, 3, 0, 1310733, 3, 0, 1310734, 4, 0, 1310735, 6, 0, 1310736, 3, 0, 1310737, 4, 0, 1310738, 3, 0, 1310739, 5, 0, 1310740, 3, 0, 1310741, 3, 0, 1310742, 5, 0, 1310743, 3, 0, 1310744, 3, 0, 1310745, 3, 0, 1310746, 3, 0, 1310747, 4, 0, 1310748, 4, 0, 1310749, 4, 0, 1310750, 3, 0, 1310751, 3, 0, 1310752, 3, 0, 1310753, 4, 0, 1310754, 5, 0, 1310755, 3, 0, 1310756, 3, 0, 1310757, 3, 0, 1310758, 4, 0, 1310759, 4, 0, 1310760, 4, 0, 1310761, 6, 0, 1310762, 4, 0, 1310763, 4, 0, 1310764, 4, 0, 1310765, 4, 0, 1441783, 4, 0, 1441784, 4, 0, 1441785, 4, 0, 1441786, 4, 0, 1441787, 4, 0, 1441788, 4, 0, 1441789, 4, 0, 1441790, 4, 0, 1441791, 4, 0, 1376256, 3, 0, 1376257, 6, 0, 1376258, 4, 0, 1376259, 4, 0, 1376260, 3, 0, 1376261, 4, 0, 1376262, 4, 0, 1376263, 4, 0, 1376264, 4, 0, 1376265, 4, 0, 1376266, 4, 0, 1376267, 4, 0, 1376268, 5, 0, 1376269, 4, 0, 1376270, 4, 0, 1376271, 3, 0, 1376272, 6, 0, 1376273, 4, 0, 1376274, 3, 0, 1376275, 5, 0, 1376276, 13, 0, 1376277, 3, 0, 1376278, 4, 0, 1376279, 3, 0, 1376280, 3, 0, 1376281, 4, 0, 1376282, 5, 0, 1376283, 4, 0, 1376284, 3, 0, 1376285, 4, 0, 1376286, 3, 0, 1376287, 4, 0, 1376288, 5, 0, 1376289, 4, 0, 1376290, 4, 0, 1376291, 3, 0, 1376292, 4, 0, 1376293, 4, 0, 1376294, 3, 0, 1376295, 4, 0, 1376296, 4, 0, 1376297, 4, 0, 1376298, 4, 0, 1376299, 4, 0, 1376300, 4, 0, 1376301, 4, 0, 1507319, 4, 0, 1507320, 4, 0, 1507321, 4, 0, 1507322, 4, 0, 1507323, 4, 0, 1507324, 4, 0, 1507325, 4, 0, 1507326, 4, 0, 1507327, 4, 0, 1441792, 4, 0, 1441793, 4, 0, 1441794, 4, 0, 1441795, 4, 0, 1441796, 4, 0, 1441797, 3, 0, 1441798, 4, 0, 1441799, 4, 0, 1441800, 4, 0, 1441801, 4, 0, 1441802, 4, 0, 1441803, 4, 0, 1441804, 4, 0, 1441805, 4, 0, 1441806, 4, 0, 1441807, 4, 0, 1441808, 4, 0, 1441809, 4, 0, 1441810, 4, 0, 1441811, 4, 0, 1441812, 4, 0, 1441813, 4, 0, 1441814, 4, 0, 1441815, 4, 0, 1441816, 4, 0, 1441817, 4, 0, 1441818, 4, 0, 1441819, 4, 0, 1441820, 4, 0, 1441821, 4, 0, 1441822, 4, 0, 1441823, 4, 0, 1441824, 4, 0, 1441825, 3, 0, 1441826, 6, 0, 1441827, 4, 0, 1441828, 4, 0, 1441829, 3, 0, 1441830, 5, 0, 1441831, 3, 0, 1441832, 4, 0, 1441833, 4, 0, 1441834, 4, 0, 1441835, 4, 0, 1441836, 4, 0, 1441837, 4, 0, 1572855, 4, 0, 1572856, 4, 0, 1572857, 4, 0, 1572858, 4, 0, 1572859, 4, 0, 1572860, 4, 0, 1572861, 4, 0, 1572862, 4, 0, 1572863, 4, 0, 1507328, 4, 0, 1507329, 4, 0, 1507330, 4, 0, 1507331, 6, 0, 1507332, 3, 0, 1507333, 4, 0, 1507334, 4, 0, 1507335, 5, 0, 1507336, 3, 0, 1507337, 4, 0, 1507338, 4, 0, 1507339, 4, 0, 1507340, 3, 0, 1507341, 3, 0, 1507342, 3, 0, 1507343, 4, 0, 1507344, 4, 0, 1507345, 3, 0, 1507346, 6, 0, 1507347, 3, 0, 1507348, 4, 0, 1507349, 3, 0, 1507350, 4, 0, 1507351, 4, 0, 1507352, 4, 0, 1507353, 3, 0, 1507354, 3, 0, 1507355, 3, 0, 1507356, 4, 0, 1507357, 4, 0, 1507358, 3, 0, 1507359, 4, 0, 1507360, 4, 0, 1507361, 5, 0, 1507362, 4, 0, 1507363, 4, 0, 1507364, 4, 0, 1507365, 4, 0, 1507366, 4, 0, 1507367, 4, 0, 1507368, 4, 0, 1507369, 4, 0, 1507370, 4, 0, 1507371, 4, 0, 1507372, 4, 0, 1507373, 4, 0, 1638391, 4, 0, 1638392, 4, 0, 1638393, 4, 0, 1638394, 4, 0, 1638395, 4, 0, 1638396, 4, 0, 1638397, 4, 0, 1638398, 4, 0, 1638399, 4, 0, 1572864, 4, 0, 1572865, 4, 0, 1572866, 4, 0, 1572867, 4, 0, 1572868, 4, 0, 1572869, 4, 0, 1572870, 4, 0, 1572871, 4, 0, 1572872, 4, 0, 1572873, 4, 0, 1572874, 4, 0, 1572875, 4, 0, 1572876, 3, 0, 1572877, 4, 0, 1572878, 4, 0, 1572879, 4, 0, 1572880, 4, 0, 1572881, 4, 0, 1572882, 4, 0, 1572883, 4, 0, 1572884, 4, 0, 1572885, 4, 0, 1572886, 4, 0, 1572887, 4, 0, 1572888, 4, 0, 1572889, 4, 0, 1572890, 5, 0, 1572891, 4, 0, 1572892, 3, 0, 1572893, 4, 0, 1572894, 3, 0, 1572895, 3, 0, 1572896, 4, 0, 1572897, 4, 0, 1572898, 4, 0, 1572899, 4, 0, 1572900, 4, 0, 1572901, 4, 0, 1572902, 4, 0, 1572903, 4, 0, 1572904, 4, 0, 1572905, 4, 0, 1572906, 4, 0, 1572907, 4, 0, 1572908, 4, 0, 1572909, 4, 0, 1703927, 4, 0, 1703928, 4, 0, 1703929, 4, 0, 1703930, 4, 0, 1703931, 4, 0, 1703932, 4, 0, 1703933, 4, 0, 1703934, 4, 0, 1703935, 4, 0, 1638400, 4, 0, 1638401, 4, 0, 1638402, 4, 0, 1638403, 4, 0, 1638404, 4, 0, 1638405, 4, 0, 1638406, 4, 0, 1638407, 4, 0, 1638408, 4, 0, 1638409, 4, 0, 1638410, 4, 0, 1638411, 4, 0, 1638412, 4, 0, 1638413, 4, 0, 1638414, 4, 0, 1638415, 4, 0, 1638416, 4, 0, 1638417, 4, 0, 1638418, 4, 0, 1638419, 4, 0, 1638420, 4, 0, 1638421, 4, 0, 1638422, 4, 0, 1638423, 4, 0, 1638424, 4, 0, 1638425, 4, 0, 1638426, 4, 0, 1638427, 4, 0, 1638428, 4, 0, 1638429, 4, 0, 1638430, 4, 0, 1638431, 4, 0, 1638432, 4, 0, 1638433, 4, 0, 1638434, 4, 0, 1638435, 4, 0, 1638436, 4, 0, 1638437, 4, 0, 1638438, 4, 0, 1638439, 4, 0, 1638440, 4, 0, 1638441, 4, 0, 1638442, 4, 0, 1638443, 4, 0, 1638444, 4, 0, 1638445, 4, 0 )

[node name="Player" parent="Navigation2D/TileMap" instance=ExtResource( 13 )]
position = Vector2( 0.00134277, 0.000244141 )

[node name="Temp_sprite" type="Sprite" parent="."]
position = Vector2( 330, 431 )
texture = ExtResource( 14 )

[node name="StaticNPC" type="Area2D" parent="."]
position = Vector2( 1038, 355.5 )
rotation = 1.5708

[node name="Sprite" type="Sprite" parent="StaticNPC"]
rotation = 1.58932e-008
scale = Vector2( 2, 2 )
texture = ExtResource( 15 )

[node name="CollisionShape2D" type="CollisionShape2D" parent="StaticNPC"]
position = Vector2( 0, -0.735107 )
shape = SubResource( 14 )

[node name="Tree" parent="." instance=ExtResource( 16 )]
position = Vector2( 1089.87, 911.441 )

[node name="Tree2" parent="." instance=ExtResource( 16 )]
position = Vector2( 1089.87, 810.144 )

[node name="Tree3" parent="." instance=ExtResource( 16 )]
position = Vector2( 1452.2, 714.691 )

[node name="Tree4" parent="." instance=ExtResource( 16 )]
position = Vector2( 702.214, 740.015 )

[node name="Bushes" parent="." instance=ExtResource( 17 )]
position = Vector2( 1506.9, 445.241 )

[node name="Bushes2" parent="." instance=ExtResource( 17 )]
position = Vector2( 702.368, 445.241 )

[node name="Bushes3" parent="." instance=ExtResource( 17 )]
position = Vector2( 1504.95, 380.956 )

[node name="Bushes4" parent="." instance=ExtResource( 17 )]
position = Vector2( 1403.65, 1134.84 )

[node name="BuildingOne" parent="." instance=ExtResource( 18 )]
position = Vector2( 2027.35, 1207.51 )

[node name="BuildingOne2" parent="." instance=ExtResource( 18 )]
position = Vector2( 932.563, 65.9711 )

[node name="BuildingOne3" parent="." instance=ExtResource( 18 )]
position = Vector2( 161.148, 1160.76 )

[node name="BuildingOne4" parent="." instance=ExtResource( 18 )]
position = Vector2( 2019.56, 60.127 )

[node name="BuildingOne5" parent="." instance=ExtResource( 18 )]
position = Vector2( 1378.66, 54.2829 )

[node name="BuildingTwo" parent="." instance=ExtResource( 19 )]
position = Vector2( 1790.94, 640.586 )

[node name="BuildingFive" parent="." instance=ExtResource( 20 )]
position = Vector2( 1623.59, 951.304 )

[node name="BuildingFive3" parent="." instance=ExtResource( 20 )]
position = Vector2( 1426.31, 951.304 )

[node name="BuildingThree" parent="." instance=ExtResource( 21 )]
position = Vector2( 639.53, 958.227 )

[node name="BuildingThree2" parent="." instance=ExtResource( 21 )]
position = Vector2( 532.389, 1104.33 )

[node name="BuildingThree3" parent="." instance=ExtResource( 21 )]
position = Vector2( 791.475, 1104.33 )

[node name="Exit" parent="." instance=ExtResource( 22 )]
position = Vector2( 33.0005, 288 )

[node name="Spawn" type="Position2D" parent="."]
position = Vector2( 181.5, 295.5 )
rotation = 1.5708
scale = Vector2( 4, 1 )

[node name="PickUpItem" parent="." instance=ExtResource( 23 )]
visible = false
position = Vector2( 1036.5, 354 )

[node name="Temp" parent="." instance=ExtResource( 24 )]
visible = false

[node name="BackgroundSounds" type="Node2D" parent="."]

[node name="BackgroundSea" type="AudioStreamPlayer2D" parent="BackgroundSounds"]
position = Vector2( -165.375, -16.875 )
stream = ExtResource( 25 )
bus = "Background"

[node name="BackgroundSea2" type="AudioStreamPlayer2D" parent="BackgroundSounds"]
position = Vector2( 2399.62, -50.625 )
stream = ExtResource( 25 )
bus = "Background"

[node name="BackgroundSea3" type="AudioStreamPlayer2D" parent="BackgroundSounds"]
position = Vector2( 2613.37, 1416.37 )
stream = ExtResource( 25 )
bus = "Background"

[node name="BackgroundSea4" type="AudioStreamPlayer2D" parent="BackgroundSounds"]
position = Vector2( -59.625, 1450.12 )
stream = ExtResource( 25 )
bus = "Background"

[node name="SeagullSounds" type="Node2D" parent="."]

[node name="Seagull" type="AudioStreamPlayer2D" parent="SeagullSounds"]
position = Vector2( 932.625, 604.125 )
stream = ExtResource( 26 )
volume_db = -5.0
max_distance = 1000.0

[node name="Seagull2" type="AudioStreamPlayer2D" parent="SeagullSounds"]
position = Vector2( 2104.87, 248.625 )
stream = ExtResource( 26 )
volume_db = -5.0
max_distance = 1000.0

[node name="Seagull3" type="AudioStreamPlayer2D" parent="SeagullSounds"]
position = Vector2( 2107.12, 948.375 )
stream = ExtResource( 26 )
volume_db = -5.0
max_distance = 1000.0

[node name="Seagull4" type="AudioStreamPlayer2D" parent="SeagullSounds"]
position = Vector2( 1078.87, 804.328 )
stream = ExtResource( 26 )
volume_db = -5.0
max_distance = 1000.0

[node name="Seagull5" type="AudioStreamPlayer2D" parent="SeagullSounds"]
position = Vector2( 1078.87, 804.328 )
stream = ExtResource( 26 )
volume_db = -5.0
max_distance = 1000.0

[node name="Ship" type="Sprite" parent="."]
position = Vector2( -209.25, 252 )
rotation = 1.5708
scale = Vector2( 0.1, 0.1 )
texture = ExtResource( 27 )

[node name="PathPoints" type="Node2D" parent="."]

[node name="PathOne" type="Node2D" parent="PathPoints"]

[node name="NPCPosA" type="Position2D" parent="PathPoints/PathOne"]
position = Vector2( 768.841, 607.011 )

[node name="NPCPosB" type="Position2D" parent="PathPoints/PathOne"]
position = Vector2( 1235, 178.162 )

[node name="PathTwo" type="Node2D" parent="PathPoints"]

[node name="NPCPosA" type="Position2D" parent="PathPoints/PathTwo"]
position = Vector2( 1651.55, 1267.74 )

[node name="NPCPosB" type="Position2D" parent="PathPoints/PathTwo"]
position = Vector2( 1629.5, 830.515 )

[node name="PathThree" type="Node2D" parent="PathPoints"]

[node name="NPCPosA" type="Position2D" parent="PathPoints/PathThree"]
position = Vector2( 2242.59, 166.011 )

[node name="NPCPosB" type="Position2D" parent="PathPoints/PathThree"]
position = Vector2( 2173.25, 801.411 )

[node name="Rock" parent="." instance=ExtResource( 28 )]
position = Vector2( 402.798, 994.545 )

[node name="Rock2" parent="." instance=ExtResource( 28 )]
position = Vector2( 2397.44, 162.248 )

[node name="Rock3" parent="." instance=ExtResource( 28 )]
position = Vector2( 1139.43, 112.023 )

[node name="Rock4" parent="." instance=ExtResource( 28 )]
position = Vector2( 728.063, 37.882 )

[node name="Rock5" parent="." instance=ExtResource( 28 )]
position = Vector2( 94.2736, 599.922 )

[node name="Rock6" parent="." instance=ExtResource( 28 )]
position = Vector2( 1309.24, 1116.52 )

[node name="Rock7" parent="." instance=ExtResource( 28 )]
position = Vector2( 1316.41, 1367.64 )

[node name="Rock8" parent="." instance=ExtResource( 28 )]
position = Vector2( 2344.82, 853.437 )

[node name="BuildingEight" parent="." instance=ExtResource( 29 )]
position = Vector2( 480.314, 800.229 )

[node name="PalmTree" parent="." instance=ExtResource( 30 )]
position = Vector2( 847.701, 721.85 )

[node name="PalmTree2" parent="." instance=ExtResource( 30 )]
position = Vector2( 1180.46, 724.309 )

[node name="PalmTree3" parent="." instance=ExtResource( 30 )]
position = Vector2( 20.602, 1043.23 )

[node name="PalmTree4" parent="." instance=ExtResource( 30 )]
position = Vector2( 587.045, 1230.46 )

[node name="PalmTree5" parent="." instance=ExtResource( 30 )]
position = Vector2( 915.486, 1106.7 )

[node name="PalmTree6" parent="." instance=ExtResource( 30 )]
position = Vector2( 1740.56, 19.8255 )

[node name="PalmTree7" parent="." instance=ExtResource( 30 )]
position = Vector2( 2257.81, 19.8255 )

[node name="PalmTree8" parent="." instance=ExtResource( 30 )]
position = Vector2( 401.404, 3.95868 )

[node name="PalmTree9" parent="." instance=ExtResource( 30 )]
position = Vector2( -163.452, 530.735 )

[node name="DayNightTint" parent="." instance=ExtResource( 31 )]
[connection signal="body_entered" from="StaticNPC" to="." method="_on_StaticNPC_body_entered"]
