[gd_scene load_steps=13 format=2]

[ext_resource path="res://map_graphics/MapView.gd" type="Script" id=1]
[ext_resource path="res://tiles/oceanTile/ocean.res" type="TileSet" id=2]
[ext_resource path="res://player/Player.gd" type="Script" id=3]
[ext_resource path="res://images/DualNavyShip.png" type="Texture" id=4]
[ext_resource path="res://map_graphics/ShipGraphic.tscn" type="PackedScene" id=5]
[ext_resource path="res://map_graphics/DayNightTint.tscn" type="PackedScene" id=6]
[ext_resource path="res://overlay/Overlay.tscn" type="PackedScene" id=7]
[ext_resource path="res://images/Dialogue2.png" type="Texture" id=8]
[ext_resource path="res://Fonts/PirateFont.tres" type="DynamicFont" id=9]
[ext_resource path="res://encounters/CustomButton.tscn" type="PackedScene" id=10]
[ext_resource path="res://mapAudio/Rough_Sea_Waves.wav" type="AudioStream" id=11]

[sub_resource type="Animation" id=1]
resource_name = "DayAndNight"
length = 180.0
loop = true
step = 0.0
tracks/0/type = "value"
tracks/0/path = NodePath("ParallaxBackground2/Overlay/clockArrow:rotation_degrees")
tracks/0/interp = 1
tracks/0/loop_wrap = true
tracks/0/imported = false
tracks/0/enabled = true
tracks/0/keys = {
"times": PoolRealArray( -0.353989, 0, 180 ),
"transitions": PoolRealArray( 1, 1, 1 ),
"update": 0,
"values": [ 0.0, 0.0, 360.0 ]
}
tracks/1/type = "value"
tracks/1/path = NodePath("ParallaxBackground2/Overlay/CanvasModulate:color")
tracks/1/interp = 1
tracks/1/loop_wrap = true
tracks/1/imported = false
tracks/1/enabled = true
tracks/1/keys = {
"times": PoolRealArray( 0, 115, 118, 156, 178.935 ),
"transitions": PoolRealArray( 1, 1, 1, 1, 1 ),
"update": 0,
"values": [ Color( 1, 1, 1, 1 ), Color( 1, 1, 1, 1 ), Color( 0.721569, 0.690196, 0.623529, 1 ), Color( 0.781345, 0.756708, 0.704354, 1 ), Color( 0.25098, 0.231373, 0.231373, 1 ) ]
}

[node name="MapView" type="Node2D"]
script = ExtResource( 1 )

[node name="TileMap" type="TileMap" parent="."]
show_behind_parent = true
tile_set = ExtResource( 2 )
cell_size = Vector2( 32, 32 )
collision_friction = 0.0
collision_layer = 0
collision_mask = 0
format = 1
tile_data = PoolIntArray( -655387, 0, 0, -655386, 0, 0, -655385, 0, 0, -655384, 0, 0, -655383, 0, 0, -655382, 0, 0, -655381, 0, 0, -655380, 0, 0, -655379, 0, 0, -655378, 0, 0, -655377, 0, 0, -655376, 0, 0, -655375, 0, 0, -655374, 0, 0, -655373, 0, 0, -655372, 0, 0, -655371, 0, 0, -655370, 0, 0, -655369, 0, 0, -655368, 0, 0, -655367, 0, 0, -655366, 0, 0, -655365, 0, 0, -655364, 0, 0, -655363, 0, 0, -655362, 0, 0, -655361, 0, 0, -720896, 0, 0, -720895, 0, 0, -720894, 0, 0, -720893, 0, 0, -720892, 0, 0, -720891, 0, 0, -720890, 0, 0, -720889, 0, 0, -720888, 0, 0, -720887, 0, 0, -720886, 0, 0, -720885, 0, 0, -720884, 0, 0, -720883, 0, 0, -720882, 0, 0, -720881, 0, 0, -720880, 0, 0, -720879, 0, 0, -720878, 0, 0, -720877, 0, 0, -720876, 0, 0, -720875, 0, 0, -720874, 0, 0, -720873, 0, 0, -720872, 0, 0, -720871, 0, 0, -720870, 0, 0, -720869, 0, 0, -720868, 0, 0, -720867, 0, 0, -720866, 0, 0, -720865, 0, 0, -720864, 0, 0, -720863, 0, 0, -720862, 0, 0, -720861, 0, 0, -720860, 0, 0, -720859, 0, 0, -720858, 0, 0, -720857, 0, 0, -720856, 0, 0, -720855, 0, 0, -720854, 0, 0, -720853, 0, 0, -720852, 0, 0, -720851, 0, 0, -720850, 0, 0, -720849, 0, 0, -720848, 0, 0, -720847, 0, 0, -720846, 0, 0, -720845, 0, 0, -720844, 0, 0, -720843, 0, 0, -720842, 0, 0, -720841, 0, 0, -720840, 0, 0, -720839, 0, 0, -720838, 0, 0, -720837, 0, 0, -720836, 0, 0, -720835, 0, 0, -720834, 0, 0, -589851, 0, 0, -589850, 0, 0, -589849, 0, 0, -589848, 0, 0, -589847, 0, 0, -589846, 0, 0, -589845, 0, 0, -589844, 0, 0, -589843, 0, 0, -589842, 0, 0, -589841, 0, 0, -589840, 0, 0, -589839, 0, 0, -589838, 0, 0, -589837, 0, 0, -589836, 0, 0, -589835, 0, 0, -589834, 0, 0, -589833, 0, 0, -589832, 0, 0, -589831, 0, 0, -589830, 0, 0, -589829, 0, 0, -589828, 0, 0, -589827, 0, 0, -589826, 0, 0, -589825, 0, 0, -655360, 0, 0, -655359, 0, 0, -655358, 0, 0, -655357, 0, 0, -655356, 0, 0, -655355, 0, 0, -655354, 0, 0, -655353, 0, 0, -655352, 0, 0, -655351, 0, 0, -655350, 0, 0, -655349, 0, 0, -655348, 0, 0, -655347, 0, 0, -655346, 0, 0, -655345, 0, 0, -655344, 0, 0, -655343, 0, 0, -655342, 0, 0, -655341, 0, 0, -655340, 0, 0, -655339, 0, 0, -655338, 0, 0, -655337, 0, 0, -655336, 0, 0, -655335, 0, 0, -655334, 0, 0, -655333, 0, 0, -655332, 0, 0, -655331, 0, 0, -655330, 0, 0, -655329, 0, 0, -655328, 0, 0, -655327, 0, 0, -655326, 0, 0, -655325, 0, 0, -655324, 0, 0, -655323, 0, 0, -655322, 0, 0, -655321, 0, 0, -655320, 0, 0, -655319, 0, 0, -655318, 0, 0, -655317, 0, 0, -655316, 0, 0, -655315, 0, 0, -655314, 0, 0, -655313, 0, 0, -655312, 0, 0, -655311, 0, 0, -655310, 0, 0, -655309, 0, 0, -655308, 0, 0, -655307, 0, 0, -655306, 0, 0, -655305, 0, 0, -655304, 0, 0, -655303, 0, 0, -655302, 0, 0, -655301, 0, 0, -655300, 0, 0, -655299, 0, 0, -655298, 0, 0, -524315, 0, 0, -524314, 0, 0, -524313, 0, 0, -524312, 0, 0, -524311, 0, 0, -524310, 0, 0, -524309, 0, 0, -524308, 0, 0, -524307, 0, 0, -524306, 0, 0, -524305, 0, 0, -524304, 0, 0, -524303, 0, 0, -524302, 0, 0, -524301, 0, 0, -524300, 0, 0, -524299, 0, 0, -524298, 0, 0, -524297, 0, 0, -524296, 0, 0, -524295, 0, 0, -524294, 0, 0, -524293, 0, 0, -524292, 0, 0, -524291, 0, 0, -524290, 0, 0, -524289, 0, 0, -589824, 0, 0, -589823, 0, 0, -589822, 0, 0, -589821, 0, 0, -589820, 0, 0, -589819, 0, 0, -589818, 0, 0, -589817, 0, 0, -589816, 0, 0, -589815, 0, 0, -589814, 0, 0, -589813, 0, 0, -589812, 0, 0, -589811, 0, 0, -589810, 0, 0, -589809, 0, 0, -589808, 0, 0, -589807, 0, 0, -589806, 0, 0, -589805, 0, 0, -589804, 0, 0, -589803, 0, 0, -589802, 0, 0, -589801, 0, 0, -589800, 0, 0, -589799, 0, 0, -589798, 0, 0, -589797, 0, 0, -589796, 0, 0, -589795, 0, 0, -589794, 0, 0, -589793, 0, 0, -589792, 0, 0, -589791, 0, 0, -589790, 0, 0, -589789, 0, 0, -589788, 0, 0, -589787, 0, 0, -589786, 0, 0, -589785, 0, 0, -589784, 0, 0, -589783, 0, 0, -589782, 0, 0, -589781, 0, 0, -589780, 0, 0, -589779, 0, 0, -589778, 0, 0, -589777, 0, 0, -589776, 0, 0, -589775, 0, 0, -589774, 0, 0, -589773, 0, 0, -589772, 0, 0, -589771, 0, 0, -589770, 0, 0, -589769, 0, 0, -589768, 0, 0, -589767, 0, 0, -589766, 0, 0, -589765, 0, 0, -589764, 0, 0, -589763, 0, 0, -589762, 0, 0, -458779, 0, 0, -458778, 0, 0, -458777, 0, 0, -458776, 0, 0, -458775, 0, 0, -458774, 0, 0, -458773, 0, 0, -458772, 0, 0, -458771, 0, 0, -458770, 0, 0, -458769, 0, 0, -458768, 0, 0, -458767, 0, 0, -458766, 0, 0, -458765, 0, 0, -458764, 0, 0, -458763, 0, 0, -458762, 0, 0, -458761, 0, 0, -458760, 0, 0, -458759, 0, 0, -458758, 0, 0, -458757, 0, 0, -458756, 0, 0, -458755, 0, 0, -458754, 0, 0, -458753, 0, 0, -524288, 0, 0, -524287, 0, 0, -524286, 0, 0, -524285, 0, 0, -524284, 0, 0, -524283, 0, 0, -524282, 0, 0, -524281, 0, 0, -524280, 0, 0, -524279, 0, 0, -524278, 0, 0, -524277, 0, 0, -524276, 0, 0, -524275, 0, 0, -524274, 0, 0, -524273, 0, 0, -524272, 0, 0, -524271, 0, 0, -524270, 0, 0, -524269, 0, 0, -524268, 0, 0, -524267, 0, 0, -524266, 0, 0, -524265, 0, 0, -524264, 0, 0, -524263, 0, 0, -524262, 0, 0, -524261, 0, 0, -524260, 0, 0, -524259, 0, 0, -524258, 0, 0, -524257, 0, 0, -524256, 0, 0, -524255, 0, 0, -524254, 0, 0, -524253, 0, 0, -524252, 0, 0, -524251, 0, 0, -524250, 0, 0, -524249, 0, 0, -524248, 0, 0, -524247, 0, 0, -524246, 0, 0, -524245, 0, 0, -524244, 0, 0, -524243, 0, 0, -524242, 0, 0, -524241, 0, 0, -524240, 0, 0, -524239, 0, 0, -524238, 0, 0, -524237, 0, 0, -524236, 0, 0, -524235, 0, 0, -524234, 0, 0, -524233, 0, 0, -524232, 0, 0, -524231, 0, 0, -524230, 0, 0, -524229, 0, 0, -524228, 0, 0, -524227, 0, 0, -524226, 0, 0, -393243, 0, 0, -393242, 0, 0, -393241, 0, 0, -393240, 0, 0, -393239, 0, 0, -393238, 0, 0, -393237, 0, 0, -393236, 0, 0, -393235, 0, 0, -393234, 0, 0, -393233, 0, 0, -393232, 0, 0, -393231, 0, 0, -393230, 0, 0, -393229, 0, 0, -393228, 0, 0, -393227, 0, 0, -393226, 0, 0, -393225, 0, 0, -393224, 0, 0, -393223, 0, 0, -393222, 0, 0, -393221, 0, 0, -393220, 0, 0, -393219, 0, 0, -393218, 0, 0, -393217, 0, 0, -458752, 0, 0, -458751, 0, 0, -458750, 0, 0, -458749, 0, 0, -458748, 0, 0, -458747, 0, 0, -458746, 0, 0, -458745, 0, 0, -458744, 0, 0, -458743, 0, 0, -458742, 0, 0, -458741, 0, 0, -458740, 0, 0, -458739, 0, 0, -458738, 0, 0, -458737, 0, 0, -458736, 0, 0, -458735, 0, 0, -458734, 0, 0, -458733, 0, 0, -458732, 0, 0, -458731, 0, 0, -458730, 0, 0, -458729, 0, 0, -458728, 0, 0, -458727, 0, 0, -458726, 0, 0, -458725, 0, 0, -458724, 0, 0, -458723, 0, 0, -458722, 0, 0, -458721, 0, 0, -458720, 0, 0, -458719, 0, 0, -458718, 0, 0, -458717, 0, 0, -458716, 0, 0, -458715, 0, 0, -458714, 0, 0, -458713, 0, 0, -458712, 0, 0, -458711, 0, 0, -458710, 0, 0, -458709, 0, 0, -458708, 0, 0, -458707, 0, 0, -458706, 0, 0, -458705, 0, 0, -458704, 0, 0, -458703, 0, 0, -458702, 0, 0, -458701, 0, 0, -458700, 0, 0, -458699, 0, 0, -458698, 0, 0, -458697, 0, 0, -458696, 0, 0, -458695, 0, 0, -458694, 0, 0, -458693, 0, 0, -458692, 0, 0, -458691, 0, 0, -458690, 0, 0, -327707, 0, 0, -327706, 0, 0, -327705, 0, 0, -327704, 0, 0, -327703, 0, 0, -327702, 0, 0, -327701, 0, 0, -327700, 0, 0, -327699, 0, 0, -327698, 0, 0, -327697, 0, 0, -327696, 0, 0, -327695, 0, 0, -327694, 0, 0, -327693, 0, 0, -327692, 0, 0, -327691, 0, 0, -327690, 0, 0, -327689, 0, 0, -327688, 0, 0, -327687, 0, 0, -327686, 0, 0, -327685, 0, 0, -327684, 0, 0, -327683, 0, 0, -327682, 0, 0, -327681, 0, 0, -393216, 0, 0, -393215, 0, 0, -393214, 0, 0, -393213, 0, 0, -393212, 0, 0, -393211, 0, 0, -393210, 0, 0, -393209, 0, 0, -393208, 0, 0, -393207, 0, 0, -393206, 0, 0, -393205, 0, 0, -393204, 0, 0, -393203, 0, 0, -393202, 0, 0, -393201, 0, 0, -393200, 0, 0, -393199, 0, 0, -393198, 0, 0, -393197, 0, 0, -393196, 0, 0, -393195, 0, 0, -393194, 0, 0, -393193, 0, 0, -393192, 0, 0, -393191, 0, 0, -393190, 0, 0, -393189, 0, 0, -393188, 0, 0, -393187, 0, 0, -393186, 0, 0, -393185, 0, 0, -393184, 0, 0, -393183, 0, 0, -393182, 0, 0, -393181, 0, 0, -393180, 0, 0, -393179, 0, 0, -393178, 0, 0, -393177, 0, 0, -393176, 0, 0, -393175, 0, 0, -393174, 0, 0, -393173, 0, 0, -393172, 0, 0, -393171, 0, 0, -393170, 0, 0, -393169, 0, 0, -393168, 0, 0, -393167, 0, 0, -393166, 0, 0, -393165, 0, 0, -393164, 0, 0, -393163, 0, 0, -393162, 0, 0, -393161, 0, 0, -393160, 0, 0, -393159, 0, 0, -393158, 0, 0, -393157, 0, 0, -393156, 0, 0, -393155, 0, 0, -393154, 0, 0, -262171, 0, 0, -262170, 0, 0, -262169, 0, 0, -262168, 0, 0, -262167, 0, 0, -262166, 0, 0, -262165, 0, 0, -262164, 0, 0, -262163, 0, 0, -262162, 0, 0, -262161, 0, 0, -262160, 0, 0, -262159, 0, 0, -262158, 0, 0, -262157, 0, 0, -262156, 0, 0, -262155, 0, 0, -262154, 0, 0, -262153, 0, 0, -262152, 0, 0, -262151, 0, 0, -262150, 0, 0, -262149, 0, 0, -262148, 0, 0, -262147, 0, 0, -262146, 0, 0, -262145, 0, 0, -327680, 0, 0, -327679, 0, 0, -327678, 0, 0, -327677, 0, 0, -327676, 0, 0, -327675, 0, 0, -327674, 0, 0, -327673, 0, 0, -327672, 0, 0, -327671, 0, 0, -327670, 0, 0, -327669, 0, 0, -327668, 0, 0, -327667, 0, 0, -327666, 0, 0, -327665, 0, 0, -327664, 0, 0, -327663, 0, 0, -327662, 0, 0, -327661, 0, 0, -327660, 0, 0, -327659, 0, 0, -327658, 0, 0, -327657, 0, 0, -327656, 0, 0, -327655, 0, 0, -327654, 0, 0, -327653, 0, 0, -327652, 0, 0, -327651, 0, 0, -327650, 0, 0, -327649, 0, 0, -327648, 0, 0, -327647, 0, 0, -327646, 0, 0, -327645, 0, 0, -327644, 0, 0, -327643, 0, 0, -327642, 0, 0, -327641, 0, 0, -327640, 0, 0, -327639, 0, 0, -327638, 0, 0, -327637, 0, 0, -327636, 0, 0, -327635, 0, 0, -327634, 0, 0, -327633, 0, 0, -327632, 0, 0, -327631, 0, 0, -327630, 0, 0, -327629, 0, 0, -327628, 0, 0, -327627, 0, 0, -327626, 0, 0, -327625, 0, 0, -327624, 0, 0, -327623, 0, 0, -327622, 0, 0, -327621, 0, 0, -327620, 0, 0, -327619, 0, 0, -327618, 0, 0, -196635, 0, 0, -196634, 0, 0, -196633, 0, 0, -196632, 0, 0, -196631, 0, 0, -196630, 0, 0, -196629, 0, 0, -196628, 0, 0, -196627, 0, 0, -196626, 0, 0, -196625, 0, 0, -196624, 0, 0, -196623, 0, 0, -196622, 0, 0, -196621, 0, 0, -196620, 0, 0, -196619, 0, 0, -196618, 0, 0, -196617, 0, 0, -196616, 0, 0, -196615, 0, 0, -196614, 0, 0, -196613, 0, 0, -196612, 0, 0, -196611, 0, 0, -196610, 0, 0, -196609, 0, 0, -262144, 0, 0, -262143, 0, 0, -262142, 0, 0, -262141, 0, 0, -262140, 0, 0, -262139, 0, 0, -262138, 0, 0, -262137, 0, 0, -262136, 0, 0, -262135, 0, 0, -262134, 0, 0, -262133, 0, 0, -262132, 0, 0, -262131, 0, 0, -262130, 0, 0, -262129, 0, 0, -262128, 0, 0, -262127, 0, 0, -262126, 0, 0, -262125, 0, 0, -262124, 0, 0, -262123, 0, 0, -262122, 0, 0, -262121, 0, 0, -262120, 0, 0, -262119, 0, 0, -262118, 0, 0, -262117, 0, 0, -262116, 0, 0, -262115, 0, 0, -262114, 0, 0, -262113, 0, 0, -262112, 0, 0, -262111, 0, 0, -262110, 0, 0, -262109, 0, 0, -262108, 0, 0, -262107, 0, 0, -262106, 0, 0, -262105, 0, 0, -262104, 0, 0, -262103, 0, 0, -262102, 0, 0, -262101, 0, 0, -262100, 0, 0, -262099, 0, 0, -262098, 0, 0, -262097, 0, 0, -262096, 0, 0, -262095, 0, 0, -262094, 0, 0, -262093, 0, 0, -262092, 0, 0, -262091, 0, 0, -262090, 0, 0, -262089, 0, 0, -262088, 0, 0, -262087, 0, 0, -262086, 0, 0, -262085, 0, 0, -262084, 0, 0, -262083, 0, 0, -262082, 0, 0, -131099, 0, 0, -131098, 0, 0, -131097, 0, 0, -131096, 0, 0, -131095, 0, 0, -131094, 0, 0, -131093, 0, 0, -131092, 0, 0, -131091, 0, 0, -131090, 0, 0, -131089, 0, 0, -131088, 0, 0, -131087, 0, 0, -131086, 0, 0, -131085, 0, 0, -131084, 0, 0, -131083, 0, 0, -131082, 0, 0, -131081, 0, 0, -131080, 0, 0, -131079, 0, 0, -131078, 0, 0, -131077, 0, 0, -131076, 0, 0, -131075, 0, 0, -131074, 0, 0, -131073, 0, 0, -196608, 0, 0, -196607, 0, 0, -196606, 0, 0, -196605, 0, 0, -196604, 0, 0, -196603, 0, 0, -196602, 0, 0, -196601, 0, 0, -196600, 0, 0, -196599, 0, 0, -196598, 0, 0, -196597, 0, 0, -196596, 0, 0, -196595, 0, 0, -196594, 0, 0, -196593, 0, 0, -196592, 0, 0, -196591, 0, 0, -196590, 0, 0, -196589, 0, 0, -196588, 0, 0, -196587, 0, 0, -196586, 0, 0, -196585, 0, 0, -196584, 0, 0, -196583, 0, 0, -196582, 0, 0, -196581, 0, 0, -196580, 0, 0, -196579, 0, 0, -196578, 0, 0, -196577, 0, 0, -196576, 0, 0, -196575, 0, 0, -196574, 0, 0, -196573, 0, 0, -196572, 0, 0, -196571, 0, 0, -196570, 0, 0, -196569, 0, 0, -196568, 0, 0, -196567, 0, 0, -196566, 0, 0, -196565, 0, 0, -196564, 0, 0, -196563, 0, 0, -196562, 0, 0, -196561, 0, 0, -196560, 0, 0, -196559, 0, 0, -196558, 0, 0, -196557, 0, 0, -196556, 0, 0, -196555, 0, 0, -196554, 0, 0, -196553, 0, 0, -196552, 0, 0, -196551, 0, 0, -196550, 0, 0, -196549, 0, 0, -196548, 0, 0, -196547, 0, 0, -196546, 0, 0, -65563, 0, 0, -65562, 0, 0, -65561, 0, 0, -65560, 0, 0, -65559, 0, 0, -65558, 0, 0, -65557, 0, 0, -65556, 0, 0, -65555, 0, 0, -65554, 0, 0, -65553, 0, 0, -65552, 0, 0, -65551, 0, 0, -65550, 0, 0, -65549, 0, 0, -65548, 0, 0, -65547, 0, 0, -65546, 0, 0, -65545, 0, 0, -65544, 0, 0, -65543, 0, 0, -65542, 0, 0, -65541, 0, 0, -65540, 0, 0, -65539, 0, 0, -65538, 0, 0, -65537, 0, 0, -131072, 0, 0, -131071, 0, 0, -131070, 0, 0, -131069, 0, 0, -131068, 0, 0, -131067, 0, 0, -131066, 0, 0, -131065, 0, 0, -131064, 0, 0, -131063, 0, 0, -131062, 0, 0, -131061, 0, 0, -131060, 0, 0, -131059, 0, 0, -131058, 0, 0, -131057, 0, 0, -131056, 0, 0, -131055, 0, 0, -131054, 0, 0, -131053, 0, 0, -131052, 0, 0, -131051, 0, 0, -131050, 0, 0, -131049, 0, 0, -131048, 0, 0, -131047, 0, 0, -131046, 0, 0, -131045, 0, 0, -131044, 0, 0, -131043, 0, 0, -131042, 0, 0, -131041, 0, 0, -131040, 0, 0, -131039, 0, 0, -131038, 0, 0, -131037, 0, 0, -131036, 0, 0, -131035, 0, 0, -131034, 0, 0, -131033, 0, 0, -131032, 0, 0, -131031, 0, 0, -131030, 0, 0, -131029, 0, 0, -131028, 0, 0, -131027, 0, 0, -131026, 0, 0, -131025, 0, 0, -131024, 0, 0, -131023, 0, 0, -131022, 0, 0, -131021, 0, 0, -131020, 0, 0, -131019, 0, 0, -131018, 0, 0, -131017, 0, 0, -131016, 0, 0, -131015, 0, 0, -131014, 0, 0, -131013, 0, 0, -131012, 0, 0, -131011, 0, 0, -131010, 0, 0, -27, 0, 0, -26, 0, 0, -25, 0, 0, -24, 0, 0, -23, 0, 0, -22, 0, 0, -21, 0, 0, -20, 0, 0, -19, 0, 0, -18, 0, 0, -17, 0, 0, -16, 0, 0, -15, 0, 0, -14, 0, 0, -13, 0, 0, -12, 0, 0, -11, 0, 0, -10, 0, 0, -9, 0, 0, -8, 0, 0, -7, 0, 0, -6, 0, 0, -5, 0, 0, -4, 0, 0, -3, 0, 0, -2, 0, 0, -1, 0, 0, -65536, 0, 0, -65535, 0, 0, -65534, 0, 0, -65533, 0, 0, -65532, 0, 0, -65531, 0, 0, -65530, 0, 0, -65529, 0, 0, -65528, 0, 0, -65527, 0, 0, -65526, 0, 0, -65525, 0, 0, -65524, 0, 0, -65523, 0, 0, -65522, 0, 0, -65521, 0, 0, -65520, 0, 0, -65519, 0, 0, -65518, 0, 0, -65517, 0, 0, -65516, 0, 0, -65515, 0, 0, -65514, 0, 0, -65513, 0, 0, -65512, 0, 0, -65511, 0, 0, -65510, 0, 0, -65509, 0, 0, -65508, 0, 0, -65507, 0, 0, -65506, 0, 0, -65505, 0, 0, -65504, 0, 0, -65503, 0, 0, -65502, 0, 0, -65501, 0, 0, -65500, 0, 0, -65499, 0, 0, -65498, 0, 0, -65497, 0, 0, -65496, 0, 0, -65495, 0, 0, -65494, 0, 0, -65493, 0, 0, -65492, 0, 0, -65491, 0, 0, -65490, 0, 0, -65489, 0, 0, -65488, 0, 0, -65487, 0, 0, -65486, 0, 0, -65485, 0, 0, -65484, 0, 0, -65483, 0, 0, -65482, 0, 0, -65481, 0, 0, -65480, 0, 0, -65479, 0, 0, -65478, 0, 0, -65477, 0, 0, -65476, 0, 0, -65475, 0, 0, -65474, 0, 0, 65509, 0, 0, 65510, 0, 0, 65511, 0, 0, 65512, 0, 0, 65513, 0, 0, 65514, 0, 0, 65515, 0, 0, 65516, 0, 0, 65517, 0, 0, 65518, 0, 0, 65519, 0, 0, 65520, 0, 0, 65521, 0, 0, 65522, 0, 0, 65523, 0, 0, 65524, 0, 0, 65525, 0, 0, 65526, 0, 0, 65527, 0, 0, 65528, 0, 0, 65529, 0, 0, 65530, 0, 0, 65531, 0, 0, 65532, 0, 0, 65533, 0, 0, 65534, 0, 0, 65535, 0, 0, 0, 0, 0, 1, 0, 0, 2, 0, 0, 3, 0, 0, 4, 0, 0, 5, 0, 0, 6, 0, 0, 7, 0, 0, 8, 0, 0, 9, 0, 0, 10, 0, 0, 11, 0, 0, 12, 0, 0, 13, 0, 0, 14, 0, 0, 15, 0, 0, 16, 0, 0, 17, 0, 0, 18, 0, 0, 19, 0, 0, 20, 0, 0, 21, 0, 0, 22, 0, 0, 23, 0, 0, 24, 0, 0, 25, 0, 0, 26, 0, 0, 27, 0, 0, 28, 0, 0, 29, 0, 0, 30, 0, 0, 31, 0, 0, 32, 0, 0, 33, 0, 0, 34, 0, 0, 35, 0, 0, 36, 0, 0, 37, 0, 0, 38, 0, 0, 39, 0, 0, 40, 0, 0, 41, 0, 0, 42, 0, 0, 43, 0, 0, 44, 0, 0, 45, 0, 0, 46, 0, 0, 47, 0, 0, 48, 0, 0, 49, 0, 0, 50, 0, 0, 51, 0, 0, 52, 0, 0, 53, 0, 0, 54, 0, 0, 55, 0, 0, 56, 0, 0, 57, 0, 0, 58, 0, 0, 59, 0, 0, 60, 0, 0, 61, 0, 0, 62, 0, 0, 131045, 0, 0, 131046, 0, 0, 131047, 0, 0, 131048, 0, 0, 131049, 0, 0, 131050, 0, 0, 131051, 0, 0, 131052, 0, 0, 131053, 0, 0, 131054, 0, 0, 131055, 0, 0, 131056, 0, 0, 131057, 0, 0, 131058, 0, 0, 131059, 0, 0, 131060, 0, 0, 131061, 0, 0, 131062, 0, 0, 131063, 0, 0, 131064, 0, 0, 131065, 0, 0, 131066, 0, 0, 131067, 0, 0, 131068, 0, 0, 131069, 0, 0, 131070, 0, 0, 131071, 0, 0, 65536, 0, 0, 65537, 0, 0, 65538, 0, 0, 65539, 0, 0, 65540, 0, 0, 65541, 0, 0, 65542, 0, 0, 65543, 0, 0, 65544, 0, 0, 65545, 0, 0, 65546, 0, 0, 65547, 0, 0, 65548, 0, 0, 65549, 0, 0, 65550, 0, 0, 65551, 0, 0, 65552, 0, 0, 65553, 0, 0, 65554, 0, 0, 65555, 0, 0, 65556, 0, 0, 65557, 0, 0, 65558, 0, 0, 65559, 0, 0, 65560, 0, 0, 65561, 0, 0, 65562, 0, 0, 65563, 0, 0, 65564, 0, 0, 65565, 0, 0, 65566, 0, 0, 65567, 0, 0, 65568, 0, 0, 65569, 0, 0, 65570, 0, 0, 65571, 0, 0, 65572, 0, 0, 65573, 0, 0, 65574, 0, 0, 65575, 0, 0, 65576, 0, 0, 65577, 0, 0, 65578, 0, 0, 65579, 0, 0, 65580, 0, 0, 65581, 0, 0, 65582, 0, 0, 65583, 0, 0, 65584, 0, 0, 65585, 0, 0, 65586, 0, 0, 65587, 0, 0, 65588, 0, 0, 65589, 0, 0, 65590, 0, 0, 65591, 0, 0, 65592, 0, 0, 65593, 0, 0, 65594, 0, 0, 65595, 0, 0, 65596, 0, 0, 65597, 0, 0, 65598, 0, 0, 196581, 0, 0, 196582, 0, 0, 196583, 0, 0, 196584, 0, 0, 196585, 0, 0, 196586, 0, 0, 196587, 0, 0, 196588, 0, 0, 196589, 0, 0, 196590, 0, 0, 196591, 0, 0, 196592, 0, 0, 196593, 0, 0, 196594, 0, 0, 196595, 0, 0, 196596, 0, 0, 196597, 0, 0, 196598, 0, 0, 196599, 0, 0, 196600, 0, 0, 196601, 0, 0, 196602, 0, 0, 196603, 0, 0, 196604, 0, 0, 196605, 0, 0, 196606, 0, 0, 196607, 0, 0, 131072, 0, 0, 131073, 0, 0, 131074, 0, 0, 131075, 0, 0, 131076, 0, 0, 131077, 0, 0, 131078, 0, 0, 131079, 0, 0, 131080, 0, 0, 131081, 0, 0, 131082, 0, 0, 131083, 0, 0, 131084, 0, 0, 131085, 0, 0, 131086, 0, 0, 131087, 0, 0, 131088, 0, 0, 131089, 0, 0, 131090, 0, 0, 131091, 0, 0, 131092, 0, 0, 131093, 0, 0, 131094, 0, 0, 131095, 0, 0, 131096, 0, 0, 131097, 0, 0, 131098, 0, 0, 131099, 0, 0, 131100, 0, 0, 131101, 0, 0, 131102, 0, 0, 131103, 0, 0, 131104, 0, 0, 131105, 0, 0, 131106, 0, 0, 131107, 0, 0, 131108, 0, 0, 131109, 0, 0, 131110, 0, 0, 131111, 0, 0, 131112, 0, 0, 131113, 0, 0, 131114, 0, 0, 131115, 0, 0, 131116, 0, 0, 131117, 0, 0, 131118, 0, 0, 131119, 0, 0, 131120, 0, 0, 131121, 0, 0, 131122, 0, 0, 131123, 0, 0, 131124, 0, 0, 131125, 0, 0, 131126, 0, 0, 131127, 0, 0, 131128, 0, 0, 131129, 0, 0, 131130, 0, 0, 131131, 0, 0, 131132, 0, 0, 131133, 0, 0, 131134, 0, 0, 262117, 0, 0, 262118, 0, 0, 262119, 0, 0, 262120, 0, 0, 262121, 0, 0, 262122, 0, 0, 262123, 0, 0, 262124, 0, 0, 262125, 0, 0, 262126, 0, 0, 262127, 0, 0, 262128, 0, 0, 262129, 0, 0, 262130, 0, 0, 262131, 0, 0, 262132, 0, 0, 262133, 0, 0, 262134, 0, 0, 262135, 0, 0, 262136, 0, 0, 262137, 0, 0, 262138, 0, 0, 262139, 0, 0, 262140, 0, 0, 262141, 0, 0, 262142, 0, 0, 262143, 0, 0, 196608, 0, 0, 196609, 0, 0, 196610, 0, 0, 196611, 0, 0, 196612, 0, 0, 196613, 0, 0, 196614, 0, 0, 196615, 0, 0, 196616, 0, 0, 196617, 0, 0, 196618, 0, 0, 196619, 0, 0, 196620, 0, 0, 196621, 0, 0, 196622, 0, 0, 196623, 0, 0, 196624, 0, 0, 196625, 0, 0, 196626, 0, 0, 196627, 0, 0, 196628, 0, 0, 196629, 0, 0, 196630, 0, 0, 196631, 0, 0, 196632, 0, 0, 196633, 0, 0, 196634, 0, 0, 196635, 0, 0, 196636, 0, 0, 196637, 0, 0, 196638, 0, 0, 196639, 0, 0, 196640, 0, 0, 196641, 0, 0, 196642, 0, 0, 196643, 0, 0, 196644, 0, 0, 196645, 0, 0, 196646, 0, 0, 196647, 0, 0, 196648, 0, 0, 196649, 0, 0, 196650, 0, 0, 196651, 0, 0, 196652, 0, 0, 196653, 0, 0, 196654, 0, 0, 196655, 0, 0, 196656, 0, 0, 196657, 0, 0, 196658, 0, 0, 196659, 0, 0, 196660, 0, 0, 196661, 0, 0, 196662, 0, 0, 196663, 0, 0, 196664, 0, 0, 196665, 0, 0, 196666, 0, 0, 196667, 0, 0, 196668, 0, 0, 196669, 0, 0, 196670, 0, 0, 327653, 0, 0, 327654, 0, 0, 327655, 0, 0, 327656, 0, 0, 327657, 0, 0, 327658, 0, 0, 327659, 0, 0, 327660, 0, 0, 327661, 0, 0, 327662, 0, 0, 327663, 0, 0, 327664, 0, 0, 327665, 0, 0, 327666, 0, 0, 327667, 0, 0, 327668, 0, 0, 327669, 0, 0, 327670, 0, 0, 327671, 0, 0, 327672, 0, 0, 327673, 0, 0, 327674, 0, 0, 327675, 0, 0, 327676, 0, 0, 327677, 0, 0, 327678, 0, 0, 327679, 0, 0, 262144, 0, 0, 262145, 0, 0, 262146, 0, 0, 262147, 0, 0, 262148, 0, 0, 262149, 0, 0, 262150, 0, 0, 262151, 0, 0, 262152, 0, 0, 262153, 0, 0, 262154, 0, 0, 262155, 0, 0, 262156, 0, 0, 262157, 0, 0, 262158, 0, 0, 262159, 0, 0, 262160, 0, 0, 262161, 0, 0, 262162, 0, 0, 262163, 0, 0, 262164, 0, 0, 262165, 0, 0, 262166, 0, 0, 262167, 0, 0, 262168, 0, 0, 262169, 0, 0, 262170, 0, 0, 262171, 0, 0, 262172, 0, 0, 262173, 0, 0, 262174, 0, 0, 262175, 0, 0, 262176, 0, 0, 262177, 0, 0, 262178, 0, 0, 262179, 0, 0, 262180, 0, 0, 262181, 0, 0, 262182, 0, 0, 262183, 0, 0, 262184, 0, 0, 262185, 0, 0, 262186, 0, 0, 262187, 0, 0, 262188, 0, 0, 262189, 0, 0, 262190, 0, 0, 262191, 0, 0, 262192, 0, 0, 262193, 0, 0, 262194, 0, 0, 262195, 0, 0, 262196, 0, 0, 262197, 0, 0, 262198, 0, 0, 262199, 0, 0, 262200, 0, 0, 262201, 0, 0, 262202, 0, 0, 262203, 0, 0, 262204, 0, 0, 262205, 0, 0, 262206, 0, 0, 393189, 0, 0, 393190, 0, 0, 393191, 0, 0, 393192, 0, 0, 393193, 0, 0, 393194, 0, 0, 393195, 0, 0, 393196, 0, 0, 393197, 0, 0, 393198, 0, 0, 393199, 0, 0, 393200, 0, 0, 393201, 0, 0, 393202, 0, 0, 393203, 0, 0, 393204, 0, 0, 393205, 0, 0, 393206, 0, 0, 393207, 0, 0, 393208, 0, 0, 393209, 0, 0, 393210, 0, 0, 393211, 0, 0, 393212, 0, 0, 393213, 0, 0, 393214, 0, 0, 393215, 0, 0, 327680, 0, 0, 327681, 0, 0, 327682, 0, 0, 327683, 0, 0, 327684, 0, 0, 327685, 0, 0, 327686, 0, 0, 327687, 0, 0, 327688, 0, 0, 327689, 0, 0, 327690, 0, 0, 327691, 0, 0, 327692, 0, 0, 327693, 0, 0, 327694, 0, 0, 327695, 0, 0, 327696, 0, 0, 327697, 0, 0, 327698, 0, 0, 327699, 0, 0, 327700, 0, 0, 327701, 0, 0, 327702, 0, 0, 327703, 0, 0, 327704, 0, 0, 327705, 0, 0, 327706, 0, 0, 327707, 0, 0, 327708, 0, 0, 327709, 0, 0, 327710, 0, 0, 327711, 0, 0, 327712, 0, 0, 327713, 0, 0, 327714, 0, 0, 327715, 0, 0, 327716, 0, 0, 327717, 0, 0, 327718, 0, 0, 327719, 0, 0, 327720, 0, 0, 327721, 0, 0, 327722, 0, 0, 327723, 0, 0, 327724, 0, 0, 327725, 0, 0, 327726, 0, 0, 327727, 0, 0, 327728, 0, 0, 327729, 0, 0, 327730, 0, 0, 327731, 0, 0, 327732, 0, 0, 327733, 0, 0, 327734, 0, 0, 327735, 0, 0, 327736, 0, 0, 327737, 0, 0, 327738, 0, 0, 327739, 0, 0, 327740, 0, 0, 327741, 0, 0, 327742, 0, 0, 458725, 0, 0, 458726, 0, 0, 458727, 0, 0, 458728, 0, 0, 458729, 0, 0, 458730, 0, 0, 458731, 0, 0, 458732, 0, 0, 458733, 0, 0, 458734, 0, 0, 458735, 0, 0, 458736, 0, 0, 458737, 0, 0, 458738, 0, 0, 458739, 0, 0, 458740, 0, 0, 458741, 0, 0, 458742, 0, 0, 458743, 0, 0, 458744, 0, 0, 458745, 0, 0, 458746, 0, 0, 458747, 0, 0, 458748, 0, 0, 458749, 0, 0, 458750, 0, 0, 458751, 0, 0, 393216, 0, 0, 393217, 0, 0, 393218, 0, 0, 393219, 0, 0, 393220, 0, 0, 393221, 0, 0, 393222, 0, 0, 393223, 0, 0, 393224, 0, 0, 393225, 0, 0, 393226, 0, 0, 393227, 0, 0, 393228, 0, 0, 393229, 0, 0, 393230, 0, 0, 393231, 0, 0, 393232, 0, 0, 393233, 0, 0, 393234, 0, 0, 393235, 0, 0, 393236, 0, 0, 393237, 0, 0, 393238, 0, 0, 393239, 0, 0, 393240, 0, 0, 393241, 0, 0, 393242, 0, 0, 393243, 0, 0, 393244, 0, 0, 393245, 0, 0, 393246, 0, 0, 393247, 0, 0, 393248, 0, 0, 393249, 0, 0, 393250, 0, 0, 393251, 0, 0, 393252, 0, 0, 393253, 0, 0, 393254, 0, 0, 393255, 0, 0, 393256, 0, 0, 393257, 0, 0, 393258, 0, 0, 393259, 0, 0, 393260, 0, 0, 393261, 0, 0, 393262, 0, 0, 393263, 0, 0, 393264, 0, 0, 393265, 0, 0, 393266, 0, 0, 393267, 0, 0, 393268, 0, 0, 393269, 0, 0, 393270, 0, 0, 393271, 0, 0, 393272, 0, 0, 393273, 0, 0, 393274, 0, 0, 393275, 0, 0, 393276, 0, 0, 393277, 0, 0, 393278, 0, 0, 524261, 0, 0, 524262, 0, 0, 524263, 0, 0, 524264, 0, 0, 524265, 0, 0, 524266, 0, 0, 524267, 0, 0, 524268, 0, 0, 524269, 0, 0, 524270, 0, 0, 524271, 0, 0, 524272, 0, 0, 524273, 0, 0, 524274, 0, 0, 524275, 0, 0, 524276, 0, 0, 524277, 0, 0, 524278, 0, 0, 524279, 0, 0, 524280, 0, 0, 524281, 0, 0, 524282, 0, 0, 524283, 0, 0, 524284, 0, 0, 524285, 0, 0, 524286, 0, 0, 524287, 0, 0, 458752, 0, 0, 458753, 0, 0, 458754, 0, 0, 458755, 0, 0, 458756, 0, 0, 458757, 0, 0, 458758, 0, 0, 458759, 0, 0, 458760, 0, 0, 458761, 0, 0, 458762, 0, 0, 458763, 0, 0, 458764, 0, 0, 458765, 0, 0, 458766, 0, 0, 458767, 0, 0, 458768, 0, 0, 458769, 0, 0, 458770, 0, 0, 458771, 0, 0, 458772, 0, 0, 458773, 0, 0, 458774, 0, 0, 458775, 0, 0, 458776, 0, 0, 458777, 0, 0, 458778, 0, 0, 458779, 0, 0, 458780, 0, 0, 458781, 0, 0, 458782, 0, 0, 458783, 0, 0, 458784, 0, 0, 458785, 0, 0, 458786, 0, 0, 458787, 0, 0, 458788, 0, 0, 458789, 0, 0, 458790, 0, 0, 458791, 0, 0, 458792, 0, 0, 458793, 0, 0, 458794, 0, 0, 458795, 0, 0, 458796, 0, 0, 458797, 0, 0, 458798, 0, 0, 458799, 0, 0, 458800, 0, 0, 458801, 0, 0, 458802, 0, 0, 458803, 0, 0, 458804, 0, 0, 458805, 0, 0, 458806, 0, 0, 458807, 0, 0, 458808, 0, 0, 458809, 0, 0, 458810, 0, 0, 458811, 0, 0, 458812, 0, 0, 458813, 0, 0, 458814, 0, 0, 589797, 0, 0, 589798, 0, 0, 589799, 0, 0, 589800, 0, 0, 589801, 0, 0, 589802, 0, 0, 589803, 0, 0, 589804, 0, 0, 589805, 0, 0, 589806, 0, 0, 589807, 0, 0, 589808, 0, 0, 589809, 0, 0, 589810, 0, 0, 589811, 0, 0, 589812, 0, 0, 589813, 0, 0, 589814, 0, 0, 589815, 0, 0, 589816, 0, 0, 589817, 0, 0, 589818, 0, 0, 589819, 0, 0, 589820, 0, 0, 589821, 0, 0, 589822, 0, 0, 589823, 0, 0, 524288, 0, 0, 524289, 0, 0, 524290, 0, 0, 524291, 0, 0, 524292, 0, 0, 524293, 0, 0, 524294, 0, 0, 524295, 0, 0, 524296, 0, 0, 524297, 0, 0, 524298, 0, 0, 524299, 0, 0, 524300, 0, 0, 524301, 0, 0, 524302, 0, 0, 524303, 0, 0, 524304, 0, 0, 524305, 0, 0, 524306, 0, 0, 524307, 0, 0, 524308, 0, 0, 524309, 0, 0, 524310, 0, 0, 524311, 0, 0, 524312, 0, 0, 524313, 0, 0, 524314, 0, 0, 524315, 0, 0, 524316, 0, 0, 524317, 0, 0, 524318, 0, 0, 524319, 0, 0, 524320, 0, 0, 524321, 0, 0, 524322, 0, 0, 524323, 0, 0, 524324, 0, 0, 524325, 0, 0, 524326, 0, 0, 524327, 0, 0, 524328, 0, 0, 524329, 0, 0, 524330, 0, 0, 524331, 0, 0, 524332, 0, 0, 524333, 0, 0, 524334, 0, 0, 524335, 0, 0, 524336, 0, 0, 524337, 0, 0, 524338, 0, 0, 524339, 0, 0, 524340, 0, 0, 524341, 0, 0, 524342, 0, 0, 524343, 0, 0, 524344, 0, 0, 524345, 0, 0, 524346, 0, 0, 524347, 0, 0, 524348, 0, 0, 524349, 0, 0, 524350, 0, 0, 655333, 0, 0, 655334, 0, 0, 655335, 0, 0, 655336, 0, 0, 655337, 0, 0, 655338, 0, 0, 655339, 0, 0, 655340, 0, 0, 655341, 0, 0, 655342, 0, 0, 655343, 0, 0, 655344, 0, 0, 655345, 0, 0, 655346, 0, 0, 655347, 0, 0, 655348, 0, 0, 655349, 0, 0, 655350, 0, 0, 655351, 0, 0, 655352, 0, 0, 655353, 0, 0, 655354, 0, 0, 655355, 0, 0, 655356, 0, 0, 655357, 0, 0, 655358, 0, 0, 655359, 0, 0, 589824, 0, 0, 589825, 0, 0, 589826, 0, 0, 589827, 0, 0, 589828, 0, 0, 589829, 0, 0, 589830, 0, 0, 589831, 0, 0, 589832, 0, 0, 589833, 0, 0, 589834, 0, 0, 589835, 0, 0, 589836, 0, 0, 589837, 0, 0, 589838, 0, 0, 589839, 0, 0, 589840, 0, 0, 589841, 0, 0, 589842, 0, 0, 589843, 0, 0, 589844, 0, 0, 589845, 0, 0, 589846, 0, 0, 589847, 0, 0, 589848, 0, 0, 589849, 0, 0, 589850, 0, 0, 589851, 0, 0, 589852, 0, 0, 589853, 0, 0, 589854, 0, 0, 589855, 0, 0, 589856, 0, 0, 589857, 0, 0, 589858, 0, 0, 589859, 0, 0, 589860, 0, 0, 589861, 0, 0, 589862, 0, 0, 589863, 0, 0, 589864, 0, 0, 589865, 0, 0, 589866, 0, 0, 589867, 0, 0, 589868, 0, 0, 589869, 0, 0, 589870, 0, 0, 589871, 0, 0, 589872, 0, 0, 589873, 0, 0, 589874, 0, 0, 589875, 0, 0, 589876, 0, 0, 589877, 0, 0, 589878, 0, 0, 589879, 0, 0, 589880, 0, 0, 589881, 0, 0, 589882, 0, 0, 589883, 0, 0, 589884, 0, 0, 589885, 0, 0, 589886, 0, 0, 720869, 0, 0, 720870, 0, 0, 720871, 0, 0, 720872, 0, 0, 720873, 0, 0, 720874, 0, 0, 720875, 0, 0, 720876, 0, 0, 720877, 0, 0, 720878, 0, 0, 720879, 0, 0, 720880, 0, 0, 720881, 0, 0, 720882, 0, 0, 720883, 0, 0, 720884, 0, 0, 720885, 0, 0, 720886, 0, 0, 720887, 0, 0, 720888, 0, 0, 720889, 0, 0, 720890, 0, 0, 720891, 0, 0, 720892, 0, 0, 720893, 0, 0, 720894, 0, 0, 720895, 0, 0, 655360, 0, 0, 655361, 0, 0, 655362, 0, 0, 655363, 0, 0, 655364, 0, 0, 655365, 0, 0, 655366, 0, 0, 655367, 0, 0, 655368, 0, 0, 655369, 0, 0, 655370, 0, 0, 655371, 0, 0, 655372, 0, 0, 655373, 0, 0, 655374, 0, 0, 655375, 0, 0, 655376, 0, 0, 655377, 0, 0, 655378, 0, 0, 655379, 0, 0, 655380, 0, 0, 655381, 0, 0, 655382, 0, 0, 655383, 0, 0, 655384, 0, 0, 655385, 0, 0, 655386, 0, 0, 655387, 0, 0, 655388, 0, 0, 655389, 0, 0, 655390, 0, 0, 655391, 0, 0, 655392, 0, 0, 655393, 0, 0, 655394, 0, 0, 655395, 0, 0, 655396, 0, 0, 655397, 0, 0, 655398, 0, 0, 655399, 0, 0, 655400, 0, 0, 655401, 0, 0, 655402, 0, 0, 655403, 0, 0, 655404, 0, 0, 655405, 0, 0, 655406, 0, 0, 655407, 0, 0, 655408, 0, 0, 655409, 0, 0, 655410, 0, 0, 655411, 0, 0, 655412, 0, 0, 655413, 0, 0, 655414, 0, 0, 655415, 0, 0, 655416, 0, 0, 655417, 0, 0, 655418, 0, 0, 655419, 0, 0, 655420, 0, 0, 655421, 0, 0, 655422, 0, 0, 786405, 0, 0, 786406, 0, 0, 786407, 0, 0, 786408, 0, 0, 786409, 0, 0, 786410, 0, 0, 786411, 0, 0, 786412, 0, 0, 786413, 0, 0, 786414, 0, 0, 786415, 0, 0, 786416, 0, 0, 786417, 0, 0, 786418, 0, 0, 786419, 0, 0, 786420, 0, 0, 786421, 0, 0, 786422, 0, 0, 786423, 0, 0, 786424, 0, 0, 786425, 0, 0, 786426, 0, 0, 786427, 0, 0, 786428, 0, 0, 786429, 0, 0, 786430, 0, 0, 786431, 0, 0, 720896, 0, 0, 720897, 0, 0, 720898, 0, 0, 720899, 0, 0, 720900, 0, 0, 720901, 0, 0, 720902, 0, 0, 720903, 0, 0, 720904, 0, 0, 720905, 0, 0, 720906, 0, 0, 720907, 0, 0, 720908, 0, 0, 720909, 0, 0, 720910, 0, 0, 720911, 0, 0, 720912, 0, 0, 720913, 0, 0, 720914, 0, 0, 720915, 0, 0, 720916, 0, 0, 720917, 0, 0, 720918, 0, 0, 720919, 0, 0, 720920, 0, 0, 720921, 0, 0, 720922, 0, 0, 720923, 0, 0, 720924, 0, 0, 720925, 0, 0, 720926, 0, 0, 720927, 0, 0, 720928, 0, 0, 720929, 0, 0, 720930, 0, 0, 720931, 0, 0, 720932, 0, 0, 720933, 0, 0, 720934, 0, 0, 720935, 0, 0, 720936, 0, 0, 720937, 0, 0, 720938, 0, 0, 720939, 0, 0, 720940, 0, 0, 720941, 0, 0, 720942, 0, 0, 720943, 0, 0, 720944, 0, 0, 720945, 0, 0, 720946, 0, 0, 720947, 0, 0, 720948, 0, 0, 720949, 0, 0, 720950, 0, 0, 720951, 0, 0, 720952, 0, 0, 720953, 0, 0, 720954, 0, 0, 720955, 0, 0, 720956, 0, 0, 720957, 0, 0, 720958, 0, 0, 851941, 0, 0, 851942, 0, 0, 851943, 0, 0, 851944, 0, 0, 851945, 0, 0, 851946, 0, 0, 851947, 0, 0, 851948, 0, 0, 851949, 0, 0, 851950, 0, 0, 851951, 0, 0, 851952, 0, 0, 851953, 0, 0, 851954, 0, 0, 851955, 0, 0, 851956, 0, 0, 851957, 0, 0, 851958, 0, 0, 851959, 0, 0, 851960, 0, 0, 851961, 0, 0, 851962, 0, 0, 851963, 0, 0, 851964, 0, 0, 851965, 0, 0, 851966, 0, 0, 851967, 0, 0, 786432, 0, 0, 786433, 0, 0, 786434, 0, 0, 786435, 0, 0, 786436, 0, 0, 786437, 0, 0, 786438, 0, 0, 786439, 0, 0, 786440, 0, 0, 786441, 0, 0, 786442, 0, 0, 786443, 0, 0, 786444, 0, 0, 786445, 0, 0, 786446, 0, 0, 786447, 0, 0, 786448, 0, 0, 786449, 0, 0, 786450, 0, 0, 786451, 0, 0, 786452, 0, 0, 786453, 0, 0, 786454, 0, 0, 786455, 0, 0, 786456, 0, 0, 786457, 0, 0, 786458, 0, 0, 786459, 0, 0, 786460, 0, 0, 786461, 0, 0, 786462, 0, 0, 786463, 0, 0, 786464, 0, 0, 786465, 0, 0, 786466, 0, 0, 786467, 0, 0, 786468, 0, 0, 786469, 0, 0, 786470, 0, 0, 786471, 0, 0, 786472, 0, 0, 786473, 0, 0, 786474, 0, 0, 786475, 0, 0, 786476, 0, 0, 786477, 0, 0, 786478, 0, 0, 786479, 0, 0, 786480, 0, 0, 786481, 0, 0, 786482, 0, 0, 786483, 0, 0, 786484, 0, 0, 786485, 0, 0, 786486, 0, 0, 786487, 0, 0, 786488, 0, 0, 786489, 0, 0, 786490, 0, 0, 786491, 0, 0, 786492, 0, 0, 786493, 0, 0, 786494, 0, 0, 917477, 0, 0, 917478, 0, 0, 917479, 0, 0, 917480, 0, 0, 917481, 0, 0, 917482, 0, 0, 917483, 0, 0, 917484, 0, 0, 917485, 0, 0, 917486, 0, 0, 917487, 0, 0, 917488, 0, 0, 917489, 0, 0, 917490, 0, 0, 917491, 0, 0, 917492, 0, 0, 917493, 0, 0, 917494, 0, 0, 917495, 0, 0, 917496, 0, 0, 917497, 0, 0, 917498, 0, 0, 917499, 0, 0, 917500, 0, 0, 917501, 0, 0, 917502, 0, 0, 917503, 0, 0, 851968, 0, 0, 851969, 0, 0, 851970, 0, 0, 851971, 0, 0, 851972, 0, 0, 851973, 0, 0, 851974, 0, 0, 851975, 0, 0, 851976, 0, 0, 851977, 0, 0, 851978, 0, 0, 851979, 0, 0, 851980, 0, 0, 851981, 0, 0, 851982, 0, 0, 851983, 0, 0, 851984, 0, 0, 851985, 0, 0, 851986, 0, 0, 851987, 0, 0, 851988, 0, 0, 851989, 0, 0, 851990, 0, 0, 851991, 0, 0, 851992, 0, 0, 851993, 0, 0, 851994, 0, 0, 851995, 0, 0, 851996, 0, 0, 851997, 0, 0, 851998, 0, 0, 851999, 0, 0, 852000, 0, 0, 852001, 0, 0, 852002, 0, 0, 852003, 0, 0, 852004, 0, 0, 852005, 0, 0, 852006, 0, 0, 852007, 0, 0, 852008, 0, 0, 852009, 0, 0, 852010, 0, 0, 852011, 0, 0, 852012, 0, 0, 852013, 0, 0, 852014, 0, 0, 852015, 0, 0, 852016, 0, 0, 852017, 0, 0, 852018, 0, 0, 852019, 0, 0, 852020, 0, 0, 852021, 0, 0, 852022, 0, 0, 852023, 0, 0, 852024, 0, 0, 852025, 0, 0, 852026, 0, 0, 852027, 0, 0, 852028, 0, 0, 852029, 0, 0, 852030, 0, 0, 983013, 0, 0, 983014, 0, 0, 983015, 0, 0, 983016, 0, 0, 983017, 0, 0, 983018, 0, 0, 983019, 0, 0, 983020, 0, 0, 983021, 0, 0, 983022, 0, 0, 983023, 0, 0, 983024, 0, 0, 983025, 0, 0, 983026, 0, 0, 983027, 0, 0, 983028, 0, 0, 983029, 0, 0, 983030, 0, 0, 983031, 0, 0, 983032, 0, 0, 983033, 0, 0, 983034, 0, 0, 983035, 0, 0, 983036, 0, 0, 983037, 0, 0, 983038, 0, 0, 983039, 0, 0, 917504, 0, 0, 917505, 0, 0, 917506, 0, 0, 917507, 0, 0, 917508, 0, 0, 917509, 0, 0, 917510, 0, 0, 917511, 0, 0, 917512, 0, 0, 917513, 0, 0, 917514, 0, 0, 917515, 0, 0, 917516, 0, 0, 917517, 0, 0, 917518, 0, 0, 917519, 0, 0, 917520, 0, 0, 917521, 0, 0, 917522, 0, 0, 917523, 0, 0, 917524, 0, 0, 917525, 0, 0, 917526, 0, 0, 917527, 0, 0, 917528, 0, 0, 917529, 0, 0, 917530, 0, 0, 917531, 0, 0, 917532, 0, 0, 917533, 0, 0, 917534, 0, 0, 917535, 0, 0, 917536, 0, 0, 917537, 0, 0, 917538, 0, 0, 917539, 0, 0, 917540, 0, 0, 917541, 0, 0, 917542, 0, 0, 917543, 0, 0, 917544, 0, 0, 917545, 0, 0, 917546, 0, 0, 917547, 0, 0, 917548, 0, 0, 917549, 0, 0, 917550, 0, 0, 917551, 0, 0, 917552, 0, 0, 917553, 0, 0, 917554, 0, 0, 917555, 0, 0, 917556, 0, 0, 917557, 0, 0, 917558, 0, 0, 917559, 0, 0, 917560, 0, 0, 917561, 0, 0, 917562, 0, 0, 917563, 0, 0, 917564, 0, 0, 917565, 0, 0, 917566, 0, 0, 1048549, 0, 0, 1048550, 0, 0, 1048551, 0, 0, 1048552, 0, 0, 1048553, 0, 0, 1048554, 0, 0, 1048555, 0, 0, 1048556, 0, 0, 1048557, 0, 0, 1048558, 0, 0, 1048559, 0, 0, 1048560, 0, 0, 1048561, 0, 0, 1048562, 0, 0, 1048563, 0, 0, 1048564, 0, 0, 1048565, 0, 0, 1048566, 0, 0, 1048567, 0, 0, 1048568, 0, 0, 1048569, 0, 0, 1048570, 0, 0, 1048571, 0, 0, 1048572, 0, 0, 1048573, 0, 0, 1048574, 0, 0, 1048575, 0, 0, 983040, 0, 0, 983041, 0, 0, 983042, 0, 0, 983043, 0, 0, 983044, 0, 0, 983045, 0, 0, 983046, 0, 0, 983047, 0, 0, 983048, 0, 0, 983049, 0, 0, 983050, 0, 0, 983051, 0, 0, 983052, 0, 0, 983053, 0, 0, 983054, 0, 0, 983055, 0, 0, 983056, 0, 0, 983057, 0, 0, 983058, 0, 0, 983059, 0, 0, 983060, 0, 0, 983061, 0, 0, 983062, 0, 0, 983063, 0, 0, 983064, 0, 0, 983065, 0, 0, 983066, 0, 0, 983067, 0, 0, 983068, 0, 0, 983069, 0, 0, 983070, 0, 0, 983071, 0, 0, 983072, 0, 0, 983073, 0, 0, 983074, 0, 0, 983075, 0, 0, 983076, 0, 0, 983077, 0, 0, 983078, 0, 0, 983079, 0, 0, 983080, 0, 0, 983081, 0, 0, 983082, 0, 0, 983083, 0, 0, 983084, 0, 0, 983085, 0, 0, 983086, 0, 0, 983087, 0, 0, 983088, 0, 0, 983089, 0, 0, 983090, 0, 0, 983091, 0, 0, 983092, 0, 0, 983093, 0, 0, 983094, 0, 0, 983095, 0, 0, 983096, 0, 0, 983097, 0, 0, 983098, 0, 0, 983099, 0, 0, 983100, 0, 0, 983101, 0, 0, 983102, 0, 0, 1114085, 0, 0, 1114086, 0, 0, 1114087, 0, 0, 1114088, 0, 0, 1114089, 0, 0, 1114090, 0, 0, 1114091, 0, 0, 1114092, 0, 0, 1114093, 0, 0, 1114094, 0, 0, 1114095, 0, 0, 1114096, 0, 0, 1114097, 0, 0, 1114098, 0, 0, 1114099, 0, 0, 1114100, 0, 0, 1114101, 0, 0, 1114102, 0, 0, 1114103, 0, 0, 1114104, 0, 0, 1114105, 0, 0, 1114106, 0, 0, 1114107, 0, 0, 1114108, 0, 0, 1114109, 0, 0, 1114110, 0, 0, 1114111, 0, 0, 1048576, 0, 0, 1048577, 0, 0, 1048578, 0, 0, 1048579, 0, 0, 1048580, 0, 0, 1048581, 0, 0, 1048582, 0, 0, 1048583, 0, 0, 1048584, 0, 0, 1048585, 0, 0, 1048586, 0, 0, 1048587, 0, 0, 1048588, 0, 0, 1048589, 0, 0, 1048590, 0, 0, 1048591, 0, 0, 1048592, 0, 0, 1048593, 0, 0, 1048594, 0, 0, 1048595, 0, 0, 1048596, 0, 0, 1048597, 0, 0, 1048598, 0, 0, 1048599, 0, 0, 1048600, 0, 0, 1048601, 0, 0, 1048602, 0, 0, 1048603, 0, 0, 1048604, 0, 0, 1048605, 0, 0, 1048606, 0, 0, 1048607, 0, 0, 1048608, 0, 0, 1048609, 0, 0, 1048610, 0, 0, 1048611, 0, 0, 1048612, 0, 0, 1048613, 0, 0, 1048614, 0, 0, 1048615, 0, 0, 1048616, 0, 0, 1048617, 0, 0, 1048618, 0, 0, 1048619, 0, 0, 1048620, 0, 0, 1048621, 0, 0, 1048622, 0, 0, 1048623, 0, 0, 1048624, 0, 0, 1048625, 0, 0, 1048626, 0, 0, 1048627, 0, 0, 1048628, 0, 0, 1048629, 0, 0, 1048630, 0, 0, 1048631, 0, 0, 1048632, 0, 0, 1048633, 0, 0, 1048634, 0, 0, 1048635, 0, 0, 1048636, 0, 0, 1048637, 0, 0, 1048638, 0, 0, 1179621, 0, 0, 1179622, 0, 0, 1179623, 0, 0, 1179624, 0, 0, 1179625, 0, 0, 1179626, 0, 0, 1179627, 0, 0, 1179628, 0, 0, 1179629, 0, 0, 1179630, 0, 0, 1179631, 0, 0, 1179632, 0, 0, 1179633, 0, 0, 1179634, 0, 0, 1179635, 0, 0, 1179636, 0, 0, 1179637, 0, 0, 1179638, 0, 0, 1179639, 0, 0, 1179640, 0, 0, 1179641, 0, 0, 1179642, 0, 0, 1179643, 0, 0, 1179644, 0, 0, 1179645, 0, 0, 1179646, 0, 0, 1179647, 0, 0, 1114112, 0, 0, 1114113, 0, 0, 1114114, 0, 0, 1114115, 0, 0, 1114116, 0, 0, 1114117, 0, 0, 1114118, 0, 0, 1114119, 0, 0, 1114120, 0, 0, 1114121, 0, 0, 1114122, 0, 0, 1114123, 0, 0, 1114124, 0, 0, 1114125, 0, 0, 1114126, 0, 0, 1114127, 0, 0, 1114128, 0, 0, 1114129, 0, 0, 1114130, 0, 0, 1114131, 0, 0, 1114132, 0, 0, 1114133, 0, 0, 1114134, 0, 0, 1114135, 0, 0, 1114136, 0, 0, 1114137, 0, 0, 1114138, 0, 0, 1114139, 0, 0, 1114140, 0, 0, 1114141, 0, 0, 1114142, 0, 0, 1114143, 0, 0, 1114144, 0, 0, 1114145, 0, 0, 1114146, 0, 0, 1114147, 0, 0, 1114148, 0, 0, 1114149, 0, 0, 1114150, 0, 0, 1114151, 0, 0, 1114152, 0, 0, 1114153, 0, 0, 1114154, 0, 0, 1114155, 0, 0, 1114156, 0, 0, 1114157, 0, 0, 1114158, 0, 0, 1114159, 0, 0, 1114160, 0, 0, 1114161, 0, 0, 1114162, 0, 0, 1114163, 0, 0, 1114164, 0, 0, 1114165, 0, 0, 1114166, 0, 0, 1114167, 0, 0, 1114168, 0, 0, 1114169, 0, 0, 1114170, 0, 0, 1114171, 0, 0, 1114172, 0, 0, 1114173, 0, 0, 1114174, 0, 0, 1245157, 0, 0, 1245158, 0, 0, 1245159, 0, 0, 1245160, 0, 0, 1245161, 0, 0, 1245162, 0, 0, 1245163, 0, 0, 1245164, 0, 0, 1245165, 0, 0, 1245166, 0, 0, 1245167, 0, 0, 1245168, 0, 0, 1245169, 0, 0, 1245170, 0, 0, 1245171, 0, 0, 1245172, 0, 0, 1245173, 0, 0, 1245174, 0, 0, 1245175, 0, 0, 1245176, 0, 0, 1245177, 0, 0, 1245178, 0, 0, 1245179, 0, 0, 1245180, 0, 0, 1245181, 0, 0, 1245182, 0, 0, 1245183, 0, 0, 1179648, 0, 0, 1179649, 0, 0, 1179650, 0, 0, 1179651, 0, 0, 1179652, 0, 0, 1179653, 0, 0, 1179654, 0, 0, 1179655, 0, 0, 1179656, 0, 0, 1179657, 0, 0, 1179658, 0, 0, 1179659, 0, 0, 1179660, 0, 0, 1179661, 0, 0, 1179662, 0, 0, 1179663, 0, 0, 1179664, 0, 0, 1179665, 0, 0, 1179666, 0, 0, 1179667, 0, 0, 1179668, 0, 0, 1179669, 0, 0, 1179670, 0, 0, 1179671, 0, 0, 1179672, 0, 0, 1179673, 0, 0, 1179674, 0, 0, 1179675, 0, 0, 1179676, 0, 0, 1179677, 0, 0, 1179678, 0, 0, 1179679, 0, 0, 1179680, 0, 0, 1179681, 0, 0, 1179682, 0, 0, 1179683, 0, 0, 1179684, 0, 0, 1179685, 0, 0, 1179686, 0, 0, 1179687, 0, 0, 1179688, 0, 0, 1179689, 0, 0, 1179690, 0, 0, 1179691, 0, 0, 1179692, 0, 0, 1179693, 0, 0, 1179694, 0, 0, 1179695, 0, 0, 1179696, 0, 0, 1179697, 0, 0, 1179698, 0, 0, 1179699, 0, 0, 1179700, 0, 0, 1179701, 0, 0, 1179702, 0, 0, 1179703, 0, 0, 1179704, 0, 0, 1179705, 0, 0, 1179706, 0, 0, 1179707, 0, 0, 1179708, 0, 0, 1179709, 0, 0, 1179710, 0, 0, 1310693, 0, 0, 1310694, 0, 0, 1310695, 0, 0, 1310696, 0, 0, 1310697, 0, 0, 1310698, 0, 0, 1310699, 0, 0, 1310700, 0, 0, 1310701, 0, 0, 1310702, 0, 0, 1310703, 0, 0, 1310704, 0, 0, 1310705, 0, 0, 1310706, 0, 0, 1310707, 0, 0, 1310708, 0, 0, 1310709, 0, 0, 1310710, 0, 0, 1310711, 0, 0, 1310712, 0, 0, 1310713, 0, 0, 1310714, 0, 0, 1310715, 0, 0, 1310716, 0, 0, 1310717, 0, 0, 1310718, 0, 0, 1310719, 0, 0, 1245184, 0, 0, 1245185, 0, 0, 1245186, 0, 0, 1245187, 0, 0, 1245188, 0, 0, 1245189, 0, 0, 1245190, 0, 0, 1245191, 0, 0, 1245192, 0, 0, 1245193, 0, 0, 1245194, 0, 0, 1245195, 0, 0, 1245196, 0, 0, 1245197, 0, 0, 1245198, 0, 0, 1245199, 0, 0, 1245200, 0, 0, 1245201, 0, 0, 1245202, 0, 0, 1245203, 0, 0, 1245204, 0, 0, 1245205, 0, 0, 1245206, 0, 0, 1245207, 0, 0, 1245208, 0, 0, 1245209, 0, 0, 1245210, 0, 0, 1245211, 0, 0, 1245212, 0, 0, 1245213, 0, 0, 1245214, 0, 0, 1245215, 0, 0, 1245216, 0, 0, 1245217, 0, 0, 1245218, 0, 0, 1245219, 0, 0, 1245220, 0, 0, 1245221, 0, 0, 1245222, 0, 0, 1245223, 0, 0, 1245224, 0, 0, 1245225, 0, 0, 1245226, 0, 0, 1245227, 0, 0, 1245228, 0, 0, 1245229, 0, 0, 1245230, 0, 0, 1245231, 0, 0, 1245232, 0, 0, 1245233, 0, 0, 1245234, 0, 0, 1245235, 0, 0, 1245236, 0, 0, 1245237, 0, 0, 1245238, 0, 0, 1245239, 0, 0, 1245240, 0, 0, 1245241, 0, 0, 1245242, 0, 0, 1245243, 0, 0, 1245244, 0, 0, 1245245, 0, 0, 1245246, 0, 0, 1376229, 0, 0, 1376230, 0, 0, 1376231, 0, 0, 1376232, 0, 0, 1376233, 0, 0, 1376234, 0, 0, 1376235, 0, 0, 1376236, 0, 0, 1376237, 0, 0, 1376238, 0, 0, 1376239, 0, 0, 1376240, 0, 0, 1376241, 0, 0, 1376242, 0, 0, 1376243, 0, 0, 1376244, 0, 0, 1376245, 0, 0, 1376246, 0, 0, 1376247, 0, 0, 1376248, 0, 0, 1376249, 0, 0, 1376250, 0, 0, 1376251, 0, 0, 1376252, 0, 0, 1376253, 0, 0, 1376254, 0, 0, 1376255, 0, 0, 1310720, 0, 0, 1310721, 0, 0, 1310722, 0, 0, 1310723, 0, 0, 1310724, 0, 0, 1310725, 0, 0, 1310726, 0, 0, 1310727, 0, 0, 1310728, 0, 0, 1310729, 0, 0, 1310730, 0, 0, 1310731, 0, 0, 1310732, 0, 0, 1310733, 0, 0, 1310734, 0, 0, 1310735, 0, 0, 1310736, 0, 0, 1310737, 0, 0, 1310738, 0, 0, 1310739, 0, 0, 1310740, 0, 0, 1310741, 0, 0, 1310742, 0, 0, 1310743, 0, 0, 1310744, 0, 0, 1310745, 0, 0, 1310746, 0, 0, 1310747, 0, 0, 1310748, 0, 0, 1310749, 0, 0, 1310750, 0, 0, 1310751, 0, 0, 1310752, 0, 0, 1310753, 0, 0, 1310754, 0, 0, 1310755, 0, 0, 1310756, 0, 0, 1310757, 0, 0, 1310758, 0, 0, 1310759, 0, 0, 1310760, 0, 0, 1310761, 0, 0, 1310762, 0, 0, 1310763, 0, 0, 1310764, 0, 0, 1310765, 0, 0, 1310766, 0, 0, 1310767, 0, 0, 1310768, 0, 0, 1310769, 0, 0, 1310770, 0, 0, 1310771, 0, 0, 1310772, 0, 0, 1310773, 0, 0, 1310774, 0, 0, 1310775, 0, 0, 1310776, 0, 0, 1310777, 0, 0, 1310778, 0, 0, 1310779, 0, 0, 1310780, 0, 0, 1310781, 0, 0, 1310782, 0, 0, 1441765, 0, 0, 1441766, 0, 0, 1441767, 0, 0, 1441768, 0, 0, 1441769, 0, 0, 1441770, 0, 0, 1441771, 0, 0, 1441772, 0, 0, 1441773, 0, 0, 1441774, 0, 0, 1441775, 0, 0, 1441776, 0, 0, 1441777, 0, 0, 1441778, 0, 0, 1441779, 0, 0, 1441780, 0, 0, 1441781, 0, 0, 1441782, 0, 0, 1441783, 0, 0, 1441784, 0, 0, 1441785, 0, 0, 1441786, 0, 0, 1441787, 0, 0, 1441788, 0, 0, 1441789, 0, 0, 1441790, 0, 0, 1441791, 0, 0, 1376256, 0, 0, 1376257, 0, 0, 1376258, 0, 0, 1376259, 0, 0, 1376260, 0, 0, 1376261, 0, 0, 1376262, 0, 0, 1376263, 0, 0, 1376264, 0, 0, 1376265, 0, 0, 1376266, 0, 0, 1376267, 0, 0, 1376268, 0, 0, 1376269, 0, 0, 1376270, 0, 0, 1376271, 0, 0, 1376272, 0, 0, 1376273, 0, 0, 1376274, 0, 0, 1376275, 0, 0, 1376276, 0, 0, 1376277, 0, 0, 1376278, 0, 0, 1376279, 0, 0, 1376280, 0, 0, 1376281, 0, 0, 1376282, 0, 0, 1376283, 0, 0, 1376284, 0, 0, 1376285, 0, 0, 1376286, 0, 0, 1376287, 0, 0, 1376288, 0, 0, 1376289, 0, 0, 1376290, 0, 0, 1376291, 0, 0, 1376292, 0, 0, 1376293, 0, 0, 1376294, 0, 0, 1376295, 0, 0, 1376296, 0, 0, 1376297, 0, 0, 1376298, 0, 0, 1376299, 0, 0, 1376300, 0, 0, 1376301, 0, 0, 1376302, 0, 0, 1376303, 0, 0, 1376304, 0, 0, 1376305, 0, 0, 1376306, 0, 0, 1376307, 0, 0, 1376308, 0, 0, 1376309, 0, 0, 1376310, 0, 0, 1376311, 0, 0, 1376312, 0, 0, 1376313, 0, 0, 1376314, 0, 0, 1376315, 0, 0, 1376316, 0, 0, 1376317, 0, 0, 1376318, 0, 0, 1507301, 0, 0, 1507302, 0, 0, 1507303, 0, 0, 1507304, 0, 0, 1507305, 0, 0, 1507306, 0, 0, 1507307, 0, 0, 1507308, 0, 0, 1507309, 0, 0, 1507310, 0, 0, 1507311, 0, 0, 1507312, 0, 0, 1507313, 0, 0, 1507314, 0, 0, 1507315, 0, 0, 1507316, 0, 0, 1507317, 0, 0, 1507318, 0, 0, 1507319, 0, 0, 1507320, 0, 0, 1507321, 0, 0, 1507322, 0, 0, 1507323, 0, 0, 1507324, 0, 0, 1507325, 0, 0, 1507326, 0, 0, 1507327, 0, 0, 1441792, 0, 0, 1441793, 0, 0, 1441794, 0, 0, 1441795, 0, 0, 1441796, 0, 0, 1441797, 0, 0, 1441798, 0, 0, 1441799, 0, 0, 1441800, 0, 0, 1441801, 0, 0, 1441802, 0, 0, 1441803, 0, 0, 1441804, 0, 0, 1441805, 0, 0, 1441806, 0, 0, 1441807, 0, 0, 1441808, 0, 0, 1441809, 0, 0, 1441810, 0, 0, 1441811, 0, 0, 1441812, 0, 0, 1441813, 0, 0, 1441814, 0, 0, 1441815, 0, 0, 1441816, 0, 0, 1441817, 0, 0, 1441818, 0, 0, 1441819, 0, 0, 1441820, 0, 0, 1441821, 0, 0, 1441822, 0, 0, 1441823, 0, 0, 1441824, 0, 0, 1441825, 0, 0, 1441826, 0, 0, 1441827, 0, 0, 1441828, 0, 0, 1441829, 0, 0, 1441830, 0, 0, 1441831, 0, 0, 1441832, 0, 0, 1441833, 0, 0, 1441834, 0, 0, 1441835, 0, 0, 1441836, 0, 0, 1441837, 0, 0, 1441838, 0, 0, 1441839, 0, 0, 1441840, 0, 0, 1441841, 0, 0, 1441842, 0, 0, 1441843, 0, 0, 1441844, 0, 0, 1441845, 0, 0, 1441846, 0, 0, 1441847, 0, 0, 1441848, 0, 0, 1441849, 0, 0, 1441850, 0, 0, 1441851, 0, 0, 1441852, 0, 0, 1441853, 0, 0, 1441854, 0, 0, 1572837, 0, 0, 1572838, 0, 0, 1572839, 0, 0, 1572840, 0, 0, 1572841, 0, 0, 1572842, 0, 0, 1572843, 0, 0, 1572844, 0, 0, 1572845, 0, 0, 1572846, 0, 0, 1572847, 0, 0, 1572848, 0, 0, 1572849, 0, 0, 1572850, 0, 0, 1572851, 0, 0, 1572852, 0, 0, 1572853, 0, 0, 1572854, 0, 0, 1572855, 0, 0, 1572856, 0, 0, 1572857, 0, 0, 1572858, 0, 0, 1572859, 0, 0, 1572860, 0, 0, 1572861, 0, 0, 1572862, 0, 0, 1572863, 0, 0, 1507328, 0, 0, 1507329, 0, 0, 1507330, 0, 0, 1507331, 0, 0, 1507332, 0, 0, 1507333, 0, 0, 1507334, 0, 0, 1507335, 0, 0, 1507336, 0, 0, 1507337, 0, 0, 1507338, 0, 0, 1507339, 0, 0, 1507340, 0, 0, 1507341, 0, 0, 1507342, 0, 0, 1507343, 0, 0, 1507344, 0, 0, 1507345, 0, 0, 1507346, 0, 0, 1507347, 0, 0, 1507348, 0, 0, 1507349, 0, 0, 1507350, 0, 0, 1507351, 0, 0, 1507352, 0, 0, 1507353, 0, 0, 1507354, 0, 0, 1507355, 0, 0, 1507356, 0, 0, 1507357, 0, 0, 1507358, 0, 0, 1507359, 0, 0, 1507360, 0, 0, 1507361, 0, 0, 1507362, 0, 0, 1507363, 0, 0, 1507364, 0, 0, 1507365, 0, 0, 1507366, 0, 0, 1507367, 0, 0, 1507368, 0, 0, 1507369, 0, 0, 1507370, 0, 0, 1507371, 0, 0, 1507372, 0, 0, 1507373, 0, 0, 1507374, 0, 0, 1507375, 0, 0, 1507376, 0, 0, 1507377, 0, 0, 1507378, 0, 0, 1507379, 0, 0, 1507380, 0, 0, 1507381, 0, 0, 1507382, 0, 0, 1507383, 0, 0, 1507384, 0, 0, 1507385, 0, 0, 1507386, 0, 0, 1507387, 0, 0, 1507388, 0, 0, 1507389, 0, 0, 1507390, 0, 0, 1638373, 0, 0, 1638374, 0, 0, 1638375, 0, 0, 1638376, 0, 0, 1638377, 0, 0, 1638378, 0, 0, 1638379, 0, 0, 1638380, 0, 0, 1638381, 0, 0, 1638382, 0, 0, 1638383, 0, 0, 1638384, 0, 0, 1638385, 0, 0, 1638386, 0, 0, 1638387, 0, 0, 1638388, 0, 0, 1638389, 0, 0, 1638390, 0, 0, 1638391, 0, 0, 1638392, 0, 0, 1638393, 0, 0, 1638394, 0, 0, 1638395, 0, 0, 1638396, 0, 0, 1638397, 0, 0, 1638398, 0, 0, 1638399, 0, 0, 1572864, 0, 0, 1572865, 0, 0, 1572866, 0, 0, 1572867, 0, 0, 1572868, 0, 0, 1572869, 0, 0, 1572870, 0, 0, 1572871, 0, 0, 1572872, 0, 0, 1572873, 0, 0, 1572874, 0, 0, 1572875, 0, 0, 1572876, 0, 0, 1572877, 0, 0, 1572878, 0, 0, 1572879, 0, 0, 1572880, 0, 0, 1572881, 0, 0, 1572882, 0, 0, 1572883, 0, 0, 1572884, 0, 0, 1572885, 0, 0, 1572886, 0, 0, 1572887, 0, 0, 1572888, 0, 0, 1572889, 0, 0, 1572890, 0, 0, 1572891, 0, 0, 1572892, 0, 0, 1572893, 0, 0, 1572894, 0, 0, 1572895, 0, 0, 1572896, 0, 0, 1572897, 0, 0, 1572898, 0, 0, 1572899, 0, 0, 1572900, 0, 0, 1572901, 0, 0, 1572902, 0, 0, 1572903, 0, 0, 1572904, 0, 0, 1572905, 0, 0, 1572906, 0, 0, 1572907, 0, 0, 1572908, 0, 0, 1572909, 0, 0, 1572910, 0, 0, 1572911, 0, 0, 1572912, 0, 0, 1572913, 0, 0, 1572914, 0, 0, 1572915, 0, 0, 1572916, 0, 0, 1572917, 0, 0, 1572918, 0, 0, 1572919, 0, 0, 1572920, 0, 0, 1572921, 0, 0, 1572922, 0, 0, 1572923, 0, 0, 1572924, 0, 0, 1572925, 0, 0, 1572926, 0, 0, 1703909, 0, 0, 1703910, 0, 0, 1703911, 0, 0, 1703912, 0, 0, 1703913, 0, 0, 1703914, 0, 0, 1703915, 0, 0, 1703916, 0, 0, 1703917, 0, 0, 1703918, 0, 0, 1703919, 0, 0, 1703920, 0, 0, 1703921, 0, 0, 1703922, 0, 0, 1703923, 0, 0, 1703924, 0, 0, 1703925, 0, 0, 1703926, 0, 0, 1703927, 0, 0, 1703928, 0, 0, 1703929, 0, 0, 1703930, 0, 0, 1703931, 0, 0, 1703932, 0, 0, 1703933, 0, 0, 1703934, 0, 0, 1703935, 0, 0, 1638400, 0, 0, 1638401, 0, 0, 1638402, 0, 0, 1638403, 0, 0, 1638404, 0, 0, 1638405, 0, 0, 1638406, 0, 0, 1638407, 0, 0, 1638408, 0, 0, 1638409, 0, 0, 1638410, 0, 0, 1638411, 0, 0, 1638412, 0, 0, 1638413, 0, 0, 1638414, 0, 0, 1638415, 0, 0, 1638416, 0, 0, 1638417, 0, 0, 1638418, 0, 0, 1638419, 0, 0, 1638420, 0, 0, 1638421, 0, 0, 1638422, 0, 0, 1638423, 0, 0, 1638424, 0, 0, 1638425, 0, 0, 1638426, 0, 0, 1638427, 0, 0, 1638428, 0, 0, 1638429, 0, 0, 1638430, 0, 0, 1638431, 0, 0, 1638432, 0, 0, 1638433, 0, 0, 1638434, 0, 0, 1638435, 0, 0, 1638436, 0, 0, 1638437, 0, 0, 1638438, 0, 0, 1638439, 0, 0, 1638440, 0, 0, 1638441, 0, 0, 1638442, 0, 0, 1638443, 0, 0, 1638444, 0, 0, 1638445, 0, 0, 1638446, 0, 0, 1638447, 0, 0, 1638448, 0, 0, 1638449, 0, 0, 1638450, 0, 0, 1638451, 0, 0, 1638452, 0, 0, 1638453, 0, 0, 1638454, 0, 0, 1638455, 0, 0, 1638456, 0, 0, 1638457, 0, 0, 1638458, 0, 0, 1638459, 0, 0, 1638460, 0, 0, 1638461, 0, 0, 1638462, 0, 0, 1769445, 0, 0, 1769446, 0, 0, 1769447, 0, 0, 1769448, 0, 0, 1769449, 0, 0, 1769450, 0, 0, 1769451, 0, 0, 1769452, 0, 0, 1769453, 0, 0, 1769454, 0, 0, 1769455, 0, 0, 1769456, 0, 0, 1769457, 0, 0, 1769458, 0, 0, 1769459, 0, 0, 1769460, 0, 0, 1769461, 0, 0, 1769462, 0, 0, 1769463, 0, 0, 1769464, 0, 0, 1769465, 0, 0, 1769466, 0, 0, 1769467, 0, 0, 1769468, 0, 0, 1769469, 0, 0, 1769470, 0, 0, 1769471, 0, 0, 1703936, 0, 0, 1703937, 0, 0, 1703938, 0, 0, 1703939, 0, 0, 1703940, 0, 0, 1703941, 0, 0, 1703942, 0, 0, 1703943, 0, 0, 1703944, 0, 0, 1703945, 0, 0, 1703946, 0, 0, 1703947, 0, 0, 1703948, 0, 0, 1703949, 0, 0, 1703950, 0, 0, 1703951, 0, 0, 1703952, 0, 0, 1703953, 0, 0, 1703954, 0, 0, 1703955, 0, 0, 1703956, 0, 0, 1703957, 0, 0, 1703958, 0, 0, 1703959, 0, 0, 1703960, 0, 0, 1703961, 0, 0, 1703962, 0, 0, 1703963, 0, 0, 1703964, 0, 0, 1703965, 0, 0, 1703966, 0, 0, 1703967, 0, 0, 1703968, 0, 0, 1703969, 0, 0, 1703970, 0, 0, 1703971, 0, 0, 1703972, 0, 0, 1703973, 0, 0, 1703974, 0, 0, 1703975, 0, 0, 1703976, 0, 0, 1703977, 0, 0, 1703978, 0, 0, 1703979, 0, 0, 1703980, 0, 0, 1703981, 0, 0, 1703982, 0, 0, 1703983, 0, 0, 1703984, 0, 0, 1703985, 0, 0, 1703986, 0, 0, 1703987, 0, 0, 1703988, 0, 0, 1703989, 0, 0, 1703990, 0, 0, 1703991, 0, 0, 1703992, 0, 0, 1703993, 0, 0, 1703994, 0, 0, 1703995, 0, 0, 1703996, 0, 0, 1703997, 0, 0, 1703998, 0, 0, 1834981, 0, 0, 1834982, 0, 0, 1834983, 0, 0, 1834984, 0, 0, 1834985, 0, 0, 1834986, 0, 0, 1834987, 0, 0, 1834988, 0, 0, 1834989, 0, 0, 1834990, 0, 0, 1834991, 0, 0, 1834992, 0, 0, 1834993, 0, 0, 1834994, 0, 0, 1834995, 0, 0, 1834996, 0, 0, 1834997, 0, 0, 1834998, 0, 0, 1834999, 0, 0, 1835000, 0, 0, 1835001, 0, 0, 1835002, 0, 0, 1835003, 0, 0, 1835004, 0, 0, 1835005, 0, 0, 1835006, 0, 0, 1835007, 0, 0, 1769472, 0, 0, 1769473, 0, 0, 1769474, 0, 0, 1769475, 0, 0, 1769476, 0, 0, 1769477, 0, 0, 1769478, 0, 0, 1769479, 0, 0, 1769480, 0, 0, 1769481, 0, 0, 1769482, 0, 0, 1769483, 0, 0, 1769484, 0, 0, 1769485, 0, 0, 1769486, 0, 0, 1769487, 0, 0, 1769488, 0, 0, 1769489, 0, 0, 1769490, 0, 0, 1769491, 0, 0, 1769492, 0, 0, 1769493, 0, 0, 1769494, 0, 0, 1769495, 0, 0, 1769496, 0, 0, 1769497, 0, 0, 1769498, 0, 0, 1769499, 0, 0, 1769500, 0, 0, 1769501, 0, 0, 1769502, 0, 0, 1769503, 0, 0, 1769504, 0, 0, 1769505, 0, 0, 1769506, 0, 0, 1769507, 0, 0, 1769508, 0, 0, 1769509, 0, 0, 1769510, 0, 0, 1769511, 0, 0, 1769512, 0, 0, 1769513, 0, 0, 1769514, 0, 0, 1769515, 0, 0, 1769516, 0, 0, 1769517, 0, 0, 1769518, 0, 0, 1769519, 0, 0, 1769520, 0, 0, 1769521, 0, 0, 1769522, 0, 0, 1769523, 0, 0, 1769524, 0, 0, 1769525, 0, 0, 1769526, 0, 0, 1769527, 0, 0, 1769528, 0, 0, 1769529, 0, 0, 1769530, 0, 0, 1769531, 0, 0, 1769532, 0, 0, 1769533, 0, 0, 1769534, 0, 0, 1900517, 0, 0, 1900518, 0, 0, 1900519, 0, 0, 1900520, 0, 0, 1900521, 0, 0, 1900522, 0, 0, 1900523, 0, 0, 1900524, 0, 0, 1900525, 0, 0, 1900526, 0, 0, 1900527, 0, 0, 1900528, 0, 0, 1900529, 0, 0, 1900530, 0, 0, 1900531, 0, 0, 1900532, 0, 0, 1900533, 0, 0, 1900534, 0, 0, 1900535, 0, 0, 1900536, 0, 0, 1900537, 0, 0, 1900538, 0, 0, 1900539, 0, 0, 1900540, 0, 0, 1900541, 0, 0, 1900542, 0, 0, 1900543, 0, 0, 1835008, 0, 0, 1835009, 0, 0, 1835010, 0, 0, 1835011, 0, 0, 1835012, 0, 0, 1835013, 0, 0, 1835014, 0, 0, 1835015, 0, 0, 1835016, 0, 0, 1835017, 0, 0, 1835018, 0, 0, 1835019, 0, 0, 1835020, 0, 0, 1835021, 0, 0, 1835022, 0, 0, 1835023, 0, 0, 1835024, 0, 0, 1835025, 0, 0, 1835026, 0, 0, 1835027, 0, 0, 1835028, 0, 0, 1835029, 0, 0, 1835030, 0, 0, 1835031, 0, 0, 1835032, 0, 0, 1835033, 0, 0, 1835034, 0, 0, 1835035, 0, 0, 1835036, 0, 0, 1835037, 0, 0, 1835038, 0, 0, 1835039, 0, 0, 1835040, 0, 0, 1835041, 0, 0, 1835042, 0, 0, 1835043, 0, 0, 1835044, 0, 0, 1835045, 0, 0, 1835046, 0, 0, 1835047, 0, 0, 1835048, 0, 0, 1835049, 0, 0, 1835050, 0, 0, 1835051, 0, 0, 1835052, 0, 0, 1835053, 0, 0, 1835054, 0, 0, 1835055, 0, 0, 1835056, 0, 0, 1835057, 0, 0, 1835058, 0, 0, 1835059, 0, 0, 1835060, 0, 0, 1835061, 0, 0, 1835062, 0, 0, 1835063, 0, 0, 1835064, 0, 0, 1835065, 0, 0, 1835066, 0, 0, 1835067, 0, 0, 1835068, 0, 0, 1835069, 0, 0, 1835070, 0, 0, 1966053, 0, 0, 1966054, 0, 0, 1966055, 0, 0, 1966056, 0, 0, 1966057, 0, 0, 1966058, 0, 0, 1966059, 0, 0, 1966060, 0, 0, 1966061, 0, 0, 1966062, 0, 0, 1966063, 0, 0, 1966064, 0, 0, 1966065, 0, 0, 1966066, 0, 0, 1966067, 0, 0, 1966068, 0, 0, 1966069, 0, 0, 1966070, 0, 0, 1966071, 0, 0, 1966072, 0, 0, 1966073, 0, 0, 1966074, 0, 0, 1966075, 0, 0, 1966076, 0, 0, 1966077, 0, 0, 1966078, 0, 0, 1966079, 0, 0, 1900544, 0, 0, 1900545, 0, 0, 1900546, 0, 0, 1900547, 0, 0, 1900548, 0, 0, 1900549, 0, 0, 1900550, 0, 0, 1900551, 0, 0, 1900552, 0, 0, 1900553, 0, 0, 1900554, 0, 0, 1900555, 0, 0, 1900556, 0, 0, 1900557, 0, 0, 1900558, 0, 0, 1900559, 0, 0, 1900560, 0, 0, 1900561, 0, 0, 1900562, 0, 0, 1900563, 0, 0, 1900564, 0, 0, 1900565, 0, 0, 1900566, 0, 0, 1900567, 0, 0, 1900568, 0, 0, 1900569, 0, 0, 1900570, 0, 0, 1900571, 0, 0, 1900572, 0, 0, 1900573, 0, 0, 1900574, 0, 0, 1900575, 0, 0, 1900576, 0, 0, 1900577, 0, 0, 1900578, 0, 0, 1900579, 0, 0, 1900580, 0, 0, 1900581, 0, 0, 1900582, 0, 0, 1900583, 0, 0, 1900584, 0, 0, 1900585, 0, 0, 1900586, 0, 0, 1900587, 0, 0, 1900588, 0, 0, 1900589, 0, 0, 1900590, 0, 0, 1900591, 0, 0, 1900592, 0, 0, 1900593, 0, 0, 1900594, 0, 0, 1900595, 0, 0, 1900596, 0, 0, 1900597, 0, 0, 1900598, 0, 0, 1900599, 0, 0, 1900600, 0, 0, 1900601, 0, 0, 1900602, 0, 0, 1900603, 0, 0, 1900604, 0, 0, 1900605, 0, 0, 1900606, 0, 0, 2031589, 0, 0, 2031590, 0, 0, 2031591, 0, 0, 2031592, 0, 0, 2031593, 0, 0, 2031594, 0, 0, 2031595, 0, 0, 2031596, 0, 0, 2031597, 0, 0, 2031598, 0, 0, 2031599, 0, 0, 2031600, 0, 0, 2031601, 0, 0, 2031602, 0, 0, 2031603, 0, 0, 2031604, 0, 0, 2031605, 0, 0, 2031606, 0, 0, 2031607, 0, 0, 2031608, 0, 0, 2031609, 0, 0, 2031610, 0, 0, 2031611, 0, 0, 2031612, 0, 0, 2031613, 0, 0, 2031614, 0, 0, 2031615, 0, 0, 1966080, 0, 0, 1966081, 0, 0, 1966082, 0, 0, 1966083, 0, 0, 1966084, 0, 0, 1966085, 0, 0, 1966086, 0, 0, 1966087, 0, 0, 1966088, 0, 0, 1966089, 0, 0, 1966090, 0, 0, 1966091, 0, 0, 1966092, 0, 0, 1966093, 0, 0, 1966094, 0, 0, 1966095, 0, 0, 1966096, 0, 0, 1966097, 0, 0, 1966098, 0, 0, 1966099, 0, 0, 1966100, 0, 0, 1966101, 0, 0, 1966102, 0, 0, 1966103, 0, 0, 1966104, 0, 0, 1966105, 0, 0, 1966106, 0, 0, 1966107, 0, 0, 1966108, 0, 0, 1966109, 0, 0, 1966110, 0, 0, 1966111, 0, 0, 1966112, 0, 0, 1966113, 0, 0, 1966114, 0, 0, 1966115, 0, 0, 1966116, 0, 0, 1966117, 0, 0, 1966118, 0, 0, 1966119, 0, 0, 1966120, 0, 0, 1966121, 0, 0, 1966122, 0, 0, 1966123, 0, 0, 1966124, 0, 0, 1966125, 0, 0, 1966126, 0, 0, 1966127, 0, 0, 1966128, 0, 0, 1966129, 0, 0, 1966130, 0, 0, 1966131, 0, 0, 1966132, 0, 0, 1966133, 0, 0, 1966134, 0, 0, 1966135, 0, 0, 1966136, 0, 0, 1966137, 0, 0, 1966138, 0, 0, 1966139, 0, 0, 1966140, 0, 0, 1966141, 0, 0, 1966142, 0, 0, 2097125, 0, 0, 2097126, 0, 0, 2097127, 0, 0, 2097128, 0, 0, 2097129, 0, 0, 2097130, 0, 0, 2097131, 0, 0, 2097132, 0, 0, 2097133, 0, 0, 2097134, 0, 0, 2097135, 0, 0, 2097136, 0, 0, 2097137, 0, 0, 2097138, 0, 0, 2097139, 0, 0, 2097140, 0, 0, 2097141, 0, 0, 2097142, 0, 0, 2097143, 0, 0, 2097144, 0, 0, 2097145, 0, 0, 2097146, 0, 0, 2097147, 0, 0, 2097148, 0, 0, 2097149, 0, 0, 2097150, 0, 0, 2097151, 0, 0, 2031616, 0, 0, 2031617, 0, 0, 2031618, 0, 0, 2031619, 0, 0, 2031620, 0, 0, 2031621, 0, 0, 2031622, 0, 0, 2031623, 0, 0, 2031624, 0, 0, 2031625, 0, 0, 2031626, 0, 0, 2031627, 0, 0, 2031628, 0, 0, 2031629, 0, 0, 2031630, 0, 0, 2031631, 0, 0, 2031632, 0, 0, 2031633, 0, 0, 2031634, 0, 0, 2031635, 0, 0, 2031636, 0, 0, 2031637, 0, 0, 2031638, 0, 0, 2031639, 0, 0, 2031640, 0, 0, 2031641, 0, 0, 2031642, 0, 0, 2031643, 0, 0, 2031644, 0, 0, 2031645, 0, 0, 2031646, 0, 0, 2031647, 0, 0, 2031648, 0, 0, 2031649, 0, 0, 2031650, 0, 0, 2031651, 0, 0, 2031652, 0, 0, 2031653, 0, 0, 2031654, 0, 0, 2031655, 0, 0, 2031656, 0, 0, 2031657, 0, 0, 2031658, 0, 0, 2031659, 0, 0, 2031660, 0, 0, 2031661, 0, 0, 2031662, 0, 0, 2031663, 0, 0, 2031664, 0, 0, 2031665, 0, 0, 2031666, 0, 0, 2031667, 0, 0, 2031668, 0, 0, 2031669, 0, 0, 2031670, 0, 0, 2031671, 0, 0, 2031672, 0, 0, 2031673, 0, 0, 2031674, 0, 0, 2031675, 0, 0, 2031676, 0, 0, 2031677, 0, 0, 2031678, 0, 0, 2162661, 0, 0, 2162662, 0, 0, 2162663, 0, 0, 2162664, 0, 0, 2162665, 0, 0, 2162666, 0, 0, 2162667, 0, 0, 2162668, 0, 0, 2162669, 0, 0, 2162670, 0, 0, 2162671, 0, 0, 2162672, 0, 0, 2162673, 0, 0, 2162674, 0, 0, 2162675, 0, 0, 2162676, 0, 0, 2162677, 0, 0, 2162678, 0, 0, 2162679, 0, 0, 2162680, 0, 0, 2162681, 0, 0, 2162682, 0, 0, 2162683, 0, 0, 2162684, 0, 0, 2162685, 0, 0, 2162686, 0, 0, 2162687, 0, 0, 2097152, 0, 0, 2097153, 0, 0, 2097154, 0, 0, 2097155, 0, 0, 2097156, 0, 0, 2097157, 0, 0, 2097158, 0, 0, 2097159, 0, 0, 2097160, 0, 0, 2097161, 0, 0, 2097162, 0, 0, 2097163, 0, 0, 2097164, 0, 0, 2097165, 0, 0, 2097166, 0, 0, 2097167, 0, 0, 2097168, 0, 0, 2097169, 0, 0, 2097170, 0, 0, 2097171, 0, 0, 2097172, 0, 0, 2097173, 0, 0, 2097174, 0, 0, 2097175, 0, 0, 2097176, 0, 0, 2097177, 0, 0, 2097178, 0, 0, 2097179, 0, 0, 2097180, 0, 0, 2097181, 0, 0, 2097182, 0, 0, 2097183, 0, 0, 2097184, 0, 0, 2097185, 0, 0, 2097186, 0, 0, 2097187, 0, 0, 2097188, 0, 0, 2097189, 0, 0, 2097190, 0, 0, 2097191, 0, 0, 2097192, 0, 0, 2097193, 0, 0, 2097194, 0, 0, 2097195, 0, 0, 2097196, 0, 0, 2097197, 0, 0, 2097198, 0, 0, 2097199, 0, 0, 2097200, 0, 0, 2097201, 0, 0, 2097202, 0, 0, 2097203, 0, 0, 2097204, 0, 0, 2097205, 0, 0, 2097206, 0, 0, 2097207, 0, 0, 2097208, 0, 0, 2097209, 0, 0, 2097210, 0, 0, 2097211, 0, 0, 2097212, 0, 0, 2097213, 0, 0, 2097214, 0, 0, 2228197, 0, 0, 2228198, 0, 0, 2228199, 0, 0, 2228200, 0, 0, 2228201, 0, 0, 2228202, 0, 0, 2228203, 0, 0, 2228204, 0, 0, 2228205, 0, 0, 2228206, 0, 0, 2228207, 0, 0, 2228208, 0, 0, 2228209, 0, 0, 2228210, 0, 0, 2228211, 0, 0, 2228212, 0, 0, 2228213, 0, 0, 2228214, 0, 0, 2228215, 0, 0, 2228216, 0, 0, 2228217, 0, 0, 2228218, 0, 0, 2228219, 0, 0, 2228220, 0, 0, 2228221, 0, 0, 2228222, 0, 0, 2228223, 0, 0, 2162688, 0, 0, 2162689, 0, 0, 2162690, 0, 0, 2162691, 0, 0, 2162692, 0, 0, 2162693, 0, 0, 2162694, 0, 0, 2162695, 0, 0, 2162696, 0, 0, 2162697, 0, 0, 2162698, 0, 0, 2162699, 0, 0, 2162700, 0, 0, 2162701, 0, 0, 2162702, 0, 0, 2162703, 0, 0, 2162704, 0, 0, 2162705, 0, 0, 2162706, 0, 0, 2162707, 0, 0, 2162708, 0, 0, 2162709, 0, 0, 2162710, 0, 0, 2162711, 0, 0, 2162712, 0, 0, 2162713, 0, 0, 2162714, 0, 0, 2162715, 0, 0, 2162716, 0, 0, 2162717, 0, 0, 2162718, 0, 0, 2162719, 0, 0, 2162720, 0, 0, 2162721, 0, 0, 2162722, 0, 0, 2162723, 0, 0, 2162724, 0, 0, 2162725, 0, 0, 2162726, 0, 0, 2162727, 0, 0, 2162728, 0, 0, 2162729, 0, 0, 2162730, 0, 0, 2162731, 0, 0, 2162732, 0, 0, 2162733, 0, 0, 2162734, 0, 0, 2162735, 0, 0, 2162736, 0, 0, 2162737, 0, 0, 2162738, 0, 0, 2162739, 0, 0, 2162740, 0, 0, 2162741, 0, 0, 2162742, 0, 0, 2162743, 0, 0, 2162744, 0, 0, 2162745, 0, 0, 2162746, 0, 0, 2162747, 0, 0, 2162748, 0, 0, 2162749, 0, 0, 2162750, 0, 0, 2293733, 0, 0, 2293734, 0, 0, 2293735, 0, 0, 2293736, 0, 0, 2293737, 0, 0, 2293738, 0, 0, 2293739, 0, 0, 2293740, 0, 0, 2293741, 0, 0, 2293742, 0, 0, 2293743, 0, 0, 2293744, 0, 0, 2293745, 0, 0, 2293746, 0, 0, 2293747, 0, 0, 2293748, 0, 0, 2293749, 0, 0, 2293750, 0, 0, 2293751, 0, 0, 2293752, 0, 0, 2293753, 0, 0, 2293754, 0, 0, 2293755, 0, 0, 2293756, 0, 0, 2293757, 0, 0, 2293758, 0, 0, 2293759, 0, 0, 2228224, 0, 0, 2228225, 0, 0, 2228226, 0, 0, 2228227, 0, 0, 2228228, 0, 0, 2228229, 0, 0, 2228230, 0, 0, 2228231, 0, 0, 2228232, 0, 0, 2228233, 0, 0, 2228234, 0, 0, 2228235, 0, 0, 2228236, 0, 0, 2228237, 0, 0, 2228238, 0, 0, 2228239, 0, 0, 2228240, 0, 0, 2228241, 0, 0, 2228242, 0, 0, 2228243, 0, 0, 2228244, 0, 0, 2228245, 0, 0, 2228246, 0, 0, 2228247, 0, 0, 2228248, 0, 0, 2228249, 0, 0, 2228250, 0, 0, 2228251, 0, 0, 2228252, 0, 0, 2228253, 0, 0, 2228254, 0, 0, 2228255, 0, 0, 2228256, 0, 0, 2228257, 0, 0, 2228258, 0, 0, 2228259, 0, 0, 2228260, 0, 0, 2228261, 0, 0, 2228262, 0, 0, 2228263, 0, 0, 2228264, 0, 0, 2228265, 0, 0, 2228266, 0, 0, 2228267, 0, 0, 2228268, 0, 0, 2228269, 0, 0, 2228270, 0, 0, 2228271, 0, 0, 2228272, 0, 0, 2228273, 0, 0, 2228274, 0, 0, 2228275, 0, 0, 2228276, 0, 0, 2228277, 0, 0, 2228278, 0, 0, 2228279, 0, 0, 2228280, 0, 0, 2228281, 0, 0, 2228282, 0, 0, 2228283, 0, 0, 2228284, 0, 0, 2228285, 0, 0, 2228286, 0, 0, 2359269, 0, 0, 2359270, 0, 0, 2359271, 0, 0, 2359272, 0, 0, 2359273, 0, 0, 2359274, 0, 0, 2359275, 0, 0, 2359276, 0, 0, 2359277, 0, 0, 2359278, 0, 0, 2359279, 0, 0, 2359280, 0, 0, 2359281, 0, 0, 2359282, 0, 0, 2359283, 0, 0, 2359284, 0, 0, 2359285, 0, 0, 2359286, 0, 0, 2359287, 0, 0, 2359288, 0, 0, 2359289, 0, 0, 2359290, 0, 0, 2359291, 0, 0, 2359292, 0, 0, 2359293, 0, 0, 2359294, 0, 0, 2359295, 0, 0, 2293760, 0, 0, 2293761, 0, 0, 2293762, 0, 0, 2293763, 0, 0, 2293764, 0, 0, 2293765, 0, 0, 2293766, 0, 0, 2293767, 0, 0, 2293768, 0, 0, 2293769, 0, 0, 2293770, 0, 0, 2293771, 0, 0, 2293772, 0, 0, 2293773, 0, 0, 2293774, 0, 0, 2293775, 0, 0, 2293776, 0, 0, 2293777, 0, 0, 2293778, 0, 0, 2293779, 0, 0, 2293780, 0, 0, 2293781, 0, 0, 2293782, 0, 0, 2293783, 0, 0, 2293784, 0, 0, 2293785, 0, 0, 2293786, 0, 0, 2293787, 0, 0, 2293788, 0, 0, 2293789, 0, 0, 2293790, 0, 0, 2293791, 0, 0, 2293792, 0, 0, 2293793, 0, 0, 2293794, 0, 0, 2293795, 0, 0, 2293796, 0, 0, 2293797, 0, 0, 2293798, 0, 0, 2293799, 0, 0, 2293800, 0, 0, 2293801, 0, 0, 2293802, 0, 0, 2293803, 0, 0, 2293804, 0, 0, 2293805, 0, 0, 2293806, 0, 0, 2293807, 0, 0, 2293808, 0, 0, 2293809, 0, 0, 2293810, 0, 0, 2293811, 0, 0, 2293812, 0, 0, 2293813, 0, 0, 2293814, 0, 0, 2293815, 0, 0, 2293816, 0, 0, 2293817, 0, 0, 2293818, 0, 0, 2293819, 0, 0, 2293820, 0, 0, 2293821, 0, 0, 2293822, 0, 0, 2424805, 0, 0, 2424806, 0, 0, 2424807, 0, 0, 2424808, 0, 0, 2424809, 0, 0, 2424810, 0, 0, 2424811, 0, 0, 2424812, 0, 0, 2424813, 0, 0, 2424814, 0, 0, 2424815, 0, 0, 2424816, 0, 0, 2424817, 0, 0, 2424818, 0, 0, 2424819, 0, 0, 2424820, 0, 0, 2424821, 0, 0, 2424822, 0, 0, 2424823, 0, 0, 2424824, 0, 0, 2424825, 0, 0, 2424826, 0, 0, 2424827, 0, 0, 2424828, 0, 0, 2424829, 0, 0, 2424830, 0, 0, 2424831, 0, 0, 2359296, 0, 0, 2359297, 0, 0, 2359298, 0, 0, 2359299, 0, 0, 2359300, 0, 0, 2359301, 0, 0, 2359302, 0, 0, 2359303, 0, 0, 2359304, 0, 0, 2359305, 0, 0, 2359306, 0, 0, 2359307, 0, 0, 2359308, 0, 0, 2359309, 0, 0, 2359310, 0, 0, 2359311, 0, 0, 2359312, 0, 0, 2359313, 0, 0, 2359314, 0, 0, 2359315, 0, 0, 2359316, 0, 0, 2359317, 0, 0, 2359318, 0, 0, 2359319, 0, 0, 2359320, 0, 0, 2359321, 0, 0, 2359322, 0, 0, 2359323, 0, 0, 2359324, 0, 0, 2359325, 0, 0, 2359326, 0, 0, 2359327, 0, 0, 2359328, 0, 0, 2359329, 0, 0, 2359330, 0, 0, 2359331, 0, 0, 2359332, 0, 0, 2359333, 0, 0, 2359334, 0, 0, 2359335, 0, 0, 2359336, 0, 0, 2359337, 0, 0, 2359338, 0, 0, 2359339, 0, 0, 2359340, 0, 0, 2359341, 0, 0, 2359342, 0, 0, 2359343, 0, 0, 2359344, 0, 0, 2359345, 0, 0, 2359346, 0, 0, 2359347, 0, 0, 2359348, 0, 0, 2359349, 0, 0, 2359350, 0, 0, 2359351, 0, 0, 2359352, 0, 0, 2359353, 0, 0, 2359354, 0, 0, 2359355, 0, 0, 2359356, 0, 0, 2359357, 0, 0, 2359358, 0, 0 )

[node name="Player" type="Node" parent="."]
script = ExtResource( 3 )

[node name="NavyShip" type="Sprite" parent="."]
scale = Vector2( 0.2, 0.2 )
texture = ExtResource( 4 )

[node name="ShipGraphic" parent="." instance=ExtResource( 5 )]

[node name="DayNightTint" parent="." instance=ExtResource( 6 )]

[node name="ParallaxBackground2" type="ParallaxBackground" parent="."]
layer = 6
scroll_ignore_camera_zoom = true

[node name="Overlay" parent="ParallaxBackground2" instance=ExtResource( 7 )]

[node name="AnimationPlayer" type="AnimationPlayer" parent="ParallaxBackground2/Overlay"]
anims/DayAndNight = SubResource( 1 )

[node name="CanvasModulate" type="CanvasModulate" parent="ParallaxBackground2/Overlay"]
position = Vector2( 24.2269, 147.728 )
scale = Vector2( 4, 14 )

[node name="TutorialMessage" type="TextureRect" parent="ParallaxBackground2"]
editor/display_folded = true
anchor_left = 1.0
anchor_top = 1.0
anchor_right = 1.0
anchor_bottom = 1.0
margin_left = -255.0
margin_top = -234.0
texture = ExtResource( 8 )
expand = true
stretch_mode = 1

[node name="VBoxContainer" type="VBoxContainer" parent="ParallaxBackground2/TutorialMessage"]
anchor_right = 1.0
anchor_bottom = 1.0
margin_left = 45.0
margin_top = 54.0
margin_right = -50.0
margin_bottom = -43.0

[node name="Label" type="Label" parent="ParallaxBackground2/TutorialMessage/VBoxContainer"]
margin_right = 160.0
margin_bottom = 137.0
size_flags_vertical = 3
custom_fonts/font = ExtResource( 9 )
text = "Press on the island to begin your.....
Narvosea Adventure"
align = 1
valign = 1
autowrap = true

[node name="CustomButton" parent="ParallaxBackground2" instance=ExtResource( 10 )]
anchor_left = 0.5
anchor_top = 1.0
anchor_right = 0.5
anchor_bottom = 1.0
margin_left = -200.0
margin_top = -90.0
margin_right = 200.0
margin_bottom = -10.0

[node name="IslandInformation" type="TextureRect" parent="ParallaxBackground2"]
editor/display_folded = true
visible = false
anchor_top = 1.0
anchor_bottom = 1.0
margin_top = -254.0
margin_right = 270.0
margin_bottom = -9.0
texture = ExtResource( 8 )
expand = true
__meta__ = {
"_edit_group_": true
}

[node name="InformationContainer" type="VBoxContainer" parent="ParallaxBackground2/IslandInformation"]
anchor_right = 1.0
anchor_bottom = 1.0
margin_left = 50.0
margin_top = 60.0
margin_right = -50.0
margin_bottom = -45.0

[node name="NameText" type="Label" parent="ParallaxBackground2/IslandInformation/InformationContainer"]
margin_right = 170.0
margin_bottom = 32.0
size_flags_horizontal = 3
size_flags_vertical = 6
custom_fonts/font = ExtResource( 9 )
custom_colors/font_color = Color( 1, 0, 0, 1 )
text = "Name: "
valign = 1
uppercase = true

[node name="IslandName" type="Label" parent="ParallaxBackground2/IslandInformation/InformationContainer"]
margin_top = 36.0
margin_right = 170.0
margin_bottom = 68.0
size_flags_horizontal = 3
size_flags_vertical = 6
custom_fonts/font = ExtResource( 9 )
text = "Name: "
align = 1
valign = 1

[node name="TypeText" type="Label" parent="ParallaxBackground2/IslandInformation/InformationContainer"]
margin_top = 72.0
margin_right = 170.0
margin_bottom = 104.0
size_flags_horizontal = 3
size_flags_vertical = 6
custom_fonts/font = ExtResource( 9 )
custom_colors/font_color = Color( 1, 0, 0, 1 )
text = "Type: "
valign = 1
uppercase = true

[node name="IslandType" type="Label" parent="ParallaxBackground2/IslandInformation/InformationContainer"]
margin_top = 108.0
margin_right = 170.0
margin_bottom = 140.0
size_flags_horizontal = 3
size_flags_vertical = 6
custom_fonts/font = ExtResource( 9 )
text = "Type: "
align = 1
valign = 1

[node name="BackgroundSea" type="AudioStreamPlayer2D" parent="."]
stream = ExtResource( 11 )
autoplay = true
bus = "Background"
